https://raw.githubusercontent.com/stbrumme/euler/master/euler-0215.cpp
https://raw.githubusercontent.com/nayuki/Project-Euler-solutions/master/java/p215.java
https://raw.githubusercontent.com/nayuki/Project-Euler-solutions/master/python/p215.py
