https://raw.githubusercontent.com/kamyu104/LeetCode-Solutions/master/C%2B%2B/circle-and-rectangle-overlapping.cpp
https://raw.githubusercontent.com/relentlesscoder/Leetcode/ce2dbf6e93ee360f253912cab0d1fadf90f6c6e5/src/org/wshuai/leetcode/CircleAndRectangleOverlapping.java
https://raw.githubusercontent.com/JuliaCN/LeetCode.jl/37fdccdabb57cca30a648479f9011f4d7caac870/src/unresolved/1401.circle-and-rectangle-overlapping.jl
https://raw.githubusercontent.com/zjayers/leetcode-scraper/50b1829db990be895c82494fd649a9e3ecc7c5ea/algorithms/circleand-rectangle-overlapping
