https://reedphish.wordpress.com/2016/11/20/imf-walkthrough/
https://www.youtube.com/watch?v=f5WKBzxcs5I
https://acebombersecurity.wordpress.com/2016/11/06/imf-1-walkthrough-vulnhub/
https://an0ncore.wordpress.com/2016/11/02/imf-vulnhub-writeup-m4dm4n-w-n1h1l-w-pzyc0-w-trickster0/
https://g0blin.co.uk/imf-vulnhub-writeup/
http://hackernovice.com/2016/11/09/imf-1/
https://www.youtube.com/watch?v=Hxu668hgmnA
