https://github.com/smholsen/backdoorctf/tree/master/beginners/simple_cipher#simple-cipher
https://raw.githubusercontent.com/porpeeranut/CTF/master/BackdoorCTF%202015/Simple%20Cipher%20-%2030pts
http://ctfwriteups.blogspot.com/2014/03/backdoor-ctf-2014-all-trivia.html
