https://raw.githubusercontent.com/sahaavi/HackerRank/master/Algorithms/Strings/Strong%20Password/Solution.cs
https://raw.githubusercontent.com/aditiraj/hackerrankSolutions-JavaScript/master/Strings/strongPassword.js
https://raw.githubusercontent.com/danhenriquesc/hackerrank/master/algorithms/strings/strong_password.py
