https://gist.githubusercontent.com/trendsetter37/8b5c80ea9f0674eb782d/raw/522402fe0a77914541f7d2edea12d4078e2ca9ea/first_nrc.cpp
https://gist.githubusercontent.com/briandiaz/b7128813acec7c180019/raw/276cc594a02ff379a6c82537b5e39db8716f6dfb/firstnonrepeatedcharacter.cs
https://gitlab.com/agaskell/codeeval/-/raw/master/12/12.go
https://raw.githubusercontent.com/mpillar/codeeval/master/1-moderate/first-non-repeated-char/FirstNonRepeatedChar.java
https://raw.githubusercontent.com/pascal-bourut/codeeval-challenges/master/moderate/12%20-%20First%20Non-Repeated%20Character/12.js
https://raw.githubusercontent.com/mneudert/codeeval/master/moderate/first-non-repeated-character/php.php
https://raw.githubusercontent.com/leaen/Codeeval-solutions/master/first-non-repeated-character.py
https://gitlab.com/agaskell/codeeval/-/raw/master/12/12.rb
