https://www.youtube.com/watch?v=1Qs195_8hNw
https://www.youtube.com/watch?v=7PrUX2587A0
https://www.youtube.com/watch?v=Dh9Pa0kDfsc
https://www.youtube.com/watch?v=Rqt_BgG5YyI
https://www.youtube.com/watch?v=PYNVteQJxMk
https://www.youtube.com/watch?v=DNhJw1b1q58
https://www.youtube.com/watch?v=N9wupsQoYeQ
https://www.youtube.com/watch?v=4LM_EIehbsU
