https://github.com/quantiti/public-firing-range-window.postMessage-XSS-1
https://medium.com/@youssefla/dom-xss-walkthrough-4d60c45ffb21
https://gupta-bless.medium.com/exploiting-postmessage-ca65b9ac90a6
https://labs.detectify.com/2016/12/15/postmessage-xss-on-a-million-sites/
https://osama-alaa.medium.com/bug-poc-xss-2-challenge-writeup-429790119912
https://blog.intigriti.com/2020/07/15/bug-bytes-79-burps-story-postmessage-xss-on-tumblr-go-tools-for-faster-recon/
https://renaudmarti.net/posts/intigriti-xss-challenge/
https://research.securitum.com/art-of-bug-bounty-a-way-from-js-file-analysis-to-xss/
https://jlajara.gitlab.io/web/2020/06/12/Dom_XSS_PostMessage.html
https://dev.to/karanbamal/how-to-spot-and-exploit-postmessage-vulnerablities-36cd
