https://www.youtube.com/watch?v=ZfPVGJGkORQ
https://www.youtube.com/watch?v=g3IqI8HEv34
https://www.youtube.com/watch?v=-q0CSJUDF4I
https://www.pinterest.es/pin/297448750384098431/
https://0xdf.gitlab.io/2019/03/06/htb-granny.html
https://www.hackingarticles.in/hack-the-box-challenge-granny-walkthrough/
https://www.jdksec.com/hack-the-box/granny
https://jasperandgarrison.wordpress.com/2017/12/03/hackthebox-granny/
https://teckk2.github.io/writeup/2018/02/23/Grandpa-Granny.html
https://blog.barradell-johns.com/index.php/2019/07/27/htb-granny/
https://www.whitelist1.com/2019/01/granny.html
https://www.youtube.com/watch?v=1cGg-XtNCa0
