https://www.youtube.com/watch?v=AXE2mIUL_R4
https://www.youtube.com/watch?v=Dxgy7veZ8qc
http://www.anonhack.in/2018/07/goldeneye-1-walkthrough-vulnhub-vulnerable-machine/
https://medium.com/egghunter/goldeneye-1-vulnhub-walkthrough-f31d80a5267b
https://blog.barradell-johns.com/index.php/2018/08/04/goldeneye-one-writeup/
https://hackso.me/goldeneye-1-walkthrough/
https://portwhisperer.github.io/CTFWriteups/goldeneye.html
https://netchameleon.com/VulnHub_Writeups/goldeneye_v1.html
https://www.youtube.com/watch?v=l3WT1Z1czkk
https://www.youtube.com/watch?v=vtEnNJjHtj4
https://ethicalhackingguru.com/the-vulnhub-goldeneye-walkthrough/
https://blog.mzfr.me/vulnhub-writeups/2019-07-25-goldeneye
https://joona.xyz/2019/12/30/vulnhub-goldeneye.html
https://pentesterjourney.com/2019/02/25/vulnhub-goldeneye-walkthrough/
https://www.peerlyst.com/posts/cyberfeminist-hacker-goldeneye-v1-walkthrough-or-vulnhub-magda-chelly-ph-d
https://blog.csdn.net/weixin_44214107/article/details/103056860
