https://github.com/bsqrl/juice-shop-walkthrough#5-log-in-with-benders-user-account
https://github.com/apox64/OWASP-Juice-Shop-Write-Up/blob/master/juice-shop-writeup.md#15-log-in-with-benders-user-account
http://m4l1ce.me/writeups/2017/01/09/juice-shop.html
https://github.com/bkimminich/pwning-juice-shop/blob/master/appendix/solutions.md#log-in-with-benders-user-account
https://bkimminich.gitbooks.io/pwning-owasp-juice-shop/content/appendix/solutions.html
https://bkimminich.gitbooks.io/pwning-owasp-juice-shop/content/part2/broken-authentication.html
https://raw.githubusercontent.com/apox64/OWASP-Juice-Shop-Write-Up/master/juice-shop-writeup.md
