https://docs.rapid7.com/metasploit/metasploitable-2-exploitability-guide/
https://0x00sec.org/t/metasploitable-2-how-to-irc-backdoor-exploitation-metasploit-python/1931
http://www.computersecuritystudent.com/SECURITY_TOOLS/METASPLOITABLE/EXPLOIT/lesson7/
http://www.reydes.com/d/?q=Explotar_Puerta_Trasera_de_UnrealIRCd_en_Metasploitable_2
https://www.hackingtutorials.org/metasploit-tutorials/hacking-unreal-ircd-3-2-8-1/
https://311hrs.wordpress.com/2016/05/22/metasploitable-2-unreal-ircd-part-10/
https://www.youtube.com/watch?v=qqvj58Lma5Q
https://www.youtube.com/watch?v=c4OGHRgq59I
https://www.youtube.com/watch?v=BRmWzt62lgk
https://www.youtube.com/watch?v=Hh7GjMUtRjo
https://www.youtube.com/watch?v=Z-sJDPxbQc0
https://www.youtube.com/watch?v=gjAdfSP00Lo
https://a.ndronic.us/guides/metasploit/html/index.html#__RefHeading___Toc1371_321873903
https://www.youtube.com/watch?v=tshgz2-yShw
https://github.com/spvreddy/metasploitable-solutions/blob/master/attacking-on-port-6667.md
https://medium.com/@informationseek/metasploitable2-c0d99560145d
https://mundo-hackers.weebly.com/puerto-6667---irc.html
https://cyberarms.wordpress.com/2012/08/08/metasploitable-2-0-tutorial-part-3-gaining-root-from-a-vulnerable-service/
https://www.hackinsight.org/news,580.html
https://akvilekiskis.com/work/metasploitable/index.html
https://stuffwithaurum.com/2015/06/14/metasploitable-2-walkthrough-an-exploitation-guide/
https://www.yeahhub.com/exploitation-unrealircd-using-metasploit-perl-script/
https://blog.securelayer7.net/attacking-metasploitable-2-using-metasploit/1-10/
