https://rundata.wordpress.com/2013/06/23/overthewire-leviathan-wargame-solution-5/
https://www.youtube.com/watch?v=I6Ns7R7paJY&t=1258s
https://raw.githubusercontent.com/Lorenyx/OverTheWire-Solutions/master/leviathan/level_5.md
