https://raw.githubusercontent.com/aeurielesn/codeforces/master/4/C/registration-system.cc
https://raw.githubusercontent.com/svanegas/programming_solutions/master/Codeforces/4C%20-%20Registration%20System/4C.cpp
https://raw.githubusercontent.com/0JAdams/JavaCodeForcesSolutions/master/4C/Main.java
https://raw.githubusercontent.com/fuwutu/CodeForces/master/4C%20-%20Registration%20System.py
https://raw.githubusercontent.com/Vicfred/codeforces-rust/master/registration_system_4C.rs
https://gist.githubusercontent.com/KhaledElshamy/7f7577311c1af84414d0531f2167ffb5/raw/0454b2d9e0e2b6002a772dff3e858941a83b95cc/C.%2520Registration%2520System%2520Solution-Codeforces
