https://raw.githubusercontent.com/kamyu104/LeetCode-Solutions/master/C%2B%2B/coin-change-2.cpp
https://gist.githubusercontent.com/CodeMySky/f4636fcbe887cdb6e7957d86b3d45977/raw/a2bf3c7188a6b65dc0dd6e95f20c8f08ac5ea649/lc518-1.java
https://gist.githubusercontent.com/cixuuz/f4408eb706be4b337494af0dd0e24c47/raw/caa4da9223ff59d4ff8ec7f69b3415540f2af3a9/518_1019.py
