https://highon.coffee/blog/lamp-security-ctf5-walkthrough/
https://sourceforge.net/projects/lampsecurity/files/CaptureTheFlag/CTF8/
https://repo.zenk-security.com/Techniques%20d.attaques%20%20.%20%20Failles/LAMPSecurity%20Projet-ctf8.pdf
https://www.thecybersploit.com/2019/04/lamp-security-ctf8-walk-through.html
https://github.com/hannay1/CTF_Writeups/blob/master/LAMP_CTF_8.txt
