https://raw.githubusercontent.com/guillaume-nargeot/project-euler-clojure/master/src/project_euler/problem_124.clj
https://raw.githubusercontent.com/stbrumme/euler/master/euler-0124.cpp
https://raw.githubusercontent.com/nayuki/Project-Euler-solutions/master/java/p124.java
https://raw.githubusercontent.com/nayuki/Project-Euler-solutions/master/python/p124.py
https://raw.githubusercontent.com/gifnksm/ProjectEulerRust/master/src/bin/p124.rs
