https://raw.githubusercontent.com/Infinite-eyes/Codeforces/master/1B.c
https://raw.githubusercontent.com/aeurielesn/codeforces/master/1/B/spreadsheet.cc
https://raw.githubusercontent.com/hoplon/javelin/master/src/javelin/core.clj
https://raw.githubusercontent.com/hoplon/javelin/master/src/javelin/core.cljs
https://raw.githubusercontent.com/mikeymckay/google-spreadsheet-javascript/master/google-spreadsheet.coffee
https://raw.githubusercontent.com/fuwutu/CodeForces/master/1B%20-%20Spreadsheet.cpp
https://raw.githubusercontent.com/D1ceWard/xlsx-parser/master/src/xlsx-parser/sheet.cr
https://raw.githubusercontent.com/Voronchuk/elixir_google_spreadsheets/master/lib/elixir_google_spreadsheets/spreadsheet.ex
https://raw.githubusercontent.com/Iwark/spreadsheet/v2/spreadsheet.go
https://raw.githubusercontent.com/FranklinChen/spreadsheet-haskell/main/src/Spreadsheet.hs
https://raw.githubusercontent.com/osakared/haxe-spreadsheet/master/src/spreadsheet/Spreadsheet.hx
https://raw.githubusercontent.com/zlangley/contest-programming/master/codeforces/1/Spreadsheets.java
https://raw.githubusercontent.com/myliang/x-spreadsheet/master/src/algorithm/expression.js
https://raw.githubusercontent.com/fwilhe2/Inzell/master/src/commonMain/kotlin/com/github/fwilhe/inzell/Inzell.kt
https://raw.githubusercontent.com/hishamhm/spreadsheet/master/formula_generator.lua
https://raw.githubusercontent.com/FranklinChen/spreadsheet-ocaml/master/src/DefaultSpreadsheet.ml
https://raw.githubusercontent.com/PHPOffice/PhpSpreadsheet/master/src/PhpSpreadsheet/Spreadsheet.php
https://raw.githubusercontent.com/changyuheng/codeforces-solutions/master/1b.py
https://raw.githubusercontent.com/zdavatz/spreadsheet/master/lib/spreadsheet.rb
https://raw.githubusercontent.com/mesa-x/spreadsheet/main/src/eval.rs
https://raw.githubusercontent.com/sherpal/Scala-Google-Spreadsheets/master/src/main/scala/facade/spreadsheetapp/SpreadSheet.scala
https://raw.githubusercontent.com/vogtb/spreadsheet/master/src/Sheet.ts
https://raw.githubusercontent.com/nkallen/ss/master/ss
