https://github.com/Purp1eW0lf/HackTheBoxWriteups/blob/master/Retired%20Machines/ScriptKiddie.pdf
https://dtwh.medium.com/hack-the-box-scriptkiddle-walkthrough-without-metasploit-e683c4c38fac
https://khaoticdev.net/hackthebox-scriptkiddie/
https://github.com/evyatar9/Writeups/tree/master/HackTheBox/ScriptKiddie
