https://raw.githubusercontent.com/davearonson/exercism-solutions/master/elixir/matrix/matrix.exs
https://raw.githubusercontent.com/ChrisPritchard/My-Exercism-Solutions/master/fsharp/matrix/Matrix.fs
https://raw.githubusercontent.com/tfausak/exercism-solutions/master/haskell/matrix/Matrix.hs
https://raw.githubusercontent.com/ozan/solutions/master/exercism/java/matrix/src/test/java/MatrixTest.java
https://raw.githubusercontent.com/rohitcy/excercism.io/master/matrix/matrix.rb
https://raw.githubusercontent.com/ChrisWilding/exercism-scala/master/matrix/src/test/scala/MatrixTest.scala
