https://raw.githubusercontent.com/paulfioravanti/exercism/master/c/rna-transcription/src/rna_transcription.c
https://raw.githubusercontent.com/riseshia/exercism/master/clojure/rna-transcription/src/rna_transcription.clj
https://raw.githubusercontent.com/JIghtuse/exercism-solutions/master/cpp/rna-transcription/rna_transcription.cpp
https://raw.githubusercontent.com/paulfioravanti/exercism/master/crystal/rna-transcription/src/rna_transcription.cr
https://raw.githubusercontent.com/paulfioravanti/exercism/master/erlang/rna-transcription/src/rna_transcription.erl
https://raw.githubusercontent.com/mudssrali/excercism-solutions/main/elixir/rna-transcription/lib/rna_transcription.ex
https://raw.githubusercontent.com/v-kolesnikov/exercism-elixir/master/lib/exercism/elixir/rna-transcription/rna_transcription.exs
https://raw.githubusercontent.com/alialliallie/exercism-solutions/master/go/rna-transcription/rna_transcription_test.go
https://raw.githubusercontent.com/alialliallie/exercism-solutions/master/haskell/rna-transcription/rna-transcription_test.hs
https://raw.githubusercontent.com/binupaul/exercism-java-solutions/master/java/rna-transcription/src/main/java/RnaTranscription.java
https://raw.githubusercontent.com/paulfioravanti/exercism/master/javascript/rna-transcription/rna-transcription.js
https://raw.githubusercontent.com/varunu28/Exercism-Python/master/rna-transcription/rna_transcription_test.py
https://raw.githubusercontent.com/novohispano/exercism_solutions/master/ruby/rna-transcription/dna.rb
https://raw.githubusercontent.com/paulfioravanti/exercism/master/rust/rna-transcription/src/lib.rs
https://raw.githubusercontent.com/paulfioravanti/exercism/master/bash/rna-transcription/rna_transcription.sh
https://raw.githubusercontent.com/paulfioravanti/exercism/master/typescript/rna-transcription/rna-transcription.ts
