https://raw.githubusercontent.com/zst123/picoctf-2018-writeups/master/Solved/Aca_Shell_A/README.md
https://raw.githubusercontent.com/PlatyPew/picoctf-2018-writeup/master/General%20Skills/Aca-Shell-A/README.md
https://medium.com/@imshiny808/pico-ctf-2018-aca-shell-a-solved-5877c5880993
https://medium.com/@2019pe70061/how-to-solve-aca-shell-a-a5e9a9f8317f
https://raw.githubusercontent.com/piyushagru/picoCTF-18/master/Aca-Shell-A/README.md
https://iamhuyenmy.home.blog/2019/07/30/picoctf-aca-shell-a-points-150/
https://tcode2k16.github.io/blog/posts/picoctf-2018-writeup/general-skills/#aca-shell-a
https://www.youtube.com/watch?v=S-zGhPI3UWE
https://raw.githubusercontent.com/0e85dc6eaf/CTF-Writeups/master/PicoCTF%202018/General%20skills/Aca-Shell-A/README.md
