https://raw.githubusercontent.com/Samleo8/CoderByte/master/Easy/SimpleAdding.c
https://raw.githubusercontent.com/Gamer1092/Coderbyte/Easy/Simple%20Adding.cpp
https://raw.githubusercontent.com/Nigelmnz/CoderbyteSolutions/master/05-SimpleAdding/5.hs
https://raw.githubusercontent.com/ZLester/Coderbyte-Solutions/master/Easy/05%20-%20Simple%20Adding.js
https://raw.githubusercontent.com/copacubanana/phpCoderbyteEasy/master/05simpleadding.php
https://raw.githubusercontent.com/juyongsim/coderbyte/master/SimpleAdding.rb
