https://raw.githubusercontent.com/oolugboy/Hackerrank/master/Abbreviation.cpp
https://raw.githubusercontent.com/HamidTheGeek/HackerRankSolutions/master/Solutions/Abbreviation.cs
https://raw.githubusercontent.com/settyblue/HackerRank/master/Algorithms/DynamicProgramming/abbreviation.java
https://raw.githubusercontent.com/philgooch/abbreviation-extraction/develop/abbreviations/schwartz_hearst.py
https://raw.githubusercontent.com/raghav97/Hackerrank-Solutions/master/abbreviation.rb
