https://raw.githubusercontent.com/guyinatuxedo/ctf/master/tu19/vulnmath/readme.md
https://ctftime.org/writeup/17389
https://raw.githubusercontent.com/ChaO-0/WriteUps/master/TUCTF/pwn/vulnmath/exploit.py
https://raw.githubusercontent.com/0xf4b1/ctftime/master/tuctf.com/pwn/vulnmath/README.md
https://0xf4b1.github.io/ctftime/tuctf.com/pwn/vulnmath/#vulnmath
