https://raw.githubusercontent.com/max-b/io-netgarage/master/basic/level3/level03.c
https://github.com/HLOverflow/io.netgarage.org-writeup/blob/master/level3/Level3.md
https://raw.githubusercontent.com/mitchellharvey/io.netgarage.org/master/level3/solution
