https://medium.com/challenges-htb/como-resolver-bank-heist-htb-46a67a1fefe0
https://solitudelab.wordpress.com/2019/08/12/2-write-up-crypto-bank-heist-hackthebox/
https://www.youtube.com/watch?v=6QYl4nfOFkw
https://www.theobservator.net/write-up-hack-the-box-bank-heist-crypto/
https://0xrick.github.io/hack-the-box/heist/
https://github.com/Hackplayers/hackthebox-writeups/blob/master/challenges/crypto/Bank%20Heist/magichk-BankHeist.pdf
https://github.com/Hackplayers/hackthebox-writeups/blob/master/challenges/crypto/Bank%20Heist/Bank-Heist-Writeup-Qarnix.pdf
https://www.youtube.com/watch?v=DCP_FO0UzuM
