https://fwhibbit.es/htb-writeup-magic
https://github.com/Hackplayers/hackthebox-writeups/blob/master/machines/Magic/IceL0rd-Magic.pdf
https://github.com/Hackplayers/hackthebox-writeups/blob/master/machines/Magic/kaosam-Magic.pdf
https://github.com/Hackplayers/hackthebox-writeups/blob/master/machines/Magic/magic-HTB-WU-noraj.pdf
