143
1405
8 22
21 21
30 47
7 7
18 32
28 46
13 18
30 63
9 13
22 60
8 23
30 35
21 39
26 61
5 14
21 35
16 40
21 38
9 23
8 10
12 32
22 55
15 34
29 65
7 7
6 15
17 33
28 79
7 13
23 40
22 61
23 23
30 48
19 28
15 41
19 39
23 38
9 27
21 58
24 35
6 16
12 32
16 27
9 26
27 78
28 62
6 12
13 14
18 33
14 32
24 30
13 33
26 44
6 9
27 36
11 31
26 78
29 50
9 16
10 19
18 54
29 80
11 15
15 27
16 41
17 43
10 28
19 38
26 47
10 19
27 40
11 33
29 70
14 21
17 35
21 29
14 17
26 32
22 32
17 48
24 70
6 9
6 15
29 64
26 65
7 16
7 17
10 15
19 52
11 15
25 40
25 44
16 33
15 29
28 31
28 34
16 48
8 14
12 35
20 45
13 24
14 25
24 29
11 15
20 25
19 30
17 26
5 15
14 41
16 39
28 71
8 23
8 19
22 54
7 15
12 36
16 44
24 65
11 32
28 72
12 29
26 27
20 60
9 23
9 9
17 30
19 54
27 38
5 5
5 12
10 18
17 33
15 28
24 61
18 38
16 33
29 31
13 29
21 27
23 33
23 43
22 54
14 14
