https://raw.githubusercontent.com/charles-wangkai/hacker.org/master/challenge/NewsgroupCipher.py
https://raw.githubusercontent.com/luceatnobis/challenges/master/hacker.org/didactic_bits/bits.pl
https://raw.githubusercontent.com/imaohw/hacker.org/master/001/solve.pl
