https://kamransaifullah.medium.com/lernaean-web-challenge-hackthebox-ab2b5540b174
https://www.moses-security.com/blog/hackthebox-ctf-lernaen-walkthrough
https://phantominfosec.wordpress.com/2018/12/16/hackthebox-web-challenge-lernaean/
https://programmersought.com/article/98424560345/
https://www.programmersought.com/article/8304569509/
https://laptrinhx.com/hack-the-box-lernaean-walkthrough-3206410927/
https://mindwarelab.wordpress.com/ctf/hack-the-box/htb-challenge-lernaean/
https://davidalonso1.medium.com/web-challenge-lernaean-hack-the-box-8fa54da52d3a
https://infinitelogins.com/2020/02/22/how-to-brute-force-websites-using-hydra/
https://github.com/mmetalmaster/hackthebox/tree/master/web/lernaean
