https://fwhibbit.es/htb-writeup-netmon
https://github.com/Hackplayers/hackthebox-writeups/blob/master/machines/Netmon/1v4n-netmon.pdf
https://github.com/Hackplayers/hackthebox-writeups/blob/master/machines/Netmon/fiti-netmon.pdf
https://github.com/Hackplayers/hackthebox-writeups/blob/master/machines/Netmon/n4xh4ck5-netmon.pdf
https://github.com/Hackplayers/hackthebox-writeups/blob/master/machines/Netmon/superhedgy-Netmon_Walkthrough.pdf
