https://raw.githubusercontent.com/hsamuelson/CiphR/master/R/ceasarCipher.R
https://raw.githubusercontent.com/fredmaggiowski/MIPS-Caesar-Cipher/master/caesar.asm
https://raw.githubusercontent.com/GStrongman/CipherCracker/master/crack-skel.c
https://raw.githubusercontent.com/zamlutti/cipher/master/src/cipher/core.clj
https://raw.githubusercontent.com/monolli/caesar_cracker/master/crack.cpp
https://raw.githubusercontent.com/wellthathappened/CaesarCipherCracker/master/Lewis_CaesarCipherC%23.cs
https://raw.githubusercontent.com/rmRizki/caesar-cipher/master/lib/main.dart
https://raw.githubusercontent.com/w0jnar/TheoryProject/master/erlang/caesar.erl
https://raw.githubusercontent.com/BobNisco/Caesar-Cipher/master/caesar.f90
https://raw.githubusercontent.com/alexjohnj/caesar/master/caesar.go
https://raw.githubusercontent.com/wellthathappened/CaesarCipherCracker/master/Lewis_Cipher.hs
https://raw.githubusercontent.com/igor-kutepov/codeabbey/master/src/main/java/com/kutepov/samples/codeabbey/CaesarCipherCracker.java
https://raw.githubusercontent.com/phobos101/CeaserCracker/master/password_cracker.js
https://raw.githubusercontent.com/emilancius/caesar/master/src/main/kotlin/org/emgen/crypto/caesar/Application.kt
https://raw.githubusercontent.com/BobNisco/Caesar-Cipher/master/Caesar.lisp
https://raw.githubusercontent.com/lewtds/pathfinder.lua/master/pathfinder.lua
https://raw.githubusercontent.com/sfoteini/caesar-cipher/master/caesar.m
https://raw.githubusercontent.com/BobNisco/Caesar-Cipher/master/caesar.ml
https://raw.githubusercontent.com/w0jnar/TheoryProject/master/pascal/caesar.pas
https://raw.githubusercontent.com/MicoGD/caesar-cipher/master/src/CaesarCipherRu.php
https://raw.githubusercontent.com/Xzya/CodeAbbeySolutions/master/CaesarCipherCracker.py
https://gist.githubusercontent.com/madwork/18ea6ea0d28ffd2a97a9/raw/3b9b5d00f1c6ee785142caa69fe2f3d9281aafcf/caesar_cipher.rb
https://gist.githubusercontent.com/pmsosa/97a46813bf23ddb2f621/raw/0d8dc364891741255d4b8a27a01596c6b10ef643/caesar_chipher.scala
https://gist.githubusercontent.com/IQAndreas/030b8e91a8d9a407caa6/raw/f44589a3e804e7fdc756178ecdf0978f7bb48ac9/caesar-cipher.sh
https://raw.githubusercontent.com/Houdou/SubstitutionCipherTool/master/src/app/app.component.ts
https://gist.githubusercontent.com/aawindfeldt/1191ff6a4e99fa2ae2eb55ba9e444f74/raw/82dd20ce771c243336ea43608ffeacbf686c272d/Caeser%2520Shift
https://raw.githubusercontent.com/JesseClarkND/codeabbey_in_C-NET/master/Caesar%20Cipher%20Cracker
