https://raw.githubusercontent.com/gisliany/rubik-s-cube/master/main.c
https://raw.githubusercontent.com/tobyliu-sw/rubik-cube-solver/master/src/rubik_cube.cpp
https://raw.githubusercontent.com/SChakravorti21/Rubiks-Cube-Solver/master/src/Cube.java
https://raw.githubusercontent.com/pglass/cube/master/rubik/solve.py
https://raw.githubusercontent.com/gorilskij/Rubyks/master/cube.rb
