https://raw.githubusercontent.com/fuwutu/CodeForces/master/222A%20-%20Shooshuns%20and%20Sequence.cpp
https://raw.githubusercontent.com/changyuheng/codeforces-solutions/master/222a.py
https://raw.githubusercontent.com/bound1ess/codeforces-problemset-2/master/222/a.test
