https://raw.githubusercontent.com/dominiquejb/ringzer0team-CTF/master/challenge56/hashbreaker.txt
https://github.com/rdtsc/ringzer0-ctf-solutions/tree/master/src/hash-breaker
https://raw.githubusercontent.com/mnoalett/ringzer0-ctf/master/sha1.py
https://raw.githubusercontent.com/SimpleAOB/Ringzer0-CTF/master/solutions/56.js
