https://raw.githubusercontent.com/aeurielesn/codeforces/master/6/B/president's-office.cc
https://raw.githubusercontent.com/AkashChandrakar/codeforces-solutions/master/c%2B%2B/6-B-13100167.cpp
https://raw.githubusercontent.com/0JAdams/JavaCodeForcesSolutions/master/6B/Main.java
https://raw.githubusercontent.com/nomeaning777/codeforces/master/6B.rb
