https://advancedpersistentjest.com/2017/10/08/writeup-backdoor-pi-kaspersky-labs-ctf/
https://teamrocketist.github.io/2017/10/08/Reverse-Kaspersky-Industrial-CTF-Quals-2017-Backdoor-Pi/
http://zeosutt.hatenablog.com/entry/2017/10/10/033717
https://petircysec.com/kaspersky-industrial-ctf-quals-2017-backdoor-pi-300/
