https://raw.githubusercontent.com/rdtsc/codeeval-solutions/master/src/easy/roman-numerals/solutions/c/solution.c
https://raw.githubusercontent.com/jingcmu/codeeval/master/ROMAN%20NUMERALS.cpp
https://raw.githubusercontent.com/AvetisG/CodeEval/master/01%20-%20Easy/C%23/RomanNumerals/RomanNumeralsSolution.cs
https://raw.githubusercontent.com/mpillar/codeeval/master/0-easy/roman-numerals/RomanNumerals.java
https://raw.githubusercontent.com/pascal-bourut/codeeval-challenges/master/easy/106%20-%20Roman%20Numerals/106.js
https://raw.githubusercontent.com/pascal-bourut/codeeval-challenges/master/easy/106%20-%20Roman%20Numerals/106.php
https://raw.githubusercontent.com/rdtsc/codeeval-solutions/master/src/easy/roman-numerals/solutions/python/solution.py
