https://raw.githubusercontent.com/emirot/hackerrank/master/dataStructures/linkedListCpp/getNodeValue.cpp
https://raw.githubusercontent.com/TheNewStyles/hackerrank-solutions/master/GetNodeValue.cs
https://raw.githubusercontent.com/RodneyShag/HackerRank_solutions/master/Data%20Structures/Linked%20Lists/Get%20Node%20Value/Solution.java
https://raw.githubusercontent.com/MaskRay/HackerRank/master/get-the-value-of-the-node-at-a-specific-position-from-the-tail.py
