https://raw.githubusercontent.com/linuxp3nguin/microcorruption-1/master/CTF/NO
https://ctfwriteup.wordpress.com/2014/04/08/microcorruption-new-orleans/
http://www.rockfishsec.com/2014/01/microcorruption-new-orleans.html
https://github.com/ciz/microcorruption#new-orleans
