https://raw.githubusercontent.com/MaskRay/HackerRank/master/sam-and-substrings.cc
https://raw.githubusercontent.com/derekhh/HackerRank/master/sam-and-substrings.cpp
https://raw.githubusercontent.com/HamidTheGeek/HackerRankSolutions/master/Solutions/SamAndSubstrings.cs
https://raw.githubusercontent.com/duaraghav8/Hackerrank-Problems/master/sam_and_substrings.py
