https://raw.githubusercontent.com/linuxp3nguin/microcorruption-1/master/CTF/WH
https://rakshacks.wordpress.com/2016/08/18/microcorruption-whitehorse/
https://www.youtube.com/watch?v=nCrXgrPW7SY
http://tlk.tuxfamily.org/doku.php?id=writeup:microcorruption:whitehorse
https://github.com/ciz/microcorruption#whitehorse
