https://raw.githubusercontent.com/akhiluanandh/SPOJ/master/TEST.c
https://raw.githubusercontent.com/fjozsef/SPOJ/master/TESTINT/testint.cc
https://raw.githubusercontent.com/vfonic/SPOJ/master/test.cpp
https://raw.githubusercontent.com/ocharles/SPOJ-solutions/master/TEST.lisp
https://gist.githubusercontent.com/vaseem-khan/3024503/raw/1a5319132d025aca9bbd97930e3b2d686c9bd5e1/TEST.py
