https://www.kumaratuljaiswal.in/2020/06/tryhackme-rp-crack-hash.html
https://unicornsec.com/home/tryhackme-crack-the-hash
https://sckull.github.io/posts/hashes/
https://whitedevil404.medium.com/tryhackme-crack-the-hash-writeup-walkthrough-by-whitedevil-822a5ac48579
https://0xln.pw/2019/09/28/try-hack-me-crack-the-hash-writeup.html
https://www.cybergoat.co.uk/writeup/Crack-the-Hash-TryHackMe/
https://cyber-99.co.uk/mesmerize/thm-crack-the-hash-ctf
https://securitytutorials.co.uk/crack-the-hash-challenge/
https://fthcyber.com/2020/09/28/hashing-crypto-101-writeup-tryhackme/
https://www.thedutchhacker.com/john-the-ripper-on-tryhackme/
https://erichegeman.com/tryhackme-custom-wordlists/
https://github.com/abhi-agrawl/tryhackme-writeups/blob/main/crack-the-hash/README.md
