50
9 5 1152
7 9 8768
6 9 4162
9 8 19641
8 6 225
8 9 23077
6 5 46
8 9 704
7 9 10670
7 5 417
7 5 647
7 9 9610
7 8 936
5 7 25
6 7 1655
8 6 2042
7 7 2748
5 8 214
9 5 74
6 7 1466
5 9 730
8 9 21500
5 6 322
7 6 611
5 5 225
5 5 33
9 7 7830
6 5 166
9 9 25195
7 6 850
8 8 7931
8 9 4975
8 9 988
6 8 325
9 6 1962
9 8 12274
7 7 1738
9 8 19453
5 8 272
5 7 563
5 5 140
6 9 4590
8 7 5842
6 6 444
8 7 3773
5 8 262
6 5 398
8 6 626
6 6 433
6 7 707
