https://github.com/bsqrl/juice-shop-walkthrough#7-xss-tier-2-perform-a-persisted-xss-attack-with-scriptalertxss2script--bypassing-a-client-side-security-mechanism
https://bkimminich.gitbooks.io/pwning-owasp-juice-shop/content/appendix/solutions.html
https://github.com/apox64/OWASP-Juice-Shop-Write-Up/blob/master/juice-shop-writeup.md#16-xss-tier-2-perform-a-persisted-xss-attack-bypassing-a-client-side-security-mechanism
https://incognitjoe.github.io/hacking-the-juice-shop.html
https://mincong.io/2019/01/23/security-training-day-2/
https://bkimminich.gitbooks.io/pwning-owasp-juice-shop/content/part2/xss.html
https://github.com/apox64/OWASP-Juice-Shop-Write-Up/blob/master/juice-shop-writeup.md
https://raw.githubusercontent.com/apox64/OWASP-Juice-Shop-Write-Up/master/juice-shop-writeup.md
https://raw.githubusercontent.com/refabr1k/owasp-juiceshop-solutions/master/Level2/classic-stored-xss.md
