https://raw.githubusercontent.com/stbrumme/euler/master/euler-0208.cpp
https://raw.githubusercontent.com/nayuki/Project-Euler-solutions/master/java/p208.java
https://raw.githubusercontent.com/nayuki/Project-Euler-solutions/master/python/p208.py
