https://raw.githubusercontent.com/mohandsakr/my-problem-solving-solutions-on-codeforces.com/master/32B.%20Borze.cpp
https://raw.githubusercontent.com/bound1ess/codeforces-problemset/master/32/b.java
https://raw.githubusercontent.com/nomeaning777/codeforces/master/32B.rb
https://raw.githubusercontent.com/noobslayer404/codeforces/master/32B
