https://raw.githubusercontent.com/max-b/io-netgarage/master/basic/level2/level02.c
https://github.com/HLOverflow/io.netgarage.org-writeup/blob/master/level2/Level2.md
https://raw.githubusercontent.com/mitchellharvey/io.netgarage.org/master/level2/solution
