https://raw.githubusercontent.com/Infinite-eyes/Codeforces/master/2B.C
https://raw.githubusercontent.com/aeurielesn/codeforces/master/2/B/the-least-round-way.cc
https://raw.githubusercontent.com/DionysiosB/CodeForces/master/001-099/2B-TheLeastRoundWay.cpp
https://raw.githubusercontent.com/0JAdams/JavaCodeForcesSolutions/master/2B/Main.java
https://raw.githubusercontent.com/sooheesh/blog/master/algorithm/codeforces/2B-the-least-round-way/index.submitted.js
https://raw.githubusercontent.com/vsg/codeforces/master/002B.%20The%20least%20round%20way.py
