4 1 4 1 2 2 2 4 4 4 4 1 1 2 3 2 2 1 4 3 4 3 1 4 3 3 4 1 3 4 2 3 4 2 3 2 4 4 1 3 4 1 4 1 2 2 2 4 3 2 2 2 4 2 2 2 4 1 3 3 1 1 1 1 3 4 2 2 4 3 1 3 4 1 4 2 2 1 1 4 2 2 2 2 3 3 4 3 4 3 1 4 3 2 4 2 2 2 3 1 0
11 12 11 8 4 4 9 4 4 3 8 7 8 5 3 6 1 12 1 4 11 9 9 11 1 12 5 9 2 7 8 12 6 7 7 10 10 4 1 2 6 9 8 2 1 10 7 2 10 7 5 9 4 2 7 4 2 11 1 3 5 8 2 11 2 9 8 12 12 9 1 6 5 9 7 6 7 2 8 5 9 12 1 12 2 7 4 3 6 4 5 11 12 7 10 2 3 6 2 3 0
3 3 4 1 1 2 1 3 4 4 3 4 4 3 2 1 4 4 2 2 4 2 4 3 3 1 4 4 2 1 4 4 3 4 1 3 2 2 2 2 2 4 1 1 3 2 2 2 2 4 4 1 2 3 3 4 4 3 3 1 3 3 1 2 3 2 1 1 3 2 2 4 1 2 1 3 4 2 1 1 1 1 2 2 4 4 2 3 3 1 4 2 3 1 3 1 2 4 2 4 0
