50
433454
243549
503829
417063
148401
682153
636385
798468
323923
243936
525360
127504
186123
373791
492143
755204
674774
86716
437419
432290
478427
904296
805269
697056
304448
979502
421909
223170
539593
552536
349767
668225
761703
566000
176022
793703
825893
506916
650228
743100
5802
153795
942259
487130
755820
304548
594691
885661
407282
135141
