https://github.com/skiptomyliu/solutions-bwapp#xss---reflected-user-agent
http://www.sec-art.net/2018/06/bwapp-buggy-web-application-xss.html
http://security-is-just-an-illusion.blogspot.com/2014/01/bwapp-cross-site-scripting-xss.html
https://www.digitalmunition.me/tag/bwapp/
https://www.digitalmunition.me/bwapp-xss-reflected-php_self-referer-user-agent/
https://suritam9.pe.kr/index.php?mid=imp&page=2&document_srl=1357&m=0&sort_index=comment_count&order_type=asc
https://wooly6bear.files.wordpress.com/2016/01/bwapp-tutorial.pdf
https://hyasin.github.io/
https://m.blog.naver.com/PostView.nhn?blogId=is_king&logNo=221612998658&proxyReferer=https%3A%2F%2Fwww.google.com%2F
