https://github.com/cerc-undip/CTF-Learn-Writeup/tree/master/milk_best_friend_COMPLETE
http://fkclai.blogspot.com/2018/08/ctflearn-httpsbeta.html
https://www.youtube.com/watch?v=9e1k58l8lnc
https://raw.githubusercontent.com/cerc-undip/CTF-Learn-Writeup/master/milk_best_friend_COMPLETE/script.sh
https://raw.githubusercontent.com/cerc-undip/CTF-Learn-Writeup/master/milk_best_friend_COMPLETE/README.md
https://github.com/r0han21/ctf_learn_sols/blob/master/Milk_best_friend.docx
