https://alexandervoidstar.wordpress.com/2015/07/11/hackthis-main-level-7/
https://www.youtube.com/watch?v=3w27jmcrdbQ
https://www.youtube.com/watch?v=D_26AYoWHek
https://www.youtube.com/watch?v=9VK9oCd5bB8
