https://raw.githubusercontent.com/linuxp3nguin/microcorruption-1/master/CTF/SY
https://ctfwriteup.wordpress.com/2014/04/08/microcorruption-sydney/
https://www.youtube.com/watch?v=afnpcFb0PAQ
https://github.com/ciz/microcorruption#sydney
