https://raw.githubusercontent.com/bbortt/assembly-binary-2-base32/master/base32enc.asm
https://raw.githubusercontent.com/WWelna/Base32/master/b32.c
https://raw.githubusercontent.com/agnoster/base32-js/master/test/base32-test.coffee
https://raw.githubusercontent.com/madebits/cpp-base32/master/Base32.cpp
https://raw.githubusercontent.com/noumar/base32/master/src/base32.cr
https://raw.githubusercontent.com/wiry-net/Wiry.Base32/master/src/Wiry.Base32/Base32Encoding.cs
https://raw.githubusercontent.com/Daegalus/dart-base32/master/lib/base32.dart
https://raw.githubusercontent.com/dnsimple/base32_erlang/master/src/base32.erl
https://raw.githubusercontent.com/gtbuchanan/BaseNcode/master/src/BaseNcode/Base32.fs
https://raw.githubusercontent.com/golang/go/master/src/encoding/base32/base32.go
https://raw.githubusercontent.com/pxqr/base32-bytestring/master/src/Data/ByteString/Base32.hs
https://gist.githubusercontent.com/markov/5206312/raw/f5a40c1449c48d3647697c88ec0cda3a2cbb7413/CrockfordBase32.java
https://raw.githubusercontent.com/emn178/hi-base32/master/src/base32.js
https://raw.githubusercontent.com/hargettp/cl-base32/master/base32.lisp
https://raw.githubusercontent.com/nmap/nmap/master/nselib/base32.lua
https://raw.githubusercontent.com/Xor-el/SimpleBaseLib4Pascal/master/SimpleBaseLib/src/Bases/SbpBase32.pas
https://raw.githubusercontent.com/tuupola/base32/master/src/Base32.php
https://raw.githubusercontent.com/pastelito02/Challenges-sol/master/Programming/Codeabbey/206/Tyro.py
https://raw.githubusercontent.com/stesla/base32/master/lib/base32.rb
https://raw.githubusercontent.com/andreasots/base32/master/src/lib.rs
https://raw.githubusercontent.com/haakonn/szbase32/master/src/main/scala/szbase32/ZBase32.scala
https://raw.githubusercontent.com/norio-nomura/Base32/master/Sources/Base32/Base32.swift
https://raw.githubusercontent.com/TypeCtrl/ts-base32/master/src/index.ts
