https://www.youtube.com/watch?v=H3t3G70bakM&t
https://0xrick.github.io/hack-the-box/networked/
https://thegeekbin.com/htb-networked-write-up/
https://davidhamann.de/2019/12/04/htb-writeup-networked/
https://raw.githubusercontent.com/Hackplayers/hackthebox-writeups/master/machines/Networked/Hilbert-Networked.pdf
https://raw.githubusercontent.com/Hackplayers/hackthebox-writeups/master/machines/Networked/humurabbi-Networked.pdf
https://snowscan.io/htb-writeup-networked/
https://initinfosec.com/writeups/htb/2020/02/03/networked-htb-writeup/
https://hackso.me/networked-htb-walkthrough/
https://theblocksec.com/2019/11/16/hack-the-box-networked-box-writeup-by-nikhil-sahoo/
https://phaz0n.github.io/writeup/2019/11/16/networked-writeup/
https://infosec.rm-it.de/2019/11/16/hackthebox-networked/
https://www.hackingarticles.in/hack-the-box-networked-walkthrough/
https://d7x.promiselabs.net/2019/11/16/htb-networked-walkthrough/
https://github.com/Purp1eW0lf/HackTheBoxWriteups/blob/master/Retired%20Machines/Networked.pdf
https://github.com/Filiplain/Hackthebox_writeups/blob/main/Networked.pdf
