https://www.youtube.com/watch?v=jHBMXvI0ccQ
https://www.mogozobo.com/?p=1528
https://blog.techorganic.com/2011/07/19/de-ice-hacking-challenge-part-1/
http://ssl-encrypted.blogspot.com/2014/05/recently-i-just-mess-around-with-de-ice.html
https://hackingandsecurity.blogspot.com/2016/06/de-ices1100-machine.html
https://binarycoders.dev/2018/01/24/walkthrough-de-ice-s1-100/
https://securenetworkmanagement.com/de-ice-s1-100/
http://blog.nullmode.com/blog/2013/11/01/de-ice-s1-dot-100-level-1-a-beginners-guide/
https://pentestwriteups.wordpress.com/2015/10/23/de-ice-s1-100/
https://securekite.wordpress.com/2013/12/15/hacking-de-ice-s1-100-2/
http://www.wintersecurity.com/education/de-ice-1-100/
http://www.cyberry.co.uk/vulnhub/de-ice-s1-100/
http://www.creatigon.com/blog/de-ice-s1-100-walkthrough/
https://outsidersec.wordpress.com/2016/03/15/deices1-100-walkthrough/
