https://github.com/Hackplayers/hackthebox-writeups/blob/master/machines/Cascade/cascade-HTB-WU-noraj.pdf
https://github.com/Hackplayers/hackthebox-writeups/blob/master/machines/Cascade/kaosam-Cascade.pdf
https://github.com/Purp1eW0lf/HackTheBoxWriteups/blob/master/Retired%20Machines/Cascade.pdf
https://github.com/fatihh92/HackTheBox-Writeups/blob/master/cascade.pdf
