https://raw.githubusercontent.com/stbrumme/euler/master/euler-0134.cpp
https://raw.githubusercontent.com/nayuki/Project-Euler-solutions/master/java/p134.java
https://raw.githubusercontent.com/nayuki/Project-Euler-solutions/master/python/p134.py
https://raw.githubusercontent.com/gifnksm/ProjectEulerRust/master/src/bin/p134.rs
https://raw.githubusercontent.com/nayuki/Project-Euler-solutions/master/mathematica/p134.mathematica
