https://drive.google.com/file/d/1JxDgP2KMX5vCuXiiVNURI44H4EhcAPKH/view
https://teck-noobs.blogspot.com/2017/07/htb-arctic-walkthrough.html
https://teckk2.github.io/writeup/2017/12/27/Arctic.html
https://www.absolomb.com/2017-12-29-HackTheBox-Arctic-Writeup/
https://neilsec.com/penetration-testing/hackthebox-arctic-walkthrough/
https://thehoustonhacker.com/2019/01/12/hack-the-box-arctic-walk-through/
https://urbansecurityresearch.com/2019/08/07/hack-the-box-arctic-writeup/
https://www.jdksec.com/hack-the-box/arctic
https://teckk2.github.io/category/HTB%20writeups.html
https://www.hackingarticles.in/hack-the-box-challenge-arctic-walkthrough/
https://www.freecodecamp.org/news/keep-calm-and-hack-the-box-arctic/
https://offsecdeer.gitlab.io/post/htb-writeup-arctic/
https://securityboulevard.com/2020/02/hack-the-box-htb-machines-walkthrough-series-arctic/
https://www.youtube.com/watch?v=EIPalRovo48
https://github.com/Hackplayers/hackthebox-writeups/blob/master/machines/Arctic/fiti-arctic.pdf
