https://www.youtube.com/watch?v=ll6AJi1Bqxw
https://mega.nz/#!4UEnAZKT!-deNdQJxsQS8bTSMxeUOtpEclCI-zpK7tbJiKV0tXYY
https://raw.githubusercontent.com/cerc-undip/CTF-Learn-Writeup/master/binwalk_COMPLETE/README.md
https://github.com/Offliners/CTFlearn-writeup/blob/master/FORENSICS/Binwalk/README.md
https://github.com/rolandhartanto/Capture-The-Flag/blob/master/ctflearn/ctflearn.md
https://raw.githubusercontent.com/cyberpirate92/ctflearn-solutions/master/04.binwalk.md
https://raw.githubusercontent.com/rishitsaiya/CTFlearn-Writeups/master/Forensics/Binwalk/README.md
https://raw.githubusercontent.com/EladBeber/CTFlearn-Writeups/master/Forensics/Easy/BINWALK/README.md
