https://raw.githubusercontent.com/appsecco/dvna/master/docs/solution/a6-securty-misconfig.md
https://www.youtube.com/watch?v=iWq9i9nvomE
https://www.youtube.com/watch?v=vheGnopQm6s
https://www.youtube.com/watch?v=iSYD7vOlSJs
https://www.youtube.com/watch?v=ouuXu9_UM0w
https://www.youtube.com/watch?v=CfMj1c8uIro
https://www.youtube.com/watch?v=DfFPHKPCofY
https://www.youtube.com/watch?v=WQ4svQu0Rn8
https://www.youtube.com/watch?v=xHV9KzCv0tI
https://www.youtube.com/watch?v=tmPxTqi2vSs
https://blog.csdn.net/weixin_30781775/article/details/97314487
