https://github.com/skiptomyliu/solutions-bwapp#http-paramter-pollution
https://www.youtube.com/watch?v=SaXrzSHRigw
https://www.youtube.com/watch?v=ldyK2AG9168
https://www.youtube.com/watch?v=_RUsbVAZ344
https://www.youtube.com/watch?v=i1BwZ3fqp2Q
https://www.youtube.com/watch?v=rJPvCV6RSA0
https://www.youtube.com/watch?v=MT5UIjNW0iI
https://www.youtube.com/watch?v=NGD-LTGNjiU
https://www.youtube.com/watch?v=fOLN-MeYeRI
https://www.youtube.com/watch?v=OTPQ7RbcN-E
https://www.imperva.com/learn/application-security/http-parameter-pollution/
https://subscription.packtpub.com/book/networking_and_servers/9781788991513/9/ch09lvl1sec92/exploiting-http-parameter-pollution
https://github.com/Magenic/bWappLab/tree/master/bWapp
https://wooly6bear.files.wordpress.com/2016/01/bwapp-tutorial.pdf
https://www.ehacking.net/2014/02/web-application-penetration-testing.html
https://www.passeidireto.com/arquivo/60420659/kali-linux-web-penetration-testing/42
https://dokumen.tips/documents/bwapp-sanjiv-kawa-wordpresscom-nbsppdf-filephp-code-injection.html
https://www.clipvl.net/rev/bwapp+parameter+pollution
https://cloud.tencent.com/developer/article/1580834
