https://paraskapoor.in/hacking-articles/presidential-1-vulnhub-walkthrough/
https://medium.com/@chicxulub/presidential-1-walkthrough-vulnhub-614f2f0a8c47
https://www.bilibili.com/s/video/BV11h41197oy
https://www.bootlesshacker.com/presidential-ctf/
https://0xatom.github.io/vulnhub/2020/07/14/presidential/
https://tsecurity.de/de/1188660/Cybersecurity/Hacker/Presidential-1-Vulnhub-Walkthrough/
https://ksdpmx.bitbucket.io/2020/08/24/presidential-1-500/
https://medium.com/@bamroatbabak/presidential-1-vulnhub-f270369591cb
