https://raw.githubusercontent.com/Cheshulko/Algorithms/master/Leetcode/MergeTwoSortedLists.cpp
https://raw.githubusercontent.com/zjbztianya/LeetCode/master/Algorithms/0021.merge-two-sorted-lists/merge-two-sorted-lists.go
https://raw.githubusercontent.com/awangdev/LeetCode/master/Java/Merge%20Two%20Sorted%20Lists.java
https://raw.githubusercontent.com/sshpark/LeetCode-Kotlin/master/easy/21.merge-two-sorted-lists.kt
https://raw.githubusercontent.com/jiapengwen/LeetCode/master/Python/merge-two-sorted-lists.py
https://raw.githubusercontent.com/aylei/leetcode-rust/master/src/solution/s0021_merge_two_sorted_lists.rs
https://raw.githubusercontent.com/diwu/LeetCode-Solutions-in-Swift/master/Solutions/Solutions/Easy/Easy_021_Merge_Two_Sorted_Lists.swift
