https://raw.githubusercontent.com/NoSoul/CodeForces/master/75A.c
https://raw.githubusercontent.com/enfinet/codeforces/master/75A%20-%20Life%20Without%20Zeros.cc
https://raw.githubusercontent.com/AkashChandrakar/codeforces-solutions/master/c%2B%2B/75-A-13858786.cpp
https://raw.githubusercontent.com/charles-wangkai/codeforces/master/75/A/Main.java
https://raw.githubusercontent.com/dmironov1993/codeforces/master/75A-Life%20Without%20Zeros.py
