https://raw.githubusercontent.com/AkashChandrakar/codeforces-solutions/master/c%2B%2B/37-A-14916897.cpp
https://gist.githubusercontent.com/Jack-Saleem/123c4ab0dcf9aa4f7e7d/raw/c0f051a162773245ddf53e0a85840901dac62c8f/Towers.java
https://raw.githubusercontent.com/nomeaning777/codeforces/master/137A.rb
