https://null-byte.wonderhowto.com/how-to/crack-ssh-private-key-passwords-with-john-ripper-0302810/
https://crypto.stackexchange.com/questions/52330/crack-rsa-encryption
https://jonathan-hui.medium.com/qc-cracking-rsa-with-shors-algorithm-bc22cb7b7767
https://medium.com/quantum-bits/break-rsa-encryption-with-this-one-weird-trick-d955e3394870
https://www.quintessencelabs.com/blog/breaking-rsa-encryption-update-state-art/
https://www.youtube.com/watch?v=iJuIJLtUVMo
https://hackaday.com/2019/01/16/rsa-encryption-cracked-easily-sometimes/
https://stackoverflow.com/questions/65756042/how-to-make-rsa-encryption-decryption-cracking-simple-in-python
https://speakerdeck.com/rlifchitz/15-ways-to-break-rsa-security
https://stackoverflow.com/questions/4078902/cracking-short-rsa-keys
