https://raw.githubusercontent.com/stbrumme/euler/master/euler-0500.cpp
https://raw.githubusercontent.com/nayuki/Project-Euler-solutions/master/java/p500.java
https://raw.githubusercontent.com/nayuki/Project-Euler-solutions/master/python/p500.py
https://raw.githubusercontent.com/DestructHub/ProjectEuler/master/Problem500/Bash/solution_1.sh
