https://isec.ne.jp/wp-content/uploads/2017/07/11XVWA-Technical-Run.pdf
https://location-href.com/xvwa-walkthrough/
https://ethicalhackingguru.com/learn-web-app-hacking-with-xtreme-vulnerable-web-app/
