https://raw.githubusercontent.com/iandioch/solutions/master/project_euler/145/solution.c
https://raw.githubusercontent.com/stbrumme/euler/master/euler-0145.cpp
https://raw.githubusercontent.com/FrankKair/polyglot-euler/master/src/145/p145.exs
https://raw.githubusercontent.com/nayuki/Project-Euler-solutions/master/haskell/p145.hs
https://raw.githubusercontent.com/nayuki/Project-Euler-solutions/master/java/p145.java
https://raw.githubusercontent.com/nayuki/Project-Euler-solutions/master/python/p145.py
https://raw.githubusercontent.com/nayuki/Project-Euler-solutions/master/mathematica/p145.mathematica
