https://hackxcrack.net/foro/hacking/sqli-gbk/
https://stackoverflow.com/questions/5741187/sql-injection-that-gets-around-mysql-real-escape-string
https://www.programmersought.com/article/22873857/
https://ahuigo.github.io/b/sec/security-sql#/
https://hydrasky.com/network-security/sql-injection-bypass-php-addslashs-function/
https://cybershafarat.com/2020/12/25/sql_injection-gbk-character-encoding/
http://server1.sharewiz.net/doku.php?id=sql_injection_-_example_attacks:sql_injection_attack_against_php_addslashes
https://security.stackexchange.com/questions/129732/sql-injection-through-addslashes
https://lonewolfzero.wordpress.com/2017/07/03/addslashes-multibyte-sql-injection-mysql-and-php-case-study/
https://www.exploit-db.com/exploits/2644
