https://raw.githubusercontent.com/rahulnht/codeforces/master/149A.c
https://raw.githubusercontent.com/nikzsaz/Codeforces-solution/master/149A-BusinessTrip.cpp
https://raw.githubusercontent.com/saidurcse/Codeforces/master/149A%20-%20Business%20trip.java
https://raw.githubusercontent.com/changyuheng/codeforces-solutions/master/149a.py
