https://harpreetsinghpassi.wordpress.com/2016/07/31/injection-attacks-part-2/
https://raw.githubusercontent.com/theand-fork/bwapp-code/master/bWAPP/clickjacking.php
https://www.youtube.com/watch?v=RPgIVHEZx6o
https://www.youtube.com/watch?v=H9srYh0HMP4
