https://www.youtube.com/watch?v=80-73OYcrrk
https://forum.hackthebox.eu/discussion/comment/2767#Comment_2767
https://teckk2.github.io/writeup/2018/02/21/Jail.html
https://forum.hackthebox.eu/discussion/362/jail-write-up-by-booj
https://www.linkedin.com/pulse/hack-box-challenge-jail-walkthrough-raj-chandel/
https://www.justinoblak.com/2018/01/12/hack-the-box-jail.html
https://leetvilu.blogspot.com/2019/08/buffer-overflow-oscp-lab-jail.html
https://www.hackingarticles.in/hack-the-box-challenge-jail-walkthrough/
https://github.com/Purp1eW0lf/HackTheBoxWriteups/blob/master/Retired%20Machines/Jail.pdf
