Stand at the pole with the plaque START
go 460 feet by azimuth 30
go 440 feet by azimuth 34
go 440 feet by azimuth 295
go 120 feet by azimuth 357
go 100 feet by azimuth 342
go 140 feet by azimuth 51
go 140 feet by azimuth 323
go 380 feet by azimuth 318
go 60 feet by azimuth 40
go 200 feet by azimuth 74
go 460 feet by azimuth 37
go 500 feet by azimuth 32
go 120 feet by azimuth 314
go 240 feet by azimuth 7
go 40 feet by azimuth 74
go 20 feet by azimuth 9
Dig here!
