https://raw.githubusercontent.com/phuclevinh2000/CodeAbbey/master/Azimuth%20at%20Treasure%20Island.c
https://raw.githubusercontent.com/pastelito02/Challenges-sol/master/Programming/Codeabbey/098/motkov.kirill.go
https://raw.githubusercontent.com/pastelito02/Challenges-sol/master/Programming/Codeabbey/098/Hennes.hs
https://raw.githubusercontent.com/igor-kutepov/codeabbey/master/src/main/java/com/kutepov/samples/codeabbey/AzimuthAtTreasureIsland.java
https://raw.githubusercontent.com/pastelito02/Challenges-sol/master/Programming/Codeabbey/098/GeorgySerga.js
https://raw.githubusercontent.com/pastelito02/Challenges-sol/master/Programming/Codeabbey/098/memstick.lua
https://raw.githubusercontent.com/pastelito02/Challenges-sol/master/Programming/Codeabbey/098/KOR_Ryat.php
https://raw.githubusercontent.com/pastelito02/Challenges-sol/master/Programming/Codeabbey/098/pearl_barley.pl
https://raw.githubusercontent.com/Xzya/CodeAbbeySolutions/master/AzimuthAtTreasureIsland.py
https://raw.githubusercontent.com/pastelito02/Challenges-sol/master/Programming/Codeabbey/098/maverick.rb
https://raw.githubusercontent.com/pastelito02/Challenges-sol/master/Programming/Codeabbey/098/onetwogoo.rs
https://raw.githubusercontent.com/pastelito02/Challenges-sol/master/Programming/Codeabbey/098/bluknite.scala
https://raw.githubusercontent.com/pastelito02/Challenges-sol/master/Programming/Codeabbey/098/Guy-Gervais.vb
https://raw.githubusercontent.com/JesseClarkND/codeabbey_in_C-NET/master/Azimuth%20at%20Treasure%20Island
