https://medium.com/infosec-adventures/bossplayers-ctf-walkthrough-83d62953d2ed
https://medium.com/@francisjwa/bossplayers-ctf-1-vulnhub-5cf8ff57c961
https://resources.infosecinstitute.com/topic/bossplayersctf-1-vulnhub-ctf-walkthrough/
https://www.hacknos.com/bossplayersctf-1-walkthrough-vulnhub/
https://www.yckircaali.com/bossplayersctf-1-vulnhub-walkthrough/
https://www.yckircaali.com/tag/bossplayers-ctf-1/
https://maliyaablog.wordpress.com/2020/01/27/ctf-bossplayers-walkthrough/
https://www.youtube.com/watch?v=58VFXnrLYrk&ucbcb=1
https://www.youtube.com/watch?v=WIBrD2VXLl8&ucbcb=1
https://www.youtube.com/watch?v=1VzADAVXFDw&ucbcb=1
https://blog.drsh0.io/hackthebox-lame
https://www.hackingarticles.in/bossplayersctf-1-vulnhub-walkthrough/
https://www.yckircaali.com/hacker-fest-2019-vulnhub-walkthrough/
https://securityboulevard.com/2020/08/bossplayersctf-1-vulnhub-ctf-walkthrough/
https://blog.drsh0.io/vulnhub-bossplayers-ctf
https://0xss0rz.github.io/2020-11-16-Vulnhub-BossPLayersCTF/
https://bluestarcyber.com/metasploitable-two-my-walkthrough/
https://www.coursehero.com/file/32999675/Metasploitable-2-Walkthrough-Newdocx/
https://hackingandsecurity.blogspot.com/2017/09/metasploitable-3-walkthrough-getting.html
https://tremblinguterus.blogspot.com/2020/11/metasploitable-3-windows-walkthrough_44.html
