https://raw.githubusercontent.com/haoel/leetcode/master/algorithms/cpp/search2DMatrix/search2DMatrix.II.cpp
https://raw.githubusercontent.com/haoel/leetcode/master/algorithms/java/src/searchA2DMatrixII/SearchA2DMatrixII.java
https://raw.githubusercontent.com/haoel/leetcode/master/algorithms/python/SearchA2DMatrixII/searchMatrix.py
