https://null-byte.wonderhowto.com/how-to/brute-force-nearly-any-website-login-with-hatch-0192225/
https://owasp.org/www-community/attacks/Brute_force_attack
https://www.youtube.com/watch?v=fHsJAei2ocM
https://portswigger.net/support/using-burp-to-brute-force-a-login-page
https://gtrekter.medium.com/brute-force-attack-with-hydra-and-kali-linux-3c4ede55d119
https://heimdalsecurity.com/blog/brute-force-attack/
https://github.com/vulnz/bruteforce-guide
https://github.com/ncorbuk/Python-Tutorial-SSH-Bot-Brute-force-Botnet-Series-Part-1
https://www.youtube.com/watch?v=1-ykWq6BEsQ
https://www.guru99.com/how-to-crack-password-of-an-application.html
