47 121
8 9
26 9
0 22
18 29
4 25
35 2
31 18
23 4
40 36
14 36
39 11
29 15
45 9
2 40
46 12
30 34
45 40
35 45
13 30
13 23
31 44
41 32
27 41
5 43
12 24
12 38
39 22
20 34
17 36
45 20
19 30
3 7
16 21
26 18
36 39
46 25
43 24
0 11
42 3
16 7
5 38
11 4
33 35
36 26
19 17
24 13
19 32
34 24
33 6
13 1
43 39
35 4
14 7
2 5
16 18
30 28
24 38
32 8
36 0
37 28
28 7
46 24
43 15
10 33
9 40
15 9
26 14
37 25
40 42
14 2
37 24
32 25
23 5
2 1
15 31
15 18
22 6
30 21
20 21
29 44
0 40
30 38
1 9
40 7
41 38
25 14
26 11
36 24
29 33
21 33
20 31
34 6
38 18
28 35
17 42
12 3
29 27
45 0
29 19
36 25
13 29
44 11
34 14
33 37
10 15
21 43
28 16
3 6
22 17
1 0
42 30
42 10
9 32
11 17
11 1
1 8
13 34
5 28
37 2
30 3
44 4
