https://gist.githubusercontent.com/obstschale/2973870/raw/c3de5960a201db2bfba5eeae4634fe2915a77c46/dfs-algo.c
https://raw.githubusercontent.com/stebulus/graph/master/src/amotlpaa/df.clj
https://raw.githubusercontent.com/noor/labyrinth/master/maze.coffee
https://raw.githubusercontent.com/DionysiosB/CodeAbbey/master/DepthFirstSearch.cpp
https://raw.githubusercontent.com/mettuaditya/graphlb/master/src/graphlb/algorithms/depth_first_search.cr
https://gist.githubusercontent.com/riyadparvez/5915102/raw/d36a7299c76c79d0f894c1161bc042723b88513c/DFS.cs
https://gist.githubusercontent.com/sashaafm/bb1c4e38a3fd779be54d/raw/bf1f8082b30738ecba791072e7e20f39ce236de8/dfs.ex
https://gist.githubusercontent.com/jdh30/512962cb29b96787c29964b2a7080db3/raw/7c4b49c1ed0bc8eb24f33631df6d96976db1e322/dfs.fs
https://raw.githubusercontent.com/maximelamure/algorithms/master/datastructure/graph_dfs.go
https://gist.githubusercontent.com/abhin4v/9fc8eff25c6b1a14b60e/raw/659779a07ecdd60fd8f35977f5534ae2583632d5/dfs.hs
https://raw.githubusercontent.com/andywhite37/graphx/master/src/graphx/Graph.hx
https://raw.githubusercontent.com/VanceaV/codeabbey/master/src/problems_151_170/DepthFirstSearch_155.java
https://gist.githubusercontent.com/jmsevold/266987ab12ea58cf4a75788730eeebc0/raw/d7905fe39d493f5a83c6ab095bb0b13c0629bdcb/depth-first-search.js
https://raw.githubusercontent.com/andrewass/kalgos/master/src/main/kotlin/algorithms/graph/depthFirstSearch.kt
https://gist.githubusercontent.com/alandipert/af7093ef1719ddc736ee5deb37748b04/raw/b164a93402ee1a22fb1aac4728ef0a18dd86a11d/topo-sort-dfs.lisp
https://raw.githubusercontent.com/kennyledet/Algorithm-Implementations/master/Depth_First_Search/Lua/Yonaba/dfs.lua
https://raw.githubusercontent.com/aeolianine/octave-networks-toolbox/master/DFS.m
https://raw.githubusercontent.com/DBarthe/ocaml-search/master/src/search.ml
https://gist.githubusercontent.com/ackintosh/5791383/raw/aba34300b2f437c3e4adf501e9658034afee8807/gistfile1.php
https://raw.githubusercontent.com/djs1193/codeabbey/master/q121.py
https://gist.githubusercontent.com/gosuri/5126638/raw/48cd7919c7241872c5e4157c4ee0ce444298bf5e/dfs.rb
https://raw.githubusercontent.com/samueltardieu/pathfinding/main/src/directed/dfs.rs
https://raw.githubusercontent.com/himanshug/aima-scala/master/src/main/scala/aima/search/uninformed/UninformedSearch.scala
