https://raw.githubusercontent.com/yuanhui-yang/LeetCode/master/Algorithms/super-ugly-number.cpp
https://raw.githubusercontent.com/wumansgy/LeetCode-in-Go/master/Algorithms/0313.super-ugly-number/super-ugly-number.go
https://raw.githubusercontent.com/everthis/leetcode-js/master/313-super-ugly-number.js
https://raw.githubusercontent.com/kamyu104/LeetCode-Solutions/master/Python/super-ugly-number.py
