https://raw.githubusercontent.com/QodeMaster/Code_Solutions/master/CodeSignal/Arcade/Intro/09%20-%20All_Longest_Strings.cs
https://raw.githubusercontent.com/neemiassgc/CodeSignal-Solutions/master/Arcade/Intro/Java/AllLongestStrings.java
https://raw.githubusercontent.com/neemiassgc/CodeSignal-Solutions/master/Arcade/Intro/javascript/allLongestStrings.js
https://raw.githubusercontent.com/neemiassgc/CodeSignal-Solutions/master/Arcade/Intro/Ruby/allLongestStrings.rb
