25
998 941 939
833 911 527
54 82 4
400 889 986
260 1070 211
883 891 20
75 135 127
93 2 89
39 3 864
17 51 7
534 12 10
1160 385 1356
56 62 3
3 11 45
93 174 9
948 955 9
1014 956 955
298 277 235
9 521 499
1394 1393 409
533 534 7
6 95 645
964 77 75
43 974 9
23 100 107
