https://raw.githubusercontent.com/shortthirdman/code-eval-challenges/master/easy/details.bash
https://raw.githubusercontent.com/rdtsc/codeeval-solutions/master/src/easy/details/solutions/c/solution.c
https://raw.githubusercontent.com/shortthirdman/code-eval-challenges/master/easy/details.clj
https://raw.githubusercontent.com/rdtsc/codeeval-solutions/master/src/easy/details/solutions/c%2B%2B/solution.cpp
https://raw.githubusercontent.com/joshimoo/Challenges/master/CodeEval/Easy/Details/Details.cs
https://raw.githubusercontent.com/shortthirdman/code-eval-challenges/master/easy/details.go
https://raw.githubusercontent.com/shortthirdman/code-eval-challenges/master/easy/details.hs
https://raw.githubusercontent.com/rdtsc/codeeval-solutions/master/src/easy/details/solutions/javascript/solution.js
https://raw.githubusercontent.com/shortthirdman/code-eval-challenges/master/easy/details.lua
https://raw.githubusercontent.com/shortthirdman/code-eval-challenges/master/easy/details.pl
https://raw.githubusercontent.com/mpillar/codeeval/master/0-easy/details/main.py
https://raw.githubusercontent.com/shortthirdman/code-eval-challenges/master/easy/details.r
https://raw.githubusercontent.com/shortthirdman/code-eval-challenges/master/easy/details.rb
https://raw.githubusercontent.com/shortthirdman/code-eval-challenges/master/easy/details.scala
