https://fwhibbit.blogspot.com/2016/06/auditando-vulnix-vulnhub.html?m=1
https://www.it-connect.fr/vulnix-solution-et-explications/
https://medium.com/@Kan1shka9/hacklab-vulnix-walkthrough-b2b71534c0eb
https://www.youtube.com/watch?v=5aVAjAH_iBQ
http://www.cyberry.co.uk/vulnhub/hacklab-vulnix/
https://www.abatchy.com/2016/10/walkthrough-vulnix-vulnhub-vm
https://hackosis.wordpress.com/2017/06/29/vulnhub-ctf-hacklab-vulnix/
https://www.peerlyst.com/posts/how-to-break-into-hacklab-vulnix-machine-writeup-spirited-wolf
