https://github.com/WangYihang/sqli-labs/blob/master/writeup/Lesson-20.md
https://github.com/Audi-1/sqli-labs/blob/master/Less-20/index.php
https://segmentfault.com/a/1190000015813505
https://blog.csdn.net/Fly_hps/article/details/80284993
https://www.geek-share.com/detail/2682350383.html
https://www.youtube.com/watch?v=c-Pjb_zLpH0
