http://www.google-gruyere.appspot.com/part5#5__phishing_via_ajax
http://m4l1ce.me/writeups/2017/03/28/google-gruyere.html
https://raw.githubusercontent.com/LeahW/hello-sec/5d00df36c77edf20fcda273993d49e16f39439f8/Part5Notes
