https://raw.githubusercontent.com/MaskRay/HackerRank/master/ashton-and-string.cc
https://raw.githubusercontent.com/danhenriquesc/hackerrank/master/algorithms/strings/ashton_and_string.cpp
https://raw.githubusercontent.com/vivekshah20/hackerrank-solutions/master/algorithms/ashton-and-string/ashton-and-string.py
