https://highon.coffee/blog/lamp-security-ctf6-walkthrough/
https://download.vulnhub.com/lampsecurity/lampsec_ctf6.pdf
http://www.infond.fr/2010/06/tutoriel-injection-sql-lampsecurity.html
https://rgolebiowski.blogspot.com/2016/06/ctf6-challenge.html
https://www.thecybersploit.com/2019/04/lamp-security-ctf6-walk-through.html
http://rgolebiowski.blogspot.com/2016/06/ctf6-challenge.html
https://ushamim.wordpress.com/2016/04/23/pen-testing-lampsecurity-ctf6/
https://www.youtube.com/watch?v=x1zu7pZTwIM
https://www.youtube.com/watch?v=CRJkGZlV6Vk
http://www.infond.fr/2010/06/tutorial-sql-injection-lampsecurity-ctf.html
