https://medium.com/@yassergersy/badstore-assignment-d93422e56b31
https://medium.com/syscall59/badstore-1-2-3-walkthrough-vulnhub-7816f3001333
https://r0h17infosec.blogspot.com/2015/10/badstore-webapp-report.html
