https://www.hackingarticles.in/hack-the-box-access-walkthrough/
https://0xrick.github.io/hack-the-box/access/
https://github.com/Hackplayers/hackthebox-writeups/blob/master/machines/Access/fiti-access.pdf
https://raw.githubusercontent.com/diego95root/HackTheBox/master/Access/README.md
https://github.com/Hackplayers/hackthebox-writeups/blob/master/machines/Access/artikrh-access.pdf
https://github.com/Hackplayers/hackthebox-writeups/blob/master/machines/Access/kabutor-access.pdf
https://github.com/Hackplayers/hackthebox-writeups/blob/master/machines/Access/ozunu-access.pdf
https://github.com/Hackplayers/hackthebox-writeups/blob/master/machines/Access/x4nt0n-Access.pdf
https://medium.com/ctf-writeups/hack-the-box-access-write-up-33ab4cb7d9b3?source=---------0-----------------------
https://github.com/fatihh92/HackTheBox-Writeups/blob/master/access.pdf
