15
{{<y[y]>y}{}}(/{/< >}){<c>/+<t>(x<c{e(a)}{ }>)}
[+](<+><(^) {w}>(z))[(h)(h)(w){f{{*}*}}[+]((/)g w]
((<t>[z]t)*(t<[eb >))[a](t)(((t)(a)h)(e){z<[u](])/>< {z}>})
<[v][{d}h[v<(<[%]x><*>{(^)z}(a)+<+>)z[{b} ]>]]((</>+)t [d]>[+]
<{<y>d}{u<h>}h>{f<b>}<c{/}>[](<%>e)<h>{f{-}}
<{y}<*[x]>(b[a])y <<d<%>>{a[%]}{z}-{ <d>}>w[c][a]]{-}>()
{<t[ ]>*(v)<*>}<g>[<+>w<d>[e]](d){<a>y}( )[<*{z}><[d]h[-]{[x] }>]
<{a}c[e(w)]>{*({v}{<e>%{h}}d)[u]}<(b{z )(e)>(v{y}[b[%][%{b}][^]])
< >(b)[x]<(d)w<h>><[/]>{w{/}< >}<</>w>{w}[<b>u]{c}
[[a[{f}e<%{h}>]][<x>{<*>-{d{<g>z}(g)[b]}}f]]
[ ][/](({x}+)<<w>e>c)<(<*>(+)b<> [-]<b<x>>)>( )</>
[+{z}(<d>+{ }<c>)[(f)v]{c}]((%<^>)<x{y}>{z}){d}[h]
<c<y>{*( )}<x>[ ](*(^w%})<w>)><(w)w>[[{]{(f)v}{[a][u]e(d)}(v)]
{(u)v}{h}([c(f){f}][*>{z< [}+]{(f)f}]y[+][<*>e<(f)t>(b)])(<f>(x))
<+<(c(%))t>>(f)[-]{{a}{%}{a{x{w}}}}<<->(</>t)u>
