https://raw.githubusercontent.com/DestructHub/ProjectEuler/master/Problem037/C%2B%2B/solution_1.cpp
https://raw.githubusercontent.com/iandioch/solutions/master/project_euler/037/solution.go
https://raw.githubusercontent.com/nayuki/Project-Euler-solutions/master/java/p037.java
https://raw.githubusercontent.com/kdungs/euler/master/037/euler_37.py
https://raw.githubusercontent.com/sile/euler.rs/master/euler_01/src/problem037.rs
