https://www.youtube.com/watch?v=p658jaPS2Lc
https://www.youtube.com/watch?v=sXW7OKda9JM
https://www.youtube.com/watch?v=v2RLcaf0Zq8
http://www.reydes.com/d/?q=Demostracion_de_Inyeccion_SQL_utilizando_WebGoat
http://fallensnow-jack.blogspot.com/2011/08/webgoat-string-sql-injection.html
http://webgoat-sql-injection.blogspot.com/2017/06/sql-injection-stage1.html
https://www.aldeid.com/wiki/OWASP_WebGoat:LAB_SQL_Injection
https://www.computersecuritystudent.com/SECURITY_TOOLS/SQL_INJECTION/lesson2/index.html
https://enciphers.com/sql-injection-exploitation-with-and-without-sqlmap/
http://www.voidcn.com/article/p-dbhadgks-su.html
https://ephrain.net/security-webgoat-的-xss-與-sql-injection-初階練習/
https://raw.githubusercontent.com/TheoKlein/WebGoat-Solution/master/Injection_Flaws/String_SQL_Injection.md
https://github.com/fmauri/WebGoatSolutions/blob/master/InjectionFlaws/SqlInjection.md
