https://raw.githubusercontent.com/liuchuo/LeetCode/master/C%2B%2B/104.%20Maximum%20Depth%20of%20Binary%20Tree.cpp
https://raw.githubusercontent.com/zjbztianya/LeetCode/master/Algorithms/0104.maximum-depth-of-binary-tree/maximum-depth-of-binary-tree.go
https://raw.githubusercontent.com/agermain/Leetcode/master/solutions/104-maximum-depth-of-binary-tree/maximum-depth-of-binary-tree.java
https://raw.githubusercontent.com/sshpark/LeetCode-Kotlin/master/easy/104.maximum-depth-of-binary-tree.kt
https://gist.githubusercontent.com/ryuji0123/feac0e4314d1970edb628bce4ec35d1c/raw/e23db26e9f6b6640233237402a27da820b289ee5/LeetCode%2520104
