https://raw.githubusercontent.com/kamyu104/LeetCode-Solutions/master/C%2B%2B/available-captures-for-rook.cpp
https://raw.githubusercontent.com/sshpark/LeetCode-Kotlin/master/easy/999.available-captures-for-rook.kt
https://raw.githubusercontent.com/kamyu104/LeetCode-Solutions/master/Python/available-captures-for-rook.py
