https://raw.githubusercontent.com/AkashChandrakar/codeforces-solutions/master/c%2B%2B/122-B-15417221.cpp
https://raw.githubusercontent.com/fuwutu/CodeForces/master/122B%20-%20Lucky%20Substring.py
https://raw.githubusercontent.com/bound1ess/codeforces-problemset-2/master/122/b.test
