https://raw.githubusercontent.com/nhays89/power-sum/master/main.cpp
https://raw.githubusercontent.com/leeychee/hackerrank/master/practice/algorithms/recursion/the_power_sum/main.go
https://raw.githubusercontent.com/ehsaniara/DataStructureSamples/master/src/com/ehsaniara/dataStructureSample/PowerSum.java
https://raw.githubusercontent.com/yznpku/HackerRank/master/solution/practice/algorithms/recursion/the-power-sum/solution.py
