https://www.youtube.com/watch?v=iwR746pfTEc
https://www.youtube.com/watch?v=HlsIHZpQaGs
https://hackso.me/multimaster-htb-walkthrough/
https://intrusionz3r0.github.io/posts/Multimaster/
https://darkwing.moe/2020/05/06/Multimaster-HackTheBox/
https://habr.com/ru/post/519814/
https://www.bilibili.com/s/video/BV16h411X7iF
https://www.youtube.com/watch?v=ChRYyQtv5bc
https://medium.com/@secucyber/htb-multimaster-ctf-write-up-8d42b4a4be0a
https://pastebin.com/raw/rJ01ZRZw
