https://raw.githubusercontent.com/rdtsc/codeeval-solutions/master/src/easy/sum-of-digits/solutions/c/solution.c
https://raw.githubusercontent.com/rdtsc/codeeval-solutions/master/src/easy/sum-of-digits/solutions/c%2B%2B/solution.cpp
https://gitlab.com/agaskell/codeeval/-/raw/master/21/21.cs
https://gitlab.com/banjocat/codeeval_solutions/-/raw/master/21/main.go
https://raw.githubusercontent.com/mpillar/codeeval/master/0-easy/sum-of-digits/SumOfDigits.java
https://raw.githubusercontent.com/tpgmartin/CodeEval/master/JavaScript/easy/sum_of_digits.js
https://raw.githubusercontent.com/blamonet/php-code-eval-solutions/master/sum_of_digits.php
https://gist.githubusercontent.com/yuheiomori/2563960/raw/9897a62f8f884710d3fa0428c5b4a5f2241151b9/sum_of_digits.py
https://gitlab.com/agaskell/codeeval/-/raw/master/21/21.rb
