24
493343853767
2416321721731
480644513561
110499963643
2616927093449
447085017427
58363929791
2339325908417
419321411351
674542823027
23253011209
836642229329
592051608413
24896488807
89371976401
4670931772877
1048119452621
889858028573
1210571905441
2344746915853
43220706631
1086304511659
1255771374569
2343216433007
