https://raw.githubusercontent.com/johnathan79717/codeforces-parser/master/main.cc
https://raw.githubusercontent.com/billy-inn/Codeforces/master/10C.cpp
https://raw.githubusercontent.com/johnathan79717/codeforces-parser/master/main.go
https://raw.githubusercontent.com/johnathan79717/codeforces-parser/master/main.kt
