https://studysecurity-world.tistory.com/79?category=806005
https://net123.tistory.com/462?category=695510
https://www.youtube.com/watch?v=qj43sQW5aB4
https://securityshards.wordpress.com/2016/05/10/bwapp-sql-injection-sqlite/
https://securitycode.tistory.com/137
https://es.scribd.com/document/385323969/bWAPP
https://stupidsecurity.tistory.com/36
https://www.youtube.com/watch?v=Cxc13E8wruA
https://www.youtube.com/watch?v=haB5gdqViSg
https://studysecurity-world.tistory.com/79
https://cloud.tencent.com/developer/article/1078965
