https://www.youtube.com/watch?v=63wQqAqN4es&t=690s&ab_channel=Gw
https://stackoverflow.com/questions/42907177/sql-injection-on-update-query
https://osandamalith.com/2017/02/08/mysql-injection-in-update-insert-and-delete/
https://portswigger.net/support/sql-injection-in-different-statement-types
https://security.stackexchange.com/questions/183618/sql-injection-via-update-statement
https://www.cybrary.it/blog/0p3n/sql-injection-update-query/
https://diego.com.es/ataques-sql-injection-en-php
https://www.netsparker.com/blog/web-security/sql-injection-cheat-sheet/
http://www.securityidiots.com/Web-Pentest/SQL-Injection/update-query-injection.html
http://hwang.cisdept.cpp.edu/swanew/Text/SQL-Injection.htm
