https://raw.githubusercontent.com/linuxp3nguin/microcorruption-1/master/CTF/JO
https://ctfwriteup.wordpress.com/2014/09/27/microcorruption-johannesburg/
https://www.youtube.com/watch?v=cdEiY0dlEbk
http://tlk.tuxfamily.org/doku.php?id=writeup:microcorruption:johannesburg
https://github.com/ciz/microcorruption#johannesburg
