https://zyazhb.github.io/2019/10/24/ROOT-ME-App-Script/#9python---pyjail-1
https://blog.csdn.net/weixin_30276935/article/details/99600323
https://www.cnblogs.com/heycomputer/articles/10539202.html
https://raw.githubusercontent.com/dhn/write_ups/c7550b494b2483107dddd0afca55cd2a86ca17fe/ctf/root-me/2017_python-pyjail-1.txt
