https://raw.githubusercontent.com/RomaniukVadim/wargaming-challenges/master/hackthebox/Crypto/Weak_RSA.txt
https://www.hacktoday.io/t/hack-the-box-weak-rsa-challenge/2271
https://swapnil-pathak.github.io/hackthebox/walkthrough/htb-challenges-crypto-weakrsa/
https://technicalciso.com/htb-weak-rsa/
http://homepages.rpi.edu/~wangy52/PersonalWebsite/build/html/Cybersecurity%20Labs/HTB-Crypto.html
https://bentrobotlabs.wordpress.com/2018/08/26/weak-rsa-challenge/
https://www.youtube.com/watch?v=cWqmwHGM31Q
https://www.youtube.com/watch?v=GDfNXHZb_1g
https://www.youtube.com/watch?v=M-yg0vbrAOk
https://www.youtube.com/watch?v=SyKcqhNMQ9A
https://www.youtube.com/watch?v=8r_5es4aMBM
https://www.youtube.com/watch?v=iJuIJLtUVMo
