https://raw.githubusercontent.com/zyjsuper/root-me-4/master/Web-Server/HTML
http://hackinblood.lasermark.co/html-root-me/
https://bitbelle.wordpress.com/2018/01/10/root-me-web-server-challenge-solutions/
