https://github.com/Hackplayers/hackthebox-writeups/blob/master/machines/Mango/mango-HTB-WU-noraj.pdf
https://github.com/Hackplayers/hackthebox-writeups/blob/master/machines/Mango/kaosam-Mango.pdf
https://github.com/Purp1eW0lf/HackTheBoxWriteups/blob/master/Retired%20Machines/Mango.pdf
https://github.com/Hackplayers/hackthebox-writeups/blob/master/machines/Mango/Hilbert-Mango.pdf
https://github.com/Hackplayers/hackthebox-writeups/blob/master/machines/Mango/SirBroccoli-Mango.pdf
https://github.com/Hackplayers/hackthebox-writeups/blob/master/machines/Mango/n7e-mango.pdf
https://github.com/Hackplayers/hackthebox-writeups/blob/master/machines/Mango/wezzlaren-Mango-writeup.pdf
https://github.com/Hackplayers/hackthebox-writeups/blob/master/machines/Mango/xiaobye-Mango.pdf
https://dtwh.medium.com/hack-the-box-mango-walkthrough-without-metasploit-e2936109f857
