https://raw.githubusercontent.com/iandioch/solutions/master/project_euler/121/solution.c
https://raw.githubusercontent.com/stbrumme/euler/master/euler-0121.cpp
https://raw.githubusercontent.com/nayuki/Project-Euler-solutions/master/haskell/p121.hs
https://raw.githubusercontent.com/nayuki/Project-Euler-solutions/master/java/p121.java
https://raw.githubusercontent.com/nayuki/Project-Euler-solutions/master/python/p121.py
https://raw.githubusercontent.com/gifnksm/ProjectEulerRust/master/src/bin/p121.rs
https://raw.githubusercontent.com/nayuki/Project-Euler-solutions/master/mathematica/p121.mathematica
