https://www.youtube.com/watch?v=qcNUqk1es3o
https://www.youtube.com/watch?v=qcNUqk1es3o&t=4s
https://www.youtube.com/watch?v=ZrJJb-R6Czc&t=5s
https://www.youtube.com/watch?v=2K1fGBfHrw0
https://www.youtube.com/watch?v=hHSa44bg-sU&t=4s
https://www.youtube.com/watch?v=SJgYdTckMBY
https://www.youtube.com/watch?v=S0Np3zGBVUQ
https://www.youtube.com/watch?v=oQOpyA72OT0
https://es.slideshare.net/AliTamoor1/7-dvwainsecure-captcha
https://studysecurity-world.tistory.com/70?category=806005
https://net123.tistory.com/456?category=695510
