https://raw.githubusercontent.com/pastelito02/Challenges-sol/master/Programming/Codeabbey/046/hukrause.ada
https://raw.githubusercontent.com/alxmjo/TicTacToe-Assembly/master/TicTacToe-Assembly/TicTacToe.asm
https://raw.githubusercontent.com/mitxela/bf-tic-tac-toe/master/tictactoe.bf
https://raw.githubusercontent.com/osiewicz/TicTacToe-C/master/src/tic_tac_toe.c
https://raw.githubusercontent.com/trptcolin/tictactoe-clojure/master/run-tests.clj
https://raw.githubusercontent.com/pastelito02/Challenges-sol/master/Programming/Codeabbey/046/cazjonoli.cs
https://raw.githubusercontent.com/pastelito02/Challenges-sol/master/Programming/Codeabbey/046/Ratzenfutz.d
https://raw.githubusercontent.com/right7ctrl/flutter_tic_toc_toe/master/lib/main.dart
https://raw.githubusercontent.com/vishaltelangre/tic-tac-toe/master/src/Main.elm
https://raw.githubusercontent.com/jimbobbennett/TicTacToe/master/TicTacToe/App.fs
https://raw.githubusercontent.com/jneander/tic-tac-toe-go/master/main.go
https://raw.githubusercontent.com/pastelito02/Challenges-sol/master/Programming/Codeabbey/046/Hennes.hs
https://raw.githubusercontent.com/mar-bi/tictactoe/master/index.html
https://raw.githubusercontent.com/igor-kutepov/codeabbey/master/src/main/java/com/kutepov/samples/codeabbey/TicTacToe.java
https://raw.githubusercontent.com/pastelito02/Challenges-sol/master/Programming/Codeabbey/046/Zacharias.jl
https://raw.githubusercontent.com/ireade/tictactoe/master/script.js
https://raw.githubusercontent.com/Ahsan-Sakib/TicTocToy/master/app/src/main/java/com/example/tictoctoe/MainActivity.kt
https://raw.githubusercontent.com/pastelito02/Challenges-sol/master/Programming/Codeabbey/046/gerhardt_funk.lisp
https://raw.githubusercontent.com/pastelito02/Challenges-sol/master/Programming/Codeabbey/046/atercattus.lua
https://raw.githubusercontent.com/kemiller/tic-tac-toe/master/ocaml/ticTacToe.ml
https://raw.githubusercontent.com/pastelito02/Challenges-sol/master/Programming/Codeabbey/046/KOR_Ryat.php
https://raw.githubusercontent.com/DoctorWkt/TTL_TicTacToe/master/gen_moves.pl
https://raw.githubusercontent.com/Xzya/CodeAbbeySolutions/master/TicTacToe.py
https://raw.githubusercontent.com/jisaacks/ruby-tic-tac-toe/master/lib/ruby-tic-tac-toe.rb
https://raw.githubusercontent.com/codinglawyer/reason-tic-tac-toe/master/src/game.re
https://gitlab.com/CodeArtisan/codeabbey/raw/master/problem_46/solution.rkt
https://raw.githubusercontent.com/dom96/tictactoe-rs/master/src/main.rs
https://raw.githubusercontent.com/trptcolin/tictactoe-scala/master/src/trptcolin/tictactoescala/basegame/Game.scala
https://raw.githubusercontent.com/pastelito02/Challenges-sol/master/Programming/Codeabbey/046/cire.swift
https://raw.githubusercontent.com/satyavanu/tic-toc-toe/master/src/main.ts
https://raw.githubusercontent.com/pastelito02/Challenges-sol/master/Programming/Codeabbey/046/Guy-Gervais.vb
https://pastebin.com/raw/0VRJaPek
https://pastebin.com/raw/BaLqM9kV
https://pastebin.com/raw/UkbK2Z0d
https://pastebin.com/raw/Vbmjmmfi
https://pastebin.com/raw/ikenFCVG
https://pastebin.com/raw/jKTBL1Sp
https://raw.githubusercontent.com/JesseClarkND/codeabbey_in_C-NET/master/Tic-Tac-Toe
