https://raw.githubusercontent.com/leeychee/hackerrank/master/practice/algorithms/strings/string_construction/main.go
https://raw.githubusercontent.com/charles-wangkai/hackerrank/master/string-construction/Solution.java
https://raw.githubusercontent.com/aditiraj/hackerrankSolutions-JavaScript/master/Strings/stringConstruction.js
https://raw.githubusercontent.com/danhenriquesc/hackerrank/master/algorithms/strings/string_construction.php
https://raw.githubusercontent.com/Shwaubh/HackerrankSolutions/master/easy/string/String%20Construction.py
https://raw.githubusercontent.com/raghav97/Hackerrank-Solutions/master/string_construction.rb
