https://raw.githubusercontent.com/cyberpirate92/ctflearn-solutions/master/09.simple_programming.md
https://raw.githubusercontent.com/rishitsaiya/CTFlearn-Writeups/master/Programming/Simple%20Programming/README.md
https://raw.githubusercontent.com/stefanman125/ctflearn-challenges/master/Programming/README.md
https://github.com/r0han21/ctf_learn_sols/blob/master/simple_programming.docx
https://raw.githubusercontent.com/shoulderhu/CTFLearn/master/simple_programming.py
https://raw.githubusercontent.com/MrMoosti/CTFLearning/master/CTFLearn/Programming/Simple%20Programming/simple-programming.py
