https://raw.githubusercontent.com/fahdi/a-very-big-sum/master/a-very-big-sum.c
https://raw.githubusercontent.com/MaskRay/HackerRank/master/a-very-big-sum.clj
https://raw.githubusercontent.com/danhenriquesc/hackerrank/master/algorithms/warmup/a_very_big_sum.cpp
https://raw.githubusercontent.com/mattspaulding/hacker-rank/master/HackerRank/Algorithms/Warmup/AVeryBigSum.cs
https://raw.githubusercontent.com/R-Wang97/HackerRank/master/A%20Very%20Big%20Sum/Solution.java
https://raw.githubusercontent.com/fahdi/a-very-big-sum/master/a-very-big-sum.js
https://raw.githubusercontent.com/EdNgulele/Hacker-Rank-Solutions-In-Kotlin/master/src/Algorithms/Warmup/Kotlin/VeryBigSum.kt
https://raw.githubusercontent.com/nitinprakash96/Hackerrank/master/Algorithms/Warmup/A%20very%20big%20sum.py
https://raw.githubusercontent.com/nchristiny/HackerRank/master/algorithms/warmup/a-very-big-sum.rb
https://raw.githubusercontent.com/witekbobrowski/HackerRank/master/Algorithms/Warmup/a-very-big-sum.swift
