https://raw.githubusercontent.com/mpillar/codeeval/master/1-moderate/reverse-and-add/main.cpp
https://gitlab.com/agaskell/codeeval/-/raw/master/45/45.go
https://raw.githubusercontent.com/Aadeshp/Codeeval-Solutions/master/Medium/Reverse_And_Add.java
https://gist.githubusercontent.com/yuheiomori/2778634/raw/3112d11a3ac1291bb207b889899709c6ddd26a48/reverse_and_add.py
https://raw.githubusercontent.com/bartoszmaka/code-eval-solutions/master/medium/45_reverse_and_add.rb
