https://raw.githubusercontent.com/viraj071/LeetCode/master/Sqrt(x).cpp
https://raw.githubusercontent.com/zjbztianya/LeetCode/master/Algorithms/0069.sqrtx/sqrtx.go
https://raw.githubusercontent.com/agermain/Leetcode/master/solutions/069-sqrtx/sqrtx.java
https://raw.githubusercontent.com/sshpark/LeetCode-Kotlin/master/easy/69.sqrt-x.kt
https://raw.githubusercontent.com/agermain/Leetcode/master/solutions/069-sqrtx/sqrtx.py
https://raw.githubusercontent.com/aylei/leetcode-rust/master/src/solution/s0069_sqrtx.rs
https://raw.githubusercontent.com/diwu/LeetCode-Solutions-in-Swift/4eba9e971aced2636dd80cd027ff5738a4d274fc/Solutions/Solutions/Medium/Medium_069_Sqrt_X.swift
