https://raw.githubusercontent.com/strikersps/Competitive-Programming/master/Hacker-Rank/Hackerland-Radio-Transmitters/min_transmitters.c
https://raw.githubusercontent.com/RyanFehr/HackerRank/master/Algorithms/Search/Hackerland%20Radio%20Transmitters/Solution.cs
https://raw.githubusercontent.com/RyanFehr/HackerRank/master/Algorithms/Search/Hackerland%20Radio%20Transmitters/Solution.js
https://raw.githubusercontent.com/strikersps/Competitive-Programming/master/Hacker-Rank/Hackerland-Radio-Transmitters/min_transmitters.py
