https://raw.githubusercontent.com/Gamer1092/Coderbyte/Easy/Vowel%20Count.cpp
https://raw.githubusercontent.com/Nigelmnz/CoderbyteSolutions/master/12-VowelCount/12.hs
https://raw.githubusercontent.com/TheAaronCovington/Java-Coderbyte-Solutions/master/12VowelCount.java
https://raw.githubusercontent.com/ZLester/Coderbyte-Solutions/master/Easy/12%20-%20Vowel%20Count.js
https://raw.githubusercontent.com/alecashford/Coderbyte-Solutions-Python/master/vowel_count.py
https://raw.githubusercontent.com/juyongsim/coderbyte/master/VowelCount.rb
