https://raw.githubusercontent.com/stbrumme/euler/master/euler-0204.cpp
https://raw.githubusercontent.com/nayuki/Project-Euler-solutions/master/java/p204.java
https://raw.githubusercontent.com/nayuki/Project-Euler-solutions/master/python/p204.py
