https://raw.githubusercontent.com/hangim/ACM/master/Codeforces/12A_Super%20Agent/12A.cc
https://raw.githubusercontent.com/marioyc/Online-Judge-Solutions/master/Codeforces/12A.cpp
https://raw.githubusercontent.com/nomeaning777/codeforces/master/12A.rb
