https://raw.githubusercontent.com/habhab93/CodeEval-Ugly-Numbers/master/Main.java
https://raw.githubusercontent.com/pascal-bourut/codeeval-challenges/master/hard/42%20-%20Ugly%20numbers/ugly_numbers.js
https://raw.githubusercontent.com/pascal-bourut/codeeval-challenges/master/hard/42%20-%20Ugly%20numbers/main.php
https://raw.githubusercontent.com/mpillar/codeeval/master/2-hard/ugly-numbers/main.py
https://gitlab.com/agaskell/codeeval/-/raw/master/42/42.rb
https://raw.githubusercontent.com/rickychang/code-eval-scala/master/ugly-numbers/src/main/scala/Main.scala
