https://raw.githubusercontent.com/zjbztianya/LeetCode/master/Algorithms/0083.remove-duplicates-from-sorted-list/remove-duplicates-from-sorted-list.go
https://raw.githubusercontent.com/agermain/Leetcode/master/solutions/083-remove-duplicates-from-sorted-list/remove-duplicates-from-sorted-list.java
https://raw.githubusercontent.com/sshpark/LeetCode-Kotlin/master/easy/26.remove-duplicates-from-sorted-array.kt
