https://raw.githubusercontent.com/enfinet/codeforces/master/116B%20-%20Little%20Pigs%20and%20Wolves.cc
https://raw.githubusercontent.com/fuwutu/CodeForces/master/116B%20-%20Little%20Pigs%20and%20Wolves.cpp
https://raw.githubusercontent.com/nomeaning777/codeforces/master/116B.rb
