https://www.youtube.com/watch?v=vESegBSrm_U
https://0xrick.github.io/hack-the-box/chainsaw/
https://www.youtube.com/watch?v=OKRyG0Vde9g
https://snowscan.io/htb-writeup-chainsaw/
https://defarbs.com/htb-chainsaw/
https://rootflag.io/hack-the-box-chainsaw/
https://hackso.me/chainsaw-htb-walkthrough/
https://www.youtube.com/watch?v=dq7qHScBYv4
https://ritcsec.wordpress.com/2020/04/28/2014/
https://github.com/Hackplayers/hackthebox-writeups/blob/master/machines/Chainsaw/fiti-Chainsaw.pdf
https://github.com/artikrh/HackTheBox/blob/master/Chainsaw/Chainsaw.pdf
https://www.sakshamdixit.com/chainsaw-hackthebox/
https://www.willsroot.io/2019/11/chainsaw-hackthebox-writeup.html
https://0xdf.gitlab.io/2019/11/23/htb-chainsaw.html
