https://infosecaddicts.com/bypass-pattern-locks-android/
https://greysec.net/showthread.php?tid=555
https://github.com/MGF15/P-Decode
https://github.com/AnimeshShaw/AndroidGestureCrack
https://gist.github.com/ducphanduyagentp/9968516
http://uberskill.blogspot.com/2012/08/cracking-android-gesture-patterns.html
https://hub.packtpub.com/mobile-phone-forensics-first-step-android-forensics/
https://raw.githubusercontent.com/s1syphu5/RootMe-Challenges/master/Cryptanalysis/Android%20Lock%20Pattern/README.md
https://github.com/s1syphu5/RootMe-Challenges/tree/master/Cryptanalysis/Android%20Lock%20Pattern
https://raw.githubusercontent.com/RomaniukVadim/wargaming-challenges/master/RootMe/cryptoanalysis/shift_cipher.txt
