https://raw.githubusercontent.com/stbrumme/euler/master/euler-0329.cpp
https://raw.githubusercontent.com/nayuki/Project-Euler-solutions/master/java/p329.java
https://raw.githubusercontent.com/nayuki/Project-Euler-solutions/master/python/p329.py
