https://raw.githubusercontent.com/nikzsaz/Codeforces-solution/master/82A-doubleCola.cpp
https://gist.githubusercontent.com/Jack-Saleem/675dc9de8b740c220bd0/raw/439bcbbe6dfb9073065e8b65d4969815a676b960/DoubleCola.java
https://raw.githubusercontent.com/Waqar-107/Codeforces/master/A-set/82A.Double%20Cola.py
https://raw.githubusercontent.com/jhaohai/codeforces/master/82A
