https://www.youtube.com/watch?v=CCXMg0yhGX0
https://www.youtube.com/watch?v=J-vySixRCsk
http://komorebi0122.blogspot.com/2016/12/low-html-injection-reflected-url.html
https://www.youtube.com/watch?v=2UGirsDKt9o
https://www.youtube.com/watch?v=Sf1Ax_duZ_Y
https://github.com/skiptomyliu/solutions-bwapp#html-injection---reflected-url
https://wooly6bear.files.wordpress.com/2016/01/bwapp-tutorial.pdf
https://www.youtube.com/watch?v=u5xpws6Dzn0
https://github.com/AulaLinux/Ethical-Hacking/wiki/bWAPP#html-injection---reflected-get
https://n00bsecurityblog.wordpress.com/tag/how-to-hack-bwapp/
https://www.jianshu.com/p/ee4cf6ca4d4c
https://securitycode.tistory.com/96
https://net123.tistory.com/444
https://mukhilan.com/bwapp-html-2/
http://www.anonhack.in/2018/06/html-injection-get-method-from-normal-to-bypassing-encoding/
http://security-is-just-an-illusion.blogspot.com/2014/01/bwapp-html-injection.html
http://penthusiasts.blogspot.com/2013/12/bwapp-html-injection-all.html
https://studysecurity-world.tistory.com/56?category=806005
