https://ctf.rip/seccon-2016-quals-memory-analysis-forensics-challenge/
https://blog.nhiroki.net/2016/12/11/seccon-2016-online-ctf-writeup
https://raw.githubusercontent.com/pogTeam/writeups/master/2016/seccon/Memory%20Analysis/README.md
https://0xd13a.github.io/ctfs/seccon2016/memory-analysis/
https://raw.githubusercontent.com/p4-team/ctf/master/2016-12-10-seccon-2016-quals/memory/README.md
