20
500 10000 3
100 1300 15
25 500 1
250 4750 1
50 750 3
25 500 1
50 350 5
250 5000 3
2500 12500 4
25 500 35
250 1750 2
500 10000 1
250 6250 2
10000 150000 2
500 7500 1
100 2500 3
2500 40000 1
250 3750 3
250 1250 35
100 2000 3
