https://raw.githubusercontent.com/david-willigrod/workout02/master/workout02-david-willigrod.R
https://raw.githubusercontent.com/lllllll-llll-llllll/codeabbey_autoit/master/35.au3
https://raw.githubusercontent.com/phuclevinh2000/CodeAbbey/master/Savings%20Calculator.c
https://raw.githubusercontent.com/pastelito02/Challenges-sol/master/Programming/Codeabbey/035/rondo.devil.cc
https://raw.githubusercontent.com/gravoo/codeabbey/master/Savings%20Calculator.cpp
https://raw.githubusercontent.com/AleksandrSD/CodeAbbeyProblems/master/Problem35/Program.cs
https://raw.githubusercontent.com/pastelito02/Challenges-sol/master/Programming/Codeabbey/035/pabloperezp96.d
https://raw.githubusercontent.com/markashleybell/mortgagecruncher/master/core/AmortisationSchedule.fs
https://raw.githubusercontent.com/pastelito02/Challenges-sol/master/Programming/Codeabbey/035/istudent.go
https://raw.githubusercontent.com/pastelito02/Challenges-sol/master/Programming/Codeabbey/035/h42.hs
https://raw.githubusercontent.com/KlaudioVito/CodeAbbey/master/SavingsCalculator.java
https://raw.githubusercontent.com/McQuinTrix/CodeAbbey/master/35.%20Savings%20Calculator.js
https://raw.githubusercontent.com/trollonion03/SavingsCalculator/master/app/src/main/java/com/trollonion/bmicalculator/ResultActivity.kt
https://raw.githubusercontent.com/pastelito02/Challenges-sol/master/Programming/Codeabbey/035/Daraysen.lisp
https://raw.githubusercontent.com/pastelito02/Challenges-sol/master/Programming/Codeabbey/035/tinbtinb.lua
https://raw.githubusercontent.com/normanpoh/mortgage_calculator/master/main_amort_table.m
https://raw.githubusercontent.com/pastelito02/Challenges-sol/master/Programming/Codeabbey/035/accrani21.php
https://raw.githubusercontent.com/pastelito02/Challenges-sol/master/Programming/Codeabbey/035/dferrans.pl
https://raw.githubusercontent.com/vinitkantrod/codeabbey-Solutions-in-Python/master/40_saving_calculator.py
https://raw.githubusercontent.com/pastelito02/Challenges-sol/master/Programming/Codeabbey/035/fridxfridx.rb
https://raw.githubusercontent.com/YetAnotherMinion/YAMScratch/master/CodeAbbey/rust-sol/src/35.rs
https://raw.githubusercontent.com/mmcdon20/code_abbey/master/src/main/scala/Abbey035.scala
https://raw.githubusercontent.com/calkinssean/savingsCalculator/master/Calculator/ViewController.swift
https://raw.githubusercontent.com/robinsonaaron/assignment-angular-savings-calculator/master/src/app/savings-calculator.service.ts
https://raw.githubusercontent.com/pastelito02/Challenges-sol/master/Programming/Codeabbey/035/sromander1.vb
