https://raw.githubusercontent.com/mscansian/b3d-binaryheaps/master/binaryheaps.bb
https://raw.githubusercontent.com/jmellander/BinaryHeap/master/scripts/BinaryHeap.bro
https://gist.githubusercontent.com/vgoel30/5d81e6abf9464930c1e126dab04d5be3/raw/b28f9a064ab3c0edf61b999097db46ce8b645f39/heap.c
https://gist.githubusercontent.com/justinhj/7074000/raw/efbb6becd5f48673081764b7dafd9873705218de/clojure-heap.clj
https://raw.githubusercontent.com/qiao/heap.js/master/src/heap.coffee
https://raw.githubusercontent.com/MikeMirzayanov/binary-heap-benchmark/master/cpp/heap.cpp
https://raw.githubusercontent.com/MikeMirzayanov/binary-heap-benchmark/master/csharp/Heap.cs
https://raw.githubusercontent.com/MikeMirzayanov/binary-heap-benchmark/master/d/heap.d
https://raw.githubusercontent.com/silviucpp/epqueue/master/src/epqueue.erl
https://gist.githubusercontent.com/nikibobi/06dc26cff46e05eb554b8256eac284ce/raw/21c40cbb9ebfcb8cc694e28270967e86455b3299/PairHeap.fs
https://raw.githubusercontent.com/MikeMirzayanov/binary-heap-benchmark/master/go/heap.go
https://raw.githubusercontent.com/igor-kutepov/codeabbey/master/src/main/java/com/kutepov/samples/codeabbey/BinaryHeap.java
https://raw.githubusercontent.com/je-suis-tm/search-and-sort/master/heap%20sort.jl
https://raw.githubusercontent.com/MikeMirzayanov/binary-heap-benchmark/master/javascript/heap.js
https://raw.githubusercontent.com/AndrejPetelin/BinaryHeap.kt/master/src/BinaryHeap/BinaryHeap.kt
https://raw.githubusercontent.com/Tieske/binaryheap.lua/master/src/binaryheap.lua
https://raw.githubusercontent.com/backtracking/bheap/master/binary_heap.ml
https://raw.githubusercontent.com/bluenote10/nim-heap/master/binaryheap.nim
https://raw.githubusercontent.com/MikeMirzayanov/binary-heap-benchmark/master/pascal/heap.pas
https://raw.githubusercontent.com/MikeMirzayanov/binary-heap-benchmark/master/php/heap.php
https://raw.githubusercontent.com/MikeMirzayanov/binary-heap-benchmark/master/perl/heap.pl
https://raw.githubusercontent.com/cono/p6-algorithm-heap-binary/master/lib/Algorithm/Heap/Binary.pm6
https://raw.githubusercontent.com/Theodus/pony-heap/master/heap.pony
https://raw.githubusercontent.com/djs1193/codeabbey/master/q107.py
https://raw.githubusercontent.com/MikeMirzayanov/binary-heap-benchmark/master/ruby/heap.rb
https://raw.githubusercontent.com/fretbuzz/BinaryHeap/master/BinaryHeap.rkt
https://raw.githubusercontent.com/MikeMirzayanov/binary-heap-benchmark/master/rust/src/main.rs
https://raw.githubusercontent.com/MikeMirzayanov/binary-heap-benchmark/master/scala/heap.scala
https://raw.githubusercontent.com/iraikov/chicken-binary-heap/master/binary-heap.scm
https://gist.githubusercontent.com/iestynpryce/4153007/raw/fdd212ef813a24cc5fa96a7c70d9eac3481dd1c2/bst.sh
https://raw.githubusercontent.com/Bouke/Swift-PriorityQueue/master/PriorityQueue/PriorityQueue.swift
https://raw.githubusercontent.com/shages/heap/master/lib/heap.tcl
https://raw.githubusercontent.com/JesseClarkND/codeabbey_in_C-NET/master/Binary%20Heap
