https://raw.githubusercontent.com/HamidTheGeek/HackerRankSolutions/master/Solutions/Queen'sAttackII.cs
https://raw.githubusercontent.com/leeychee/hackerrank/master/practice/algorithms/implementation/queens_attack_2/main.go
https://raw.githubusercontent.com/charles-wangkai/hackerrank/master/queens-attack-2/Solution.java
https://raw.githubusercontent.com/gabrielgiordan/hackerrank/master/algorithms/implementation/queens-attack-2.js
https://raw.githubusercontent.com/witekbobrowski/HackerRank/master/Algorithms/Implementation/queens-attack-2.swift
