https://chris-young.net/2018/03/28/dvwa-command-injection/
https://medium.com/@mikewaals/remote-code-execution-damn-vulnerable-web-application-dvwa-medium-level-security-ca283cda3e86
https://pentestlab.blog/2012/12/19/command-execution-dvwa/
http://www.computersecuritystudent.com/SECURITY_TOOLS/DVWA/DVWAv107/lesson2/
https://www.hackingarticles.in/command-injection-exploitation-dvwa-using-metasploit-bypass-security/
https://www.youtube.com/watch?v=tQ4GTXlUi0c
