https://raw.githubusercontent.com/c650/hackerrank-solutions/master/Algorithms/Implementation/beautiful-days-at-the-movies.cpp
https://raw.githubusercontent.com/RyanFehr/HackerRank/master/Algorithms/Implementation/Beautiful%20Days%20at%20the%20Movies/Solution.cs
https://raw.githubusercontent.com/charles-wangkai/hackerrank/master/beautiful-days-at-the-movies/Solution.java
https://raw.githubusercontent.com/RyanFehr/HackerRank/master/Algorithms/Implementation/Beautiful%20Days%20at%20the%20Movies/Solution.js
https://raw.githubusercontent.com/sapanz/Hackerrank-Python-Solutions/master/HackerRank-Beautiful%20Days%20at%20the%20Movies/Beautiful_Days_at_the_Movies.py
https://raw.githubusercontent.com/PaulNoth/hackerrank/master/practice/algorithms/implementation/beautiful_days_at_the_movies/beautiful_days_at_the_movies.rb
https://raw.githubusercontent.com/PaulNoth/hackerrank/master/practice/algorithms/implementation/beautiful_days_at_the_movies/BeautifulDaysAtTheMovies.scala
https://raw.githubusercontent.com/witekbobrowski/HackerRank/master/Algorithms/Implementation/beautiful-days-at-the-movies.swift
