https://www.youtube.com/watch?v=38e-sxPWiuY
https://www.youtube.com/watch?v=yYhYnWo7AUU
https://drive.google.com/file/d/1x633bpIjWnLxQJidRxogYZw2cDO2MKaO/view
https://www.hackingarticles.in/hack-the-box-challenge-kotarak-walkthrough/
https://medium.com/secjuice/hackthebox-koratak-writeup-4eb2971cc1cb
https://teckk2.github.io/writeup/2018/03/10/Kotarak.html
https://davidhamann.de/2020/02/23/htb-writeup-kotarak/
https://raw.githubusercontent.com/Kyuu-Ji/htb-write-up/master/kotarak/write-up-kotarak.md
https://github.com/Purp1eW0lf/HackTheBoxWriteups/blob/master/Retired%20Machines/Kotorak.pdf
