https://raw.githubusercontent.com/kaixindelele/LeetCode/master/C%2B%2B/queue-reconstruction-by-height.cpp
https://raw.githubusercontent.com/wumansgy/LeetCode-in-Go/master/Algorithms/0406.queue-reconstruction-by-height/queue-reconstruction-by-height.go
https://raw.githubusercontent.com/Cee/Leetcode/master/406%20-%20Queue%20Reconstruction%20by%20Height.java
https://raw.githubusercontent.com/everthis/leetcode-js/master/406-queue-reconstruction-by-height.js
https://raw.githubusercontent.com/venuszhou/LeetCode/master/Python/queue-reconstruction-by-height.py
