https://raw.githubusercontent.com/DestructHub/ProjectEuler/master/Problem025/Clojure/solution_1.clj
https://raw.githubusercontent.com/DestructHub/ProjectEuler/master/Problem025/Elixir/solution_1.exs
https://raw.githubusercontent.com/nayuki/Project-Euler-solutions/master/haskell/p025.hs
https://raw.githubusercontent.com/nayuki/Project-Euler-solutions/master/java/p025.java
https://raw.githubusercontent.com/kdungs/euler/master/025/euler_25.py
https://raw.githubusercontent.com/zsiciarz/euler.rs/master/src/solutions/problem25.rs
