https://raw.githubusercontent.com/wt5ljon/cpp_codeabbey/master/problem076.cpp
https://raw.githubusercontent.com/igor-kutepov/codeabbey/master/src/main/java/com/kutepov/samples/codeabbey/PawnMoveValidator.java
https://raw.githubusercontent.com/rgj7/coding_challenges/14f552e29515ddaa8d73144b9c18ddf119312aad/codeabb/Python/p76_pawn_move_validator.py
