https://raw.githubusercontent.com/Raphaella24/Challenges/master/codewars/get-planet-name-by-id/rowcased.c
https://raw.githubusercontent.com/Raphaella24/Challenges/master/codewars/get-planet-name-by-id/sp00n.cc
https://raw.githubusercontent.com/Raphaella24/Challenges/master/codewars/get-planet-name-by-id/psmilliorn.coffee
https://raw.githubusercontent.com/Raphaella24/Challenges/master/codewars/get-planet-name-by-id/kokos29.cs
https://raw.githubusercontent.com/Raphaella24/Challenges/master/codewars/get-planet-name-by-id/SynLocker.ex
https://raw.githubusercontent.com/Raphaella24/Challenges/master/codewars/get-planet-name-by-id/maiku.js
https://raw.githubusercontent.com/Raphaella24/Challenges/master/codewars/get-planet-name-by-id/lancelote.py
https://raw.githubusercontent.com/Raphaella24/Challenges/master/codewars/get-planet-name-by-id/Grego22.rb
https://raw.githubusercontent.com/Raphaella24/Challenges/master/codewars/get-planet-name-by-id/xavierguihot.scala
https://raw.githubusercontent.com/Raphaella24/Challenges/master/codewars/get-planet-name-by-id/NikolayYakimov.swift
