https://raw.githubusercontent.com/DestructHub/ProjectEuler/master/Problem028/C/solution_1.c
https://raw.githubusercontent.com/Dalimil/ProjectEuler/master/Project_Euler_Solutions/Problem_%2328_Number_spiral_diagonals.cpp
https://raw.githubusercontent.com/DestructHub/ProjectEuler/master/Problem028/Elixir/solution_1.exs
https://raw.githubusercontent.com/nayuki/Project-Euler-solutions/master/haskell/p028.hs
https://raw.githubusercontent.com/nayuki/Project-Euler-solutions/master/java/p028.java
https://raw.githubusercontent.com/kdungs/euler/master/028/euler_28.py
https://raw.githubusercontent.com/zsiciarz/euler.rs/master/src/solutions/problem28.rs
https://raw.githubusercontent.com/nayuki/Project-Euler-solutions/master/mathematica/p028.mathematica
