https://www.cnblogs.com/lcamry/p/5763012.html
https://blog.csdn.net/qq_44105778/article/details/87214982
https://www.jianshu.com/p/40cd3630525c
https://flag0.com/2019/10/05/sqli-lib/
http://lz2y.top/index.php/2020/02/sqli-labs-less-23-to-less-28a/
https://museljh.github.io/2019/02/09/sqli-labs%20less%2021%20~%2025/
https://p0rz9.github.io/2018/10/30/Sqli-labs%20Less23-28/
