https://raw.githubusercontent.com/lllllll-llll-llllll/codeabbey_autoit/master/81.au3
https://raw.githubusercontent.com/phuclevinh2000/CodeAbbey/master/Bicycle%20Race.c
https://raw.githubusercontent.com/pastelito02/Challenges-sol/master/Programming/Codeabbey/068/karpulevich.cc
https://raw.githubusercontent.com/gravoo/codeabbey/master/Bicycle%20Race%20.cpp
https://raw.githubusercontent.com/AleksandrSD/CodeAbbeyProblems/master/Problem68/Program.cs
https://raw.githubusercontent.com/pastelito02/Challenges-sol/master/Programming/Codeabbey/068/smnroosen.d
https://raw.githubusercontent.com/johnfredswift/CodeAbbey/master/ProblemsCode/BicycleRace.go
https://raw.githubusercontent.com/madhavbharadwaj/CodeAbbey/master/java_30_Bicycle_Race.java
https://raw.githubusercontent.com/pastelito02/Challenges-sol/master/Programming/Codeabbey/068/Zacharias.jl
https://raw.githubusercontent.com/pastelito02/Challenges-sol/master/Programming/Codeabbey/068/mmrahman.js
https://raw.githubusercontent.com/pastelito02/Challenges-sol/master/Programming/Codeabbey/068/nznanzna.lisp
https://raw.githubusercontent.com/pastelito02/Challenges-sol/master/Programming/Codeabbey/068/WyattMarks.lua
https://raw.githubusercontent.com/pastelito02/Challenges-sol/master/Programming/Codeabbey/068/IIIIkuoaIIII.ml
https://raw.githubusercontent.com/pastelito02/Challenges-sol/master/Programming/Codeabbey/068/SirFuzik.php
https://raw.githubusercontent.com/pastelito02/Challenges-sol/master/Programming/Codeabbey/068/pearl_barley.pl
https://raw.githubusercontent.com/Xzya/CodeAbbeySolutions/master/BicycleRace.py
https://raw.githubusercontent.com/John-Russell/CodeAbbey/master/Bicycle%20Race.rb
https://raw.githubusercontent.com/mmcdon20/code_abbey/master/src/main/scala/Abbey068.scala
https://raw.githubusercontent.com/pastelito02/Challenges-sol/master/Programming/Codeabbey/068/kennjensen.vb
https://raw.githubusercontent.com/JesseClarkND/codeabbey_in_C-NET/master/Bicycle%20Race
