http://cursohacker.es/securizar-ftp-windows-linux-y-mac
https://github.com/rdtsc/root-me-ctf-solutions/tree/master/src/go-back-to-college
https://hacked0x90.net/index.php/2015/01/31/root-mecommand-control-level-5/
https://www.youtube.com/watch?v=CIpxfFUJiMg&ucbcb=1
https://hackinblood.lasermark.co/category/root-me/
https://www.youtube.com/watch?v=44A04nFeotg&ucbcb=1
https://hacked0x90.wordpress.com/category/root-me/
https://github.com/rdtsc/root-me-ctf-solutions/tree/master/src/the-romans-wheel
https://hacked0x90.net/index.php/2015/02/14/root-me-binary6/
http://imranparay.blogspot.com/2018/01/root-meorg-solution.html
https://www.programmersought.com/article/66481376448/
