https://raw.githubusercontent.com/c650/hackerrank-solutions/master/Algorithms/Implementation/the-hurdle-race.cpp
https://raw.githubusercontent.com/HamidTheGeek/HackerRankSolutions/master/Solutions/TheHurdleRace.cs
https://raw.githubusercontent.com/RodneyShag/HackerRank_solutions/master/General%20Programming/Basic%20Programming/The%20Hurdle%20Race/Solution.java
https://raw.githubusercontent.com/stacysn/code_challenges/master/HackerRank-Javascript/hurdle-race.js
https://raw.githubusercontent.com/danhenriquesc/hackerrank/master/algorithms/implementation/the_hurdle_race.php
https://raw.githubusercontent.com/sapanz/Hackerrank-Problem-Solving-Python-Solutions/master/HackerRank-The%20Hurdle%20Race/The_Hurdle_Race.py
https://raw.githubusercontent.com/lancelafontaine/coding-challenges/master/hackerrank/algorithms/02-implementation/the-hurdle-race/ruby/the-hurdle-race.rb
https://raw.githubusercontent.com/witekbobrowski/HackerRank/master/Algorithms/Implementation/the-hurdle-race.swift
