https://www.youtube.com/watch?v=svEuKmdK_9Y
https://raw.githubusercontent.com/BOAKGP/CTF-Writeups/master/PicoCTF%202017/Level%201/Misc/Internet%20Kitties/README.md
https://raw.githubusercontent.com/0e85dc6eaf/CTF-Writeups/master/PicoCTF%202017/Level%201/Misc/Internet%20Kitties/README.md
