https://raw.githubusercontent.com/pin3da/Programming-contest/master/solved/SPOJ/MUL%20-%20Fast%20Multiplication/solution.cc
https://raw.githubusercontent.com/marioyc/Online-Judge-Solutions/master/SPOJ/Classical/31%20-%20Fast%20Multiplication.cpp
https://raw.githubusercontent.com/SH-anonta/Competitive-Programming-Solutions/master/SPOJ/SPOJ%20MUL%20-%20Fast%20Multiplication.java
https://raw.githubusercontent.com/pin3da/Programming-contest/master/solved/SPOJ/MUL%20-%20Fast%20Multiplication/sol.py
