https://www.abatchy.com/2017/02/mr-robot-1-walkthrough-vulnhub
https://steemit.com/security/@falconspy/mr-robot-vulnhub-walkthrough
https://melbin.in/2020/08/13/mr-robot-1-vulnhub-machine-walkthrough/
