https://balsn.tw/ctf_writeup/20190323-0ctf_tctf2019quals/
https://ctftime.org/writeup/19144
https://ctftime.org/writeup/19143
https://ctftime.org/writeup/19142
https://david942j.blogspot.com/2018/04/write-up-0ctf-quals-2018-pwn1000-mighty.html
https://raw.githubusercontent.com/shiltemann/CTF-writeups-public/master/AdventOfCode-2017/writeup.md
https://raw.githubusercontent.com/shiltemann/CTF-writeups-public/master/DefCamp-2018/README.md
https://raw.githubusercontent.com/shiltemann/CTF-writeups-public/master/Hackvent_2015/writeup.md
https://www.robertxiao.ca/hacking/ctf-writeup/bkp2015-alewife/
https://www.robertxiao.ca/hacking/ctf-writeup/bctf2016-knurd/
