https://raw.githubusercontent.com/Cheshulko/Algorithms/master/Leetcode/BestTimetoBuyandSellStock.cpp
https://raw.githubusercontent.com/zjbztianya/LeetCode/master/Algorithms/0121.best-time-to-buy-and-sell-stock/best-time-to-buy-and-sell-stock.go
https://raw.githubusercontent.com/Rikin04/leetcode/master/0121.best-time-to-buy-and-sell-stock/best-time-to-buy-and-sell-stock.java
https://raw.githubusercontent.com/everthis/leetcode-js/master/121-best-time-to-buy-and-sell-stock.js
https://raw.githubusercontent.com/topwu/leetkotlin/master/src/main/kotlin/leetcode/BestTimeToBuyAndSellStock.kt
https://raw.githubusercontent.com/kamyu104/LeetCode-Solutions/master/Python/best-time-to-buy-and-sell-stock.py
https://raw.githubusercontent.com/qqnc/leetcode-1/master/algorithms/best_time_to_buy_and_sell_stock.rb
