https://github.com/Hackplayers/hackthebox-writeups/blob/master/machines/Valentine/Ghostpp7-Valentine.pdf
https://github.com/Hackplayers/hackthebox-writeups/blob/master/machines/Valentine/drx51-valentine.pdf
https://github.com/Hackplayers/hackthebox-writeups/blob/master/machines/Valentine/fiti-valentine.pdf
https://github.com/Hackplayers/hackthebox-writeups/blob/master/machines/Valentine/frosters-valentine.pdf
https://github.com/Hackplayers/hackthebox-writeups/blob/master/machines/Valentine/mcruz-valentine.pdf
https://github.com/Hackplayers/hackthebox-writeups/blob/master/machines/Valentine/pimmytrousers-valentine.pdf
https://v3ded.github.io/ctf/htb-valentine.html
https://dastinia.io/write-up/hackthebox/2018/05/11/hackthebox-valentine-writeup/
https://www.youtube.com/watch?v=gnLGRb--AoM
https://www.youtube.com/watch?v=koiwiJELNiY
https://www.absolomb.com/2018-07-31-HackTheBox-Valentine/
https://www.hackingarticles.in/hack-the-box-valentine-walkthrough/
https://medium.com/ctf-writeups/valentine-write-up-htb-a4d3c950fa6d
https://0xdf.gitlab.io/2018/07/28/htb-valentine.html
https://hkh4cks.com/blog/2018/07/28/htb-valentine-walkthrough/
https://initinfosec.com/writeups/htb/2020/01/19/valentine-htb-writeup/
https://github.com/Kyuu-Ji/htb-write-up/blob/master/valentine/write-up-valentine.md
https://raw.githubusercontent.com/diego95root/HackTheBox/master/Valentine/README.md
https://medium.com/ctf-writeups/valentine-write-up-htb-a4d3c950fa6d?source=---------11-----------------------
https://github.com/Hackplayers/hackthebox-writeups/blob/master/machines/Valentine/IceL0rd-Valentine.pdf
