https://raw.githubusercontent.com/MaskRay/HackerRank/master/find-maximum-index-product.cc
https://raw.githubusercontent.com/handracs2007/hackerrank_max_index_product/master/main/main.go
https://raw.githubusercontent.com/LachezarTsK/Find-Maximum-Index-Product/master/Solution.java
