https://github.com/sybond/CTFan/blob/master/TUCTF_2019/Faker/README.md
https://github.com/0x8LayerTeam/CTF-Writeups/blob/master/TU%20CTF%202019/REV/Faker/writeup_ptbr.md
https://github.com/b0th/CTF/tree/master/TUCTF2019/faker
http://dihydrogen.monoxide.tech/articles/2019-12/TUCTF-2019
https://github.com/AshishKumar4/CTF_Writeups/tree/master/TuCTF_2019/REV/Faker
https://cosmikflaghunters.wordpress.com/2019/12/02/tuctf-2019-faker/
