https://raw.githubusercontent.com/stbrumme/euler/master/euler-0323.cpp
https://raw.githubusercontent.com/nayuki/Project-Euler-solutions/master/haskell/p323.hs
https://raw.githubusercontent.com/nayuki/Project-Euler-solutions/master/java/p323.java
https://raw.githubusercontent.com/nayuki/Project-Euler-solutions/master/python/p323.py
https://raw.githubusercontent.com/nayuki/Project-Euler-solutions/master/mathematica/p323.mathematica
