http://webgoat-sql-injection.blogspot.com/2017/06/sql-injection-stage1.html
http://fallensnow-jack.blogspot.com/2011/08/webgoat-string-sql-injection.html
https://github.com/OWASP/WebGoat/blob/master/webgoat/src/main/webapp/lesson_solutions/Lab%20SQL%20Injection/Lab%20String%20SQL%20Injection.html
http://www.reydes.com/d/?q=Demostracion_de_Inyeccion_SQL_utilizando_WebGoat
https://www.youtube.com/watch?v=SJgYdTckMBY&t=2s
https://www.youtube.com/watch?v=ofgK8Pf8_IY
https://www.youtube.com/watch?v=sXW7OKda9JM&t=2s
https://www.youtube.com/watch?v=C1Eenl6CLWg
https://www.youtube.com/watch?v=RtAiHkorgMI&t=2s
https://www.youtube.com/watch?v=5nATbm_roHE&t=4s
https://www.youtube.com/watch?v=BG2FHL38daw&t=4s
https://www.youtube.com/watch?v=r7WG1xiFwj4&t=11s
https://www.youtube.com/watch?v=v2RLcaf0Zq8
https://www.youtube.com/watch?v=pQS77jkviK0&t=4s
https://www.youtube.com/watch?v=OF1GQRhcB4k&t=2s
https://raw.githubusercontent.com/danicrg/WebGoat/master/can_you_login_as_tom/README.md
