https://raw.githubusercontent.com/zimpha/competitive-programming/master/project-euler/volume01/42.cc
https://raw.githubusercontent.com/stbrumme/euler/master/euler-0042.cpp
https://raw.githubusercontent.com/iandioch/solutions/master/project_euler/042/solution.go
https://raw.githubusercontent.com/nayuki/Project-Euler-solutions/master/haskell/p042.hs
https://raw.githubusercontent.com/nayuki/Project-Euler-solutions/master/java/p042.java
https://raw.githubusercontent.com/kdungs/euler/master/042/euler_42.py
https://raw.githubusercontent.com/zsiciarz/euler.rs/master/src/solutions/problem42.rs
