https://raw.githubusercontent.com/Cheshulko/Algorithms/master/Leetcode/BinaryTreeRightSideView.cpp
https://raw.githubusercontent.com/chai2010/LeetCode-in-Go/master/Algorithms/0199.binary-tree-right-side-view/binary-tree-right-side-view.go
https://raw.githubusercontent.com/nctl144/LeetCode/master/Python/binary-tree-right-side-view.py
