https://raw.githubusercontent.com/zst123/picoctf-2018-writeups/master/Solved/Flaskcards/README.md
https://raw.githubusercontent.com/rughciatuk/Pico2018/master/Flaskcards_COMPLETE/flag.txt
https://ctftime.org/writeup/11840
https://gist.githubusercontent.com/kawing-ho/1f594558e0e8e148a46cc84d1a51b616/raw/9d21ba7aaa569ab7844c734c2f4ae5a486b9225c/picoCTF2018%2520-%2520Flaskcards.md
https://github.com/shiltemann/CTF-writeups-public/blob/master/PicoCTF_2018/writeup.md#web-exploitation-350-flaskcards
https://kawing-ho.github.io/2018/picoctf18-flaskcards/
https://raw.githubusercontent.com/d4rkvaibhav/picoCTF-2018-Writeups/master/WEB_EXPLOITATION/flaskcards/readme.md
https://raw.githubusercontent.com/Dvd848/CTFs/master/2018_picoCTF/Flaskcards%20and%20Freedom.md
https://raw.githubusercontent.com/liuhack/writeups/master/2018/picoCTF/Flaskcards_and_Freedom/README.md
https://tcode2k16.github.io/blog/posts/picoctf-2018-writeup/web-exploitation/#flaskcards-and-freedom
https://raw.githubusercontent.com/0e85dc6eaf/CTF-Writeups/master/PicoCTF%202018/Web%20exploitation/Flaskcards/README.md
