https://sckull.github.io/posts/madness_thm/
https://www.youtube.com/watch?v=QROzK512ggA
https://www.youtube.com/watch?v=h4CTn8w2d2A
https://raw.githubusercontent.com/SherlockSec/writeups/master/THM/madness-beginner.md
https://www.aldeid.com/wiki/TryHackMe-Madness
https://muirlandoracle.co.uk/2020/01/13/madness-write-up/
https://hafiqiqmal93.medium.com/tryhackme-madness-7e51a72b6614
https://itsecuritydz.wordpress.com/2021/05/13/madness-write-up/
https://github.com/kesselbach/Madness
https://learning2hack665624120.wordpress.com/2020/08/10/tryhackme-write-up-madness/
https://www.youtube.com/watch?v=JN9aELZH7ME&ab_channel=Hackerala1.1
https://h4ck3r5.code.blog/2020/10/22/tryhackme-madness-ctf-writeup-detailed/
https://marcorei7.wordpress.com/2020/07/29/006-madness/
https://shalindafernando.com/ctf/tryhackme/thm-writeup-madness-ctf/
