https://raw.githubusercontent.com/kamyu104/LeetCode-Solutions/master/C%2B%2B/base-7.cpp
https://raw.githubusercontent.com/wumansgy/LeetCode-in-Go/master/Algorithms/0504.base-7/base-7.go
https://raw.githubusercontent.com/LucasBoTang/LeetCode/master/Python/504base_7.py
