https://raw.githubusercontent.com/mpillar/codeeval/master/1-moderate/decimal-to-binary/main.cpp
https://gist.githubusercontent.com/yuheiomori/7690365/raw/0094ab2ff4330ef266dc063d9dbd12fd9aa2b804/main.go
https://raw.githubusercontent.com/pascal-bourut/codeeval-challenges/master/moderate/27%20-%20Decimal%20To%20Binary/27.js
https://raw.githubusercontent.com/blamonet/php-code-eval-solutions/master/decimal_to_binary.php
https://raw.githubusercontent.com/leaen/Codeeval-solutions/master/decimal-to-binary.py
