https://rundata.wordpress.com/2014/03/19/overthewire-leviathan-wargame-solution-2-2/
https://jhalon.github.io/over-the-wire-leviathan/
https://www.youtube.com/watch?v=I6Ns7R7paJY&t=565s
https://raw.githubusercontent.com/Lorenyx/OverTheWire-Solutions/master/leviathan/level_2.md
