https://fwhibbit.es/htb-writeup-traceback
https://www.youtube.com/watch?v=6D_6pkX7_So
https://github.com/Hackplayers/hackthebox-writeups/blob/master/machines/Traceback/DaWoschbar-Traceback.pdf
https://github.com/Hackplayers/hackthebox-writeups/blob/master/machines/Traceback/kaosam-Traceback.pdf
https://github.com/Hackplayers/hackthebox-writeups/blob/master/machines/Traceback/traceback-HTB-WU-noraj.pdf
https://github.com/fatihh92/HackTheBox-Writeups/blob/master/Traceback.pdf
