https://raw.githubusercontent.com/stbrumme/euler/master/euler-0303.cpp
https://raw.githubusercontent.com/nayuki/Project-Euler-solutions/master/java/p303.java
https://raw.githubusercontent.com/nayuki/Project-Euler-solutions/master/python/p303.py
