https://raw.githubusercontent.com/stbrumme/euler/master/euler-0203.cpp
https://raw.githubusercontent.com/nayuki/Project-Euler-solutions/master/java/p203.java
https://raw.githubusercontent.com/nayuki/Project-Euler-solutions/master/python/p203.py
https://raw.githubusercontent.com/nayuki/Project-Euler-solutions/master/mathematica/p203.mathematica
