25
14387450616590393937 7712656060484414984 2464437674451061855
4781558226170553140 14462421620063515403 15628152113912969410
8000226599122239641 7692740031166846786 15450880471838025179
15008627928344092286 10888378903330940515 586749292389028484
4431341197557307547 17721656890592565358 3783561958747283685
12723045710680954962 18366345450220395961 9384521723382187800
1569887506657045807 4072498489175756990 10802234021664243065
5157803060633187965 17261271310076747160 4956142018788303971
12378395735092488814 11300995227302311257 11188285222926548192
2243599304433059979 4250338716977379234 7436727331726445225
8474539733973700737 17397560724892962450 15498926735792546419
11204340352150507574 14973346437045481623 5610148449733739168
7739319209787041781 1096653607881732450 7134656147296743147
7934917612387915277 14846573502943120548 5610359790067652711
5447193783350068949 2718052422162853342 15771070609233642095
2595129535603671070 17370472895594271939 17546406846171616312
7975719748869697347 11766454376210113562 9070644873517012921
5420945064175909134 6499576829395655385 16653041676319012132
7988951093546567810 18144885686629634793 10068384233743377704
5105516042457523259 17928344570435155898 11187376854225127069
6668366088225792063 727563127090404276 170505164325818121
8850432541470646251 4733921289665718694 2918150976700948073
8042159140801307901 3328055607770340800 8608684488345649527
2381431815666837725 15302580035617564378 17379374051915290151
10739289856492350074 7881594334489222013 7091507510579666616
