https://raw.githubusercontent.com/appsecco/dvna/master/docs/solution/a4-xxe.md
https://appsecco.com/books/owasp-2017-dvna-attacks/xxe.html
https://blog.jscrambler.com/exploring-the-owasp-top-10-by-exploiting-vulnerable-node-applications/
https://www.cnblogs.com/hack404/p/10386938.html
https://blog.csdn.net/weixin_30781775/article/details/97314487
