https://raw.githubusercontent.com/mzet-/ctf-writeups/master/hacking-lab.com/webgoat/challenge10.md
https://www.youtube.com/watch?v=8RxZ4O616zs
https://www.youtube.com/watch?v=pQS77jkviK0&t=2s
https://www.youtube.com/watch?v=W1tCBEcddds&t=8s
