https://raw.githubusercontent.com/ysmolsky/cryptopals-matasano-solutions/master/28/main.go
https://raw.githubusercontent.com/ilchen/cryptopals/master/src/main/java/com/cryptopals/Set4.java
https://raw.githubusercontent.com/lt/php-cryptopals/master/Cryptopals/Set4/Challenge28/Solution28.php
https://raw.githubusercontent.com/jaybosamiya/cryptopals-solutions/master/set4/28/run.py
https://raw.githubusercontent.com/technion/matasano_challenge/master/set4/chal28/chal28.rb
https://raw.githubusercontent.com/Daeinar/cryptopals/master/src/c28.rs
