https://raw.githubusercontent.com/smokeleeteveryday/CTF_WRITEUPS/master/2015/BACKDOORCTF/pwnable/echo/README.md
https://shankaraman.wordpress.com/2015/04/02/backdoor-ctf-2015-echo-writeup/
http://geeksspeak.github.io/blog/2015/04/02/backdoor-ctf-2015-echo-writeup/
https://khoadungit.wordpress.com/2015/04/08/backdoor-ctf-2015-echo-writeup/
https://medium.com/@2019ko70012/picoctf-client-side-is-still-bad-solved-25a8f8d23710
https://www.youtube.com/watch?v=Rh0TA6fdnnk
https://www.youtube.com/watch?v=xmsvY1DBiiw
https://www.youtube.com/watch?v=dkTfI7goJwc
https://0xrick.github.io/hack-the-box/zipper/
https://snowscan.io/htb-writeup-zipper/#
