https://raw.githubusercontent.com/Gamer1092/Coderbyte-Medium/Medium/Triple%20Double.cpp
https://raw.githubusercontent.com/ZLester/Coderbyte-Solutions/master/Medium/21%20-%20Triple%20Double.js
https://raw.githubusercontent.com/Xuefeng-Zhu/Coderbyte-pythonSol/master/47-triple-double.py
