https://blog.g0tmi1k.com/2012/01/hackademic-rtb2/
https://chousensha.github.io/blog/2016/07/20/pentest-lab-hackademic-rtb2/
https://www.aldeid.com/wiki/Hackademic-RTB2
https://rgolebiowski.blogspot.com/2016/01/hackademic-2.html
