https://raw.githubusercontent.com/stbrumme/euler/master/euler-0120.cpp
https://raw.githubusercontent.com/nayuki/Project-Euler-solutions/master/haskell/p120.hs
https://raw.githubusercontent.com/nayuki/Project-Euler-solutions/master/java/p120.java
https://raw.githubusercontent.com/nayuki/Project-Euler-solutions/master/python/p120.py
https://raw.githubusercontent.com/gifnksm/ProjectEulerRust/master/src/bin/p120.rs
https://raw.githubusercontent.com/nayuki/Project-Euler-solutions/master/mathematica/p120.mathematica
