https://raw.githubusercontent.com/rdtsc/codeeval-solutions/master/src/hard/climbing-stairs/solutions/c/solution.c
https://raw.githubusercontent.com/rdtsc/codeeval-solutions/master/src/hard/climbing-stairs/solutions/c%2B%2B/solution.cpp
https://gitlab.com/agaskell/codeeval/-/raw/master/64/64.go
https://raw.githubusercontent.com/jingcmu/codeeval/master/CLIMBING%20STAIRS.java
https://raw.githubusercontent.com/pascal-bourut/codeeval-challenges/master/hard/64%20-%20Climbing%20stairs/64.js
https://raw.githubusercontent.com/pascal-bourut/codeeval-challenges/master/hard/64%20-%20Climbing%20stairs/64.php
https://raw.githubusercontent.com/mpillar/codeeval/master/2-hard/climbing-stairs/main.py
https://gitlab.com/agaskell/codeeval/-/raw/master/64/64.rb
