https://raw.githubusercontent.com/ejunjsh/leetcode/master/algorithms/0034/find-first-and-last-position-of-element-in-sorted-array.cpp
https://raw.githubusercontent.com/kflili/LeetcodeCShaprDotNetCore/master/Algorithms%20Basics/Chapter%206.%20Binary%20Search/34.%20Search%20for%20a%20Range.cs
https://raw.githubusercontent.com/vnspoj/go-solution/master/go/find-first-and-last-position-of-element-in-sorted-array.go
https://raw.githubusercontent.com/varunu28/LeetCode-Java-Solutions/master/Medium/Find%20First%20and%20Last%20Position%20of%20Element%20in%20Sorted%20Array.java
https://raw.githubusercontent.com/everthis/leetcode-js/master/34-find-first-and-last-position-of-element-in-sorted-array.js
https://raw.githubusercontent.com/Garvit244/Leetcode/master/1-100q/34.py
https://raw.githubusercontent.com/dylansun/leetcode-cn-scala/master/sol-module/src/No34.scala
https://raw.githubusercontent.com/soapyigu/LeetCode-Swift/master/Search/SearchForARange.swift
