https://raw.githubusercontent.com/kflili/LeetcodeCShaprDotNetCore/master/Algorithms%20Basics/Chapter%205.%20Bit%20Manipulation/231.%20Power%20of%20Two.cs
https://raw.githubusercontent.com/wumansgy/LeetCode-in-Go/master/Algorithms/0231.power-of-two/power-of-two.go
https://raw.githubusercontent.com/cherryljr/LeetCode/master/Power%20of%20Two.java
https://raw.githubusercontent.com/everthis/leetcode-js/master/231-power-of-two.js
https://raw.githubusercontent.com/topwu/leetkotlin/master/src/main/kotlin/leetcode/PowerOfTwo.kt
https://raw.githubusercontent.com/geemaple/leetcode/master/leetcode/231.power-of-two.py
https://raw.githubusercontent.com/qqnc/leetcode-1/master/algorithms/power_of_two.rb
https://raw.githubusercontent.com/dylansun/leetcode-cn-scala/master/sol-module/src/No231.scala
https://raw.githubusercontent.com/soapyigu/LeetCode-Swift/master/Math/PowerTwo.swift
