https://hackingandsecurity.blogspot.com/2017/09/vulnhub-gameover-vm-challenge-001.html
https://hackingandsecurity.blogspot.com/2017/09/vulnhub-gameover-vm-challenge-002.html
https://hackingandsecurity.blogspot.com/2017/09/vulnhub-gameover-vm-challenge-004.html?view=sidebar
https://hackingandsecurity.blogspot.com/2017/09/vulnhub-gameover-vm-hackademicchallenge_55.html?view=sidebar
