https://raw.githubusercontent.com/diguage/leetcode/e72299539a319c94b435ff26cf077371a353b00c/docs/0868-binary-gap.adoc
https://raw.githubusercontent.com/mkzpd/leetcode-solution/60c9b218683bcdee86477a910c58ec702185c726/need-to-do/c------download-problem--of--leetcode/868.binary-gap.c
https://raw.githubusercontent.com/AntonSkochko/solutions/ea4a5395a87a9e0fc7e24fbed13a9a8d97a5637d/leetcode/601-900/851-900/868.Binary%20Gap.cc
https://raw.githubusercontent.com/kamyu104/LeetCode-Solutions/master/C%2B%2B/binary-gap.cpp
https://raw.githubusercontent.com/jackshea/leetcode/95b544fa04e8b11eadf0c750eedfdbe3bf1cb878/LeetCode/Problems/Easy/P0868_BinaryGap.cs
https://raw.githubusercontent.com/wumansgy/LeetCode-in-Go/master/Algorithms/0868.binary-gap/binary-gap.go
https://raw.githubusercontent.com/RanhaoKang/leetcode/d401d8f6dfe318828f30902f21f5633a0b279765/solutions/0868_binary-gap.ipynb
https://raw.githubusercontent.com/dadalu/leetcode/98fede033923eccae4bc03190a5859b6e2cd4716/src/leetcode/editor/cn/BinaryGap.java
https://raw.githubusercontent.com/JuliaCN/LeetCode.jl/37fdccdabb57cca30a648479f9011f4d7caac870/src/unresolved/868.binary-gap.jl
https://raw.githubusercontent.com/ZnGaP/ljx_FrontEndLearning/7bc35115471a7bd46aaa532f1e8f936919fb5131/20190331%20868.binary-gap.js
https://raw.githubusercontent.com/Sporkyy/leetcode/2aecb75912123d343cc8c4d5bfb57805db6b5873/868-binary-gap.php
https://raw.githubusercontent.com/AdamYuWen/LeetCode/959856e6847d353eb60043d1b6cef63be1ee58c6/Python/0868.%20Binary%20Gap.py
https://raw.githubusercontent.com/engr-hasanuzzaman/Programming-contest/00af2cd851f84eec1fd6cc6a215e1dffb2d16222/leetcode-solutions/ruby/868.%20Binary%20Gap.rb
https://raw.githubusercontent.com/leshow/exercism/add43ff577246f318d0218b4a36d86c3236c730b/hackerrank/src/binary_gap.rs
https://raw.githubusercontent.com/StringsLi/scala_leetcode/85a292c4b526a88e5cd529926d87e2858e5dacb7/src/main/scala/com/strings/leetcode/math/Problem_868_binaryGap.scala
https://raw.githubusercontent.com/LiuLongyang0305/LeetCode/c17c0a779661801b98ee29fd6488b8e674550c7e/swift/Math/868_BinaryGap.swift
https://raw.githubusercontent.com/0r20/tg_mpei_course/67c1a415b3539aa535a31944c04716c32180319d/Binary%20Gap
https://raw.githubusercontent.com/21david/LeetCode-weekly-problems/215cdbc46c4d4463a0ed4e813c76cca720c7d9f4/Week1/Binary%20Gap
https://raw.githubusercontent.com/andrewdkim47/LeetCode/8dd92dbc0b1de79a2818cb271599b799f1bdbec3/Bit%20Manipulation%20&%20Base/Binary%20Gap
https://raw.githubusercontent.com/lavanya-shirur/Python-Programs/50ef459bb40d05c3c1a0be34d8ff3659c56d9551/LeetCode868_Binary%20Gap
https://raw.githubusercontent.com/mehdizamani/Data_Structure_Algorithm/89f663e9a08310d1ce051767971121b1b2fb1571/binary_gap_of_ones
