https://www.youtube.com/watch?v=ypOX6jktAys
https://www.youtube.com/watch?v=UcbYidEbo18
https://www.youtube.com/watch?v=rl4UTtNAQZ0
https://www.youtube.com/watch?v=TcoRUA51CEg
https://www.youtube.com/watch?v=NEGfUvSiZmA
https://www.youtube.com/watch?v=NOga9mLkiuI
https://www.youtube.com/watch?v=Cc-ucE7absM
https://www.youtube.com/watch?v=fO8005eRhP8
https://www.youtube.com/watch?v=E47tIGvz4TM
https://www.youtube.com/watch?v=IU_pP8IsEZk
https://www.youtube.com/watch?v=cAChOzhiVbY
https://www.youtube.com/watch?v=uxgy5VtyeRo
https://webgoat.atlassian.net/browse/WEB-116
https://www.cnblogs.com/lauren1003/p/6224236.html
https://tuonilabs.wordpress.com/tag/parameter-tampering/
https://github.com/shantisuresh01/WebGoat-Lessons/blob/master/bypass-html-field-restrictions/src/main/java/org/owasp/webgoat/plugin/BypassHtmlFieldRestrictions.java
https://www.youtube.com/watch?v=xUI_2L4km3Q
https://www.youtube.com/watch?v=v5-RPOunmYg
https://www.youtube.com/watch?v=sCKHRh4c3EQ
https://www.youtube.com/watch?v=YnMzXzQQM3Y
https://www.youtube.com/watch?v=-8YqSyMP6vM
https://www.youtube.com/watch?v=4JBpYTj0o08
https://www.youtube.com/watch?v=5bpMz8vQd9g
https://www.youtube.com/watch?v=wgg2rqb8XH0
https://www.youtube.com/watch?v=B_LevFpcH38
https://www.youtube.com/watch?v=AnSIs0C1ka0
https://www.youtube.com/watch?v=i914Ndy6kWQ
https://github.com/shantisuresh01/WebGoat-Lessons/blob/master/bypass-html-field-restrictions/src/main/resources/plugin/BypassHtmlFieldRestrictions/lessonSolutions/en/BypassHtmlFieldRestrictions.html
https://sithlab.tistory.com/659
https://discotek.ca/downloads/deepdive-reports/webgoat-7.1/archives/webgoat-container-7.1.war/plugin_lessons/bypass-html-field-restrictions-1.0.jar/plugin/BypassHtmlFieldRestrictions/lessonSolutions/en/BypassHtmlFieldRestrictions.html
https://raw.githubusercontent.com/shantisuresh01/WebGoat-Lessons/master/bypass-html-field-restrictions/src/main/java/org/owasp/webgoat/plugin/BypassHtmlFieldRestrictions.java
