https://www.hacknos.com/tbbt-funwithflags-walkthrough-vulnhub/
https://parasarora06.blogspot.com/2020/03/TBBT-FunWithFlags.html
https://m8r0wn.com/posts/2020/01/funwithflags.html
https://www.youtube.com/watch?v=K-muf_LJ_io
