https://raw.githubusercontent.com/YetAnotherMinion/YAMScratch/master/CodeAbbey/c-sol/src/97.c
https://raw.githubusercontent.com/DionysiosB/CodeAbbey/master/GirlsAndPigs.cpp
https://raw.githubusercontent.com/shepherdsm/projects/aa59c0c2c547d3e7b0b2fbf45756ba11c61f5350/challenges/codeabbey/097/main.go
https://raw.githubusercontent.com/pastelito02/Challenges-sol/master/Programming/Codeabbey/097/damian_zb.java
https://raw.githubusercontent.com/pastelito02/Challenges-sol/master/Programming/Codeabbey/097/rfroc_js.js
https://raw.githubusercontent.com/pastelito02/Challenges-sol/master/Programming/Codeabbey/097/ciberstein.php
https://raw.githubusercontent.com/pastelito02/Challenges-sol/master/Programming/Codeabbey/097/frosty.py
https://raw.githubusercontent.com/JesseClarkND/codeabbey_in_C-NET/master/Girls%20and%20Pigs
