https://www.aldeid.com/wiki/WackoPicko/Reflected-XSS-Behind-a-Flash-Form
https://www.youtube.com/watch?v=cEqhlaCpzYA
https://www.youtube.com/watch?v=bBgdHS7i-dc
https://www.youtube.com/watch?v=74IdGmx5oQ0
