https://raw.githubusercontent.com/stbrumme/euler/master/euler-0182.cpp
https://raw.githubusercontent.com/nayuki/Project-Euler-solutions/master/haskell/p182.hs
https://raw.githubusercontent.com/nayuki/Project-Euler-solutions/master/java/p182.java
https://raw.githubusercontent.com/nayuki/Project-Euler-solutions/master/python/p182.py
