https://raw.githubusercontent.com/Anmol2307/Codeforces/master/Practice/129B.cpp
https://raw.githubusercontent.com/Waqar-107/Codeforces/master/B-set/129B.Students%20and%20Shoelaces.java
https://raw.githubusercontent.com/nomeaning777/codeforces/master/129B.rb
