https://ctftime.org/event/914/tasks/
https://raw.githubusercontent.com/abinpaul1/CTF-Writeups/master/picoCTF%202019%20-%20JaWT%20Scratchpad/README.md
https://raw.githubusercontent.com/Dvd848/CTFs/master/2019_picoCTF/Irish-Name-Repo_2.md
https://raw.githubusercontent.com/AMACB/picoCTF-2019-writeups/master/problems/like1000/README.md
https://raw.githubusercontent.com/AMACB/picoCTF-2019-writeups/master/problems/shark-on-wire-2/README.md
https://scrapbox.io/mikoto-writeup/Irish_Name_Repo_:_200
https://tcode2k16.github.io/blog/posts/picoctf-2019-writeup/forensics/
https://www.youtube.com/watch?v=qdEmT34FDhM
https://www.youtube.com/watch?v=3hh1EfVLNNU
https://0xdiablos.github.io/Irish-Name-Repo/
