https://raw.githubusercontent.com/adzen/Solution-for-Contests/master/SPOJ/FCTRL2.c
https://raw.githubusercontent.com/vfonic/SPOJ/master/fctrl2.cpp
https://raw.githubusercontent.com/rezwanh001/Spoj-Solutions-in-Cpp-and-Python-3-/master/FCTRL2%20-%20Small%20factorials/FCTRL2%20-%20Small%20factorials.py
