https://raw.githubusercontent.com/plantree/LeetCode/master/Array/PlusOne.cc
https://raw.githubusercontent.com/jingcmu/leetcode/master/C%2B%2B/Plus%20One.cpp
https://raw.githubusercontent.com/kflili/LeetcodeCShaprDotNetCore/master/top-interview-questions/66.%20Plus%20One.cs
https://raw.githubusercontent.com/wumansgy/LeetCode-in-Go/master/Algorithms/0066.plus-one/plus-one.go
https://raw.githubusercontent.com/varunu28/LeetCode-Java-Solutions/master/Easy/Plus%20One.java
https://raw.githubusercontent.com/everthis/leetcode-js/master/66-plus-one.js
https://raw.githubusercontent.com/topwu/leetkotlin/master/src/main/kotlin/leetcode/PlusOne.kt
https://raw.githubusercontent.com/yulongwang12/LeetCode/master/Python/plus-one.py
https://raw.githubusercontent.com/qqnc/leetcode-1/master/algorithms/plus_one.rb
https://raw.githubusercontent.com/aylei/leetcode-rust/master/src/solution/s0066_plus_one.rs
https://raw.githubusercontent.com/soapyigu/LeetCode-Swift/master/Math/PlusOne.swift
