https://raw.githubusercontent.com/stbrumme/euler/master/euler-0064.cpp
https://raw.githubusercontent.com/nayuki/Project-Euler-solutions/master/java/p064.java
https://raw.githubusercontent.com/sile/euler.rs/master/euler_02/src/problem064.rs
