https://raw.githubusercontent.com/p1o2p3u1/WeChall/master/Training/Programming_I.md
https://raw.githubusercontent.com/BirkhoffLee/wechall/master/exploit/Training%20Programming%201/README.md
https://raw.githubusercontent.com/james9909/PracticeCTF/master/WeChall/Programming-1/Solution.py
https://raw.githubusercontent.com/lc4t/OtherFiles/master/md/WeChall.md
https://github.com/BakaRei/wechall/blob/master/programming1.py
http://aizuctf.hatenablog.jp/entry/2015/01/24/214539
http://byd.dropsec.xyz/2016/03/04/WeChall_writeup/#Training-Programming-1
