https://alexandervoidstar.wordpress.com/2015/07/04/hackthis-main-level-5/
https://www.youtube.com/watch?v=tbxSprwi5MU
https://www.youtube.com/watch?v=h4O7-FOuM2M
https://www.youtube.com/watch?v=GBRJfodzFgY
https://obilan.be/hackthis-main-level-5/
