https://raw.githubusercontent.com/milapsheth/Crypto-Challenges/master/src/set4/ctr_bitflip.clj
https://raw.githubusercontent.com/ysmolsky/cryptopals-matasano-solutions/master/26/main.go
https://raw.githubusercontent.com/ilchen/cryptopals/master/src/main/java/com/cryptopals/Set4.java
https://raw.githubusercontent.com/lt/php-cryptopals/master/Cryptopals/Set4/Challenge26/Solution26.php
https://raw.githubusercontent.com/jaybosamiya/cryptopals-solutions/master/set4/26/run.py
https://raw.githubusercontent.com/technion/matasano_challenge/master/set4/chal26/chal26.rb
https://raw.githubusercontent.com/Daeinar/cryptopals/master/src/c26.rs
