https://blog.kuhi.to/picoctf_2019_general_skills_writeup
https://medium.com/@joe.s.mcdonnell/picoctf-2019-writeup-beginner-challenges-9b41806952b0
https://raw.githubusercontent.com/kevinjycui/picoCTF-2019-writeup/master/General%20Skills/plumbing/README.md
https://zomry1.github.io/plumbing/
https://qiita.com/hamsan/items/aa9e8fa355cea88c4991
https://tsalvia.hatenablog.com/entry/2019/10/12/053834
