https://www.hackingarticles.in/minu-v2-vulnhub-walkthrough/
https://www.youtube.com/watch?v=2UQq8BrbLQA
https://developpaper.com/minu-v2-vulnhub-walkthrough/
https://www.w3xue.com/exp/article/20198/50391.html
https://getpocket.com/@Avanadra/share/4412376
https://blog.mzfr.me/vulnhub-writeups/2019-07-24-minu
https://www.cnblogs.com/hack404/p/11350499.html
https://www.tfzx.net/article/649020.html
https://trshow.info/watch/2UQq8BrbLQA/minu-2-machine-walkthrough-vulnhub.html
https://liuyixiang.com/post/104872.html
https://www.shuzhiduo.com/A/QV5Z3PkZdy/
