https://raw.githubusercontent.com/NoSoul/CodeForces/master/1114A.c
https://raw.githubusercontent.com/enfinet/codeforces/master/114A%20-%20Cifera.cc
https://raw.githubusercontent.com/nikzsaz/Codeforces-solution/master/114A-cifera.cpp
https://raw.githubusercontent.com/anilvedala/codeforces/master/114A.java
https://raw.githubusercontent.com/AhmedRaafat14/CodeForces-Div.2A/master/114A%20-%20Cifera.py
