https://raw.githubusercontent.com/zerolinux5/HackerRank-Solutions/master/fullCountingSort.cpp
https://raw.githubusercontent.com/RyanFehr/HackerRank/master/Algorithms/Sorting/The%20Full%20Counting%20Sort/Solution.java
https://raw.githubusercontent.com/witekbobrowski/HackerRank/master/Algorithms/Sorting/the-full-counting-sort.swift
