21
2017817 2213279
2034157 2260787
2506541 2746199
1782211 1872301
1705481 2339933
2156491 2335009
1752629 1976053
2506541 2746199
2034157 2311549
1528627 2421593
1585481 2723363
1898749 2352787
2132281 2625247
2299489 2629223
2497751 2723363
2260787 2311549
2182387 2625247
1570859 2311549
2535233 2625247
2240533 2578993
2260787 2489423
