https://raw.githubusercontent.com/kingspp/8086-MicroProcessor/master/Prime-Check.asm
https://gist.githubusercontent.com/hjr3/2020292/raw/4f499a23eaed2ccbbf69c8b40549383c3ef84800/primes.c
https://raw.githubusercontent.com/openjdk/mobile/2792243f2a251ec3adf0e3992465db3a6c349a15/src/java.desktop/share/native/libharfbuzz/hb-subset-glyf.cc
https://raw.githubusercontent.com/DionysiosB/CodeAbbey/master/PrimeRanges.cpp
https://raw.githubusercontent.com/HouseBreaker/SoftUni-Programming-Fundamentals/master/02.%20Data%20Types%20and%20Methods/Exercises/24.%20Primes%20in%20Given%20Range/PrimeRange.cs
https://raw.githubusercontent.com/pastelito02/Challenges-sol/master/Programming/Codeabbey/062/Ratzenfutz.d
https://raw.githubusercontent.com/pastelito02/Challenges-sol/master/Programming/Codeabbey/062/alexander_v.fs
https://raw.githubusercontent.com/pastelito02/Challenges-sol/master/Programming/Codeabbey/062/istudent.go
https://raw.githubusercontent.com/pastelito02/Challenges-sol/master/Programming/Codeabbey/062/lambda_hask.hs
https://raw.githubusercontent.com/igor-kutepov/codeabbey/master/src/main/java/com/kutepov/samples/codeabbey/PrimeRanges.java
https://raw.githubusercontent.com/pastelito02/Challenges-sol/master/Programming/Codeabbey/062/andanari.p.js
https://gist.githubusercontent.com/thinkphp/5348581/raw/c4aa65d2a443881b8abc909c3120307597f5df48/gistfile1.lisp
https://raw.githubusercontent.com/pastelito02/Challenges-sol/master/Programming/Codeabbey/062/atercattus.lua
https://raw.githubusercontent.com/pastelito02/Challenges-sol/master/Programming/Codeabbey/062/IIIIkuoaIIII.ml
https://raw.githubusercontent.com/pastelito02/Challenges-sol/master/Programming/Codeabbey/062/Daniil-Savinsky.php
https://raw.githubusercontent.com/gitpan/Math-Prime-Simple/274f251be4cb89383d0f15ec0e7c68e17aad28ff/lib/Math/Prime/Simple.pm
https://raw.githubusercontent.com/ValeWasTaken/CodeAbbey_Solutions/master/Python/id062-Prime_Ranges.py
https://raw.githubusercontent.com/pastelito02/Challenges-sol/master/Programming/Codeabbey/062/Unihedron.rb
https://raw.githubusercontent.com/mmcdon20/code_abbey/master/src/main/scala/Abbey062.scala
https://raw.githubusercontent.com/pastelito02/Challenges-sol/master/Programming/Codeabbey/062/Guy-Gervais.vb
https://raw.githubusercontent.com/JesseClarkND/codeabbey_in_C-NET/master/Prime%20Ranges
