https://raw.githubusercontent.com/igor-kutepov/codeabbey/master/src/main/java/com/kutepov/samples/codeabbey/SnakeArcade.java
https://raw.githubusercontent.com/djs1193/codeabbey/master/q96.py
https://gitlab.com/CodeArtisan/codeabbey/raw/master/problem_96/solution.rkt
