https://raw.githubusercontent.com/pastelito02/Challenges-sol/master/Programming/Codeabbey/001/rossetacode.ada
https://gist.githubusercontent.com/nocko/5da6c4c4bfcad5eb01c96bac632adca9/raw/4fa96cdd08668e4996a63847b5985751a42472fc/hello.adb
https://raw.githubusercontent.com/pastelito02/Challenges-sol/master/Programming/Codeabbey/001/rosettacode.arc
https://raw.githubusercontent.com/lllllll-llll-llllll/codeabbey_autoit/master/20.au3
https://raw.githubusercontent.com/pastelito02/Challenges-sol/master/Programming/Codeabbey/001/rosettacode.bf
https://raw.githubusercontent.com/YetAnotherMinion/YAMScratch/master/CodeAbbey/c-sol/src/22.c
https://raw.githubusercontent.com/pastelito02/Challenges-sol/master/Programming/Codeabbey/022/Anastasiiiiia.cc
https://raw.githubusercontent.com/DionysiosB/CodeAbbey/master/TwoPrinters.cpp
https://raw.githubusercontent.com/pastelito02/Challenges-sol/master/Programming/Codeabbey/021/slayfer1112.cr
https://raw.githubusercontent.com/Tempurturtul/CodeAbbey/master/C%23/VowelCount.cs
https://raw.githubusercontent.com/pastelito02/Challenges-sol/master/Programming/Codeabbey/022/limjason334.d
https://raw.githubusercontent.com/SmellyIrishMan/CodeAbbeyProblems/master/CodeAbbeyProblems/ArrayCounter.fs
https://raw.githubusercontent.com/pastelito02/Challenges-sol/master/Programming/Codeabbey/022/alexandershinov.go
https://raw.githubusercontent.com/igor-kutepov/codeabbey/master/src/test/java/com/kutepov/samples/codeabbey/TwoPrintersTest.java
https://raw.githubusercontent.com/pastelito02/Challenges-sol/master/Programming/Codeabbey/022/Zacharias.jl
https://raw.githubusercontent.com/pastelito02/Challenges-sol/master/Programming/Codeabbey/022/Phocisticks.js
https://raw.githubusercontent.com/chriswood/codeabbey/master/caid21.lisp
https://raw.githubusercontent.com/pastelito02/Challenges-sol/master/Programming/Codeabbey/022/atercattus.lua
https://raw.githubusercontent.com/pastelito02/Challenges-sol/master/Programming/Codeabbey/022/stefan.schmiedl.ml
https://raw.githubusercontent.com/mpeshehonov/Codeabbey/master/practice/%2322/index.php
https://raw.githubusercontent.com/pastelito02/Challenges-sol/master/Programming/Codeabbey/021/pearl_barley.pl
https://raw.githubusercontent.com/ValeWasTaken/CodeAbbey_Solutions/master/Python/id022-Two_Printers.py
https://raw.githubusercontent.com/pastelito02/Challenges-sol/master/Programming/Codeabbey/022/ThePineapple.rb
https://raw.githubusercontent.com/pastelito02/Challenges-sol/master/Programming/Codeabbey/022/Guy-Gervais.vb
