https://www.youtube.com/watch?v=i7ETxCQoOK8
https://www.youtube.com/watch?v=Bf8pziDavfQ
https://www.youtube.com/watch?v=-54xehoGFL0
https://www.youtube.com/watch?v=UnOHFqVO20A
https://www.youtube.com/watch?v=QS7KtADEmaU
https://www.youtube.com/watch?v=NP_DtQSdB-A
https://www.youtube.com/watch?v=NnREQGqF3QA
https://www.youtube.com/watch?v=htz3N9EWiss
https://www.youtube.com/watch?v=VUTMxBifpNM
