https://raw.githubusercontent.com/Waqar-107/Codeforces/master/B-set/17B.Hierarchy.cpp
https://raw.githubusercontent.com/0JAdams/JavaCodeForcesSolutions/master/17B/Main.java
https://raw.githubusercontent.com/nomeaning777/codeforces/master/117B.rb
