https://raw.githubusercontent.com/stbrumme/euler/master/euler-0549.cpp
https://raw.githubusercontent.com/nayuki/Project-Euler-solutions/master/java/p549.java
https://raw.githubusercontent.com/nayuki/Project-Euler-solutions/master/python/p549.py
