https://raw.githubusercontent.com/lucasg/Cryptopals/master/%5B06%5D_break_repeat_key_cipher/main.c
https://raw.githubusercontent.com/KingMob/cryptopals-crypto-challenges/master/src/app/set1.clj
https://raw.githubusercontent.com/jeromevonk/cryptopals_challenge/master/06/06.BreakRP_Xor/challenge06.cpp
https://raw.githubusercontent.com/BobGneu/cryptopals-csharp/master/test/Crypto.Tests/Set1/Challenge6.cs
https://raw.githubusercontent.com/brettg/cryptopals-elixir/master/1/6.exs
https://raw.githubusercontent.com/mfridman/cryptopals/master/set-1/chal-6/main.go
https://raw.githubusercontent.com/SomMeri/matasano-cryptopals-solutions/master/src/main/java/org/meri/matasano/Set1.java
https://raw.githubusercontent.com/gburtini/Matasano-Cryptopals-Challenges/master/sets/1/06.js
https://raw.githubusercontent.com/lt/php-cryptopals/master/Cryptopals/Set1/Challenge6/Solution6.php
https://raw.githubusercontent.com/jaybosamiya/cryptopals-solutions/master/set1/6/run.py
https://raw.githubusercontent.com/xmunoz/cryptopals/master/set1/six.rb
https://raw.githubusercontent.com/Daeinar/cryptopals/master/src/c06.rs
https://raw.githubusercontent.com/philwantsfish/cryptopals-solutions/master/src/test/scala/Set1/Exercise6Tests.scala
