https://www.youtube.com/watch?v=Bo4A7IFJ2HQ
https://www.youtube.com/watch?v=ZcUsR9DSSOk
https://www.youtube.com/watch?v=UMuOcK0OfX0
https://www.youtube.com/watch?v=DJGy4S7o5xk
https://www.youtube.com/watch?v=zGxGZvM3aMo
https://www.youtube.com/watch?v=3zJLyNnKuBM
https://www.youtube.com/watch?v=vZW9BReeY6k
https://www.youtube.com/watch?v=yNRmsCEVz18
https://www.youtube.com/watch?v=fJcU-OhA62E
https://www.youtube.com/watch?v=bhgeBKICGlQ
https://www.youtube.com/watch?v=F4BKUc_odgM
https://www.youtube.com/watch?v=whu3oKm_6A8
https://www.youtube.com/watch?v=3jBMOxLAXcg
https://www.youtube.com/watch?v=aSydwBt0FUQ
https://www.youtube.com/watch?v=HISmCg9WO3s
http://www.primalsecurity.net/0xe-python-tutorials-use-case-cve-2012-1823/
https://www.youtube.com/watch?v=vhrmG2_s4F4
https://www.youtube.com/watch?v=lgeVZJnsIpo
https://www.youtube.com/watch?v=nxwqmE1TGB8
https://www.youtube.com/watch?v=-Adwf8cjVss
https://www.youtube.com/watch?v=VNeiehJFvxM
https://www.youtube.com/watch?v=A7yKHlwjmoc
https://www.youtube.com/watch?v=dBC59WvpsiM
https://www.youtube.com/watch?v=NQFSy1_fJes
