https://www.abatchy.com/2017/02/mr-robot-1-walkthrough-vulnhub
https://latesthackingnews.com/2019/05/14/vulnhub-mr-robot-1-walkthrough/
https://wjmccann.github.io/blog/2018/06/08/Mr-Robot-1-Walkthrough
https://scriptkidd1e.wordpress.com/mr-robot-1-vulnhubs-vm-walkthrough/
https://melbin.in/2020/08/13/mr-robot-1-vulnhub-machine-walkthrough/
https://securityboulevard.com/2018/07/vulnhub-machines-walkthrough-series-mr-robot/
https://medium.com/@dmx_gohst/writeup-mr-robot-ctf-1baf5f20e6f4
https://tanmay26.medium.com/tryhackme-mr-robot-ctf-walkthrough-3d2b92aca5cf
https://0xtaylor.github.io/content/writeups/tryhackme/thm-MrRobot.html
https://rastating.github.io/how-i-hacked-mr-robot/
https://www.meusec.com/ctf/tryhackme-mr-robot-ctf-writeup/
https://www.youtube.com/watch?v=BQ4xeeNAbaw
https://www.youtube.com/watch?v=zIccyVX82B4
https://www.youtube.com/watch?v=pRcrSSiF_7w
https://www.youtube.com/watch?v=yxhmVOgrsvY
