https://www.note4tech.com/post/sql-injection-tutorial-login-bypass
https://www.youtube.com/watch?v=E5LLdCg7_wc&ab_channel=%2Fdev%2Fnull
https://www.youtube.com/watch?v=TSqXkkOt6oM&ab_channel=TutorialsPoint%28India%29Ltd.
https://portswigger.net/support/using-sql-injection-to-bypass-authentication
https://sechow.com/bricks/docs/login-1.html
http://www.securityidiots.com/Web-Pentest/SQL-Injection/bypass-login-using-sql-injection.html
https://medium.com/@sachithsujeewa/lets-learn-sql-injection-and-bypass-login-80fe7dcc41d0
https://antrax-labs.org/sqli-login-bypass/
https://security.stackexchange.com/questions/183607/simple-sql-injection-to-bypass-login-in-mariadb/183639
https://www.geeksforgeeks.org/authentication-bypass-using-sql-injection-on-login-page/
