https://raw.githubusercontent.com/BOAKGP/CTF-Writeups/master/PicoCTF%202017/Level%201/Cryptography/computeAES/README.md
https://www.youtube.com/watch?v=fw9ksUK7cNU
https://raw.githubusercontent.com/0e85dc6eaf/CTF-Writeups/master/PicoCTF%202017/Level%201/Cryptography/computeAES/README.md
