https://raw.githubusercontent.com/PW486/leetcode/master/solutions/cpp/191-number-of-1-bits.cc
https://raw.githubusercontent.com/liuchuo/LeetCode/master/C%2B%2B/191.%20Number%20of%201%20Bits%20.cpp
https://raw.githubusercontent.com/kflili/LeetcodeCShaprDotNetCore/master/Algorithms%20Basics/Chapter%205.%20Bit%20Manipulation/191.%20Number%20of%201%20Bits.cs
https://raw.githubusercontent.com/JeasonWong/LeetCode/master/191.%20Number%20of%201%20Bits.java
https://raw.githubusercontent.com/everthis/leetcode-js/master/191-number-of-1-bits.js
https://raw.githubusercontent.com/twtrubiks/leetcode-python/master/191%20Number%20of%201%20Bits.py
