https://raw.githubusercontent.com/seVenVo1d/CA-Problems-R/main/Problems%201-25/Problem21.R
https://raw.githubusercontent.com/lllllll-llll-llllll/codeabbey_autoit/master/21.au3
https://raw.githubusercontent.com/ValeWasTaken/CodeAbbey_Solutions/master/Brainfuck/id114-Tricky_Printing.bf
https://raw.githubusercontent.com/phuclevinh2000/CodeAbbey/master/Array%20Counters.c
https://raw.githubusercontent.com/KarolS/weird-flex/9199d723184100e0275166133a8d2364bdf0a19e/cobol/CODEABBET-SET-20.cbl
https://raw.githubusercontent.com/pastelito02/Challenges-sol/master/Programming/Codeabbey/021/tinzendA.cc
https://raw.githubusercontent.com/DionysiosB/CodeAbbey/master/ArrayCounters.cpp
https://raw.githubusercontent.com/pastelito02/Challenges-sol/master/Programming/Codeabbey/021/slayfer1112.cr
https://raw.githubusercontent.com/aschutgh/CodeAbbey/master/ProblemN21ArrayCounters/Program.cs
https://raw.githubusercontent.com/pastelito02/Challenges-sol/master/Programming/Codeabbey/021/smnroosen.d
https://raw.githubusercontent.com/SmellyIrishMan/CodeAbbeyProblems/master/CodeAbbeyProblems/ArrayCounter.fs
https://raw.githubusercontent.com/pastelito02/Challenges-sol/master/Programming/Codeabbey/021/simpfally.go
https://raw.githubusercontent.com/pastelito02/Challenges-sol/master/Programming/Codeabbey/021/lambda_hask.hs
https://raw.githubusercontent.com/shresthabibek/codeabbey/master/CodeAbbey/Untitled.ipynb
https://raw.githubusercontent.com/meganroche/CodeAbbeySolutions/master/Java/ArrayCounters.java
https://raw.githubusercontent.com/pastelito02/Challenges-sol/1b9c31547ba1ee6d076f68bfa0031ae1e576febb/Programming/Codeabbey/019/kittyaurel.jl
https://raw.githubusercontent.com/McQuinTrix/CodeAbbey/master/21.%20Array_Counters.js
https://raw.githubusercontent.com/peiandsky/codeabbeyByKotlin/master/src/problems01_10/Problem03_SumsInLoop.kt
https://raw.githubusercontent.com/chriswood/codeabbey/master/caid21.lisp
https://raw.githubusercontent.com/PaolaGiraldo/codeabbey_solutions/master/Lisp/52/problem_052.lsp
https://raw.githubusercontent.com/pastelito02/Challenges-sol/master/Programming/Codeabbey/021/MrSossaa.lua
https://raw.githubusercontent.com/PaolaGiraldo/codeabbey_solutions/master/Octave/29/problem_029.m
https://raw.githubusercontent.com/pastelito02/Challenges-sol/master/Programming/Codeabbey/021/stefan.schmiedl.ml
https://raw.githubusercontent.com/mpeshehonov/Codeabbey/master/practice/%2321/index.php
https://raw.githubusercontent.com/pastelito02/Challenges-sol/master/Programming/Codeabbey/021/pearl_barley.pl
https://raw.githubusercontent.com/vinitkantrod/codeabbey-Solutions-in-Python/master/21_collatz_sequence.py
https://raw.githubusercontent.com/pastelito02/Challenges-sol/master/Programming/Codeabbey/021/MrPopinjay.rb
https://gitlab.com/CodeArtisan/codeabbey/-/raw/master/problem_20/solution.rkt
https://raw.githubusercontent.com/colombianoXD/fluidPrueba/02cb0bd669b3f7015a28485e78840c319960963d/challenges/codeabbey/023/henryval.rs
https://raw.githubusercontent.com/mmcdon20/code_abbey/master/src/main/scala/Abbey021.scala
https://raw.githubusercontent.com/PaolaGiraldo/codeabbey_solutions/master/Typescript/6/problem_006.ts
https://raw.githubusercontent.com/pastelito02/Challenges-sol/master/Programming/Codeabbey/021/alukicHGS.vb
https://raw.githubusercontent.com/JesseClarkND/codeabbey_in_C-NET/master/Array%20Counters
