https://www.youtube.com/watch?v=zHxWH_kJ_3o
https://teckk2.github.io/web-pentesting/2018/02/07/SQL-Injection-Blind-Time-Based.html
https://www.youtube.com/watch?v=mphLv1ZCMf8
https://www.youtube.com/watch?v=9FOa0tPNqMk
https://www.youtube.com/watch?v=JZR8bDRl0t8
https://www.youtube.com/watch?v=0K2Xe1utmfw
https://www.youtube.com/watch?v=4LM_EIehbsU
https://www.youtube.com/watch?v=H_v3E97lApY
https://www.youtube.com/watch?v=fPX9dM4OjBk
https://www.youtube.com/watch?v=bL6vrI5izsI
https://studysecurity-world.tistory.com/110?category=806005
https://net123.tistory.com/466?category=695510
