https://epi052.gitlab.io/notes-to-self/blog/2018-09-21-hack-the-box-sunday/
https://www.youtube.com/watch?v=JMKbK32iC3c
https://www.hackingarticles.in/hack-the-box-sunday-walkthrough/
https://medium.com/ctf-writeups/sunday-write-up-htb-c5993ba78c9
https://zineausa.com/blog/2018/10/hackthebox-sunday-writeup/
https://0xdf.gitlab.io/2018/09/29/htb-sunday.html
https://blog.barradell-johns.com/index.php/2019/08/28/htb-sunday/
https://codemonkeyism.co.uk/htb-sunday/
https://initinfosec.com/writeups/htb/2020/01/24/sunday-htb-writeup/
https://dominicbreuker.com/post/htb_sunday/
https://www.youtube.com/watch?v=YO-KU9hS0CA
https://raw.githubusercontent.com/diego95root/HackTheBox/master/Sunday/README.md
https://medium.com/ctf-writeups/sunday-write-up-htb-c5993ba78c9?source=---------6-----------------------
