https://raw.githubusercontent.com/StevenDunn/CodeEval/master/PointInCircle/cpp/pic.cpp
https://gitlab.com/agaskell/codeeval/-/raw/master/98/98.go
https://raw.githubusercontent.com/mpillar/codeeval/master/1-moderate/point-in-circle/PointInCircle.java
https://raw.githubusercontent.com/stackptr/exercises/master/CodeEval/098-point-in-circle.js
https://raw.githubusercontent.com/pascal-bourut/codeeval-challenges/master/moderate/98%20-%20Point%20in%20Circle/98.php
https://raw.githubusercontent.com/StevenDunn/CodeEval/master/PointInCircle/py2/pic.py
https://gitlab.com/agaskell/codeeval/-/raw/master/98/98.rb
