https://ratil.life/hack-the-box-bashed/
https://www.youtube.com/watch?v=2DqdPcbYcy8
https://www.youtube.com/watch?v=Jt--ApG1WV0
https://www.youtube.com/watch?v=tbfc-l7w35w
https://www.youtube.com/watch?v=ppuGxAbPQ_Q
https://medium.com/secjuice/hackthebox-bashed-write-up-eceb6b9f6d6f
https://video.hacking.reviews/2018/05/hack-box-ctf-walkthrough-bashed.html
https://steemit.com/hackthebox/@austinhudson/hackthebox-bashed-walkthrough
https://github.com/Hackplayers/hackthebox-writeups/blob/master/machines/Bashed/fiti-bashed.pdf
https://github.com/Hackplayers/hackthebox-writeups/blob/master/machines/Bashed/drx51-bashed.pdf
https://github.com/Filiplain/Hackthebox_writeups/blob/main/Bashed.pdf
