https://github.com/milescrabill/overthewire-solutions/blob/master/Bandit.md#level-0
https://medium.com/@Kan1shka9/overthewire-wargames-bandit-walkthrough-df2b86826c67
https://raw.githubusercontent.com/Cathon/mySolutions/master/overthewire/Bandit/Level_0.md
https://raw.githubusercontent.com/lv22/otw-natas/master/L00/level0.txt
https://rundata.wordpress.com/2013/03/21/overthewire-bandit-wargame-solutions-1-24/
https://www.youtube.com/watch?v=jn5Y3cOc-mM
https://www.youtube.com/watch?v=34_DDIAkxdY
https://www.youtube.com/watch?v=OOHTY-rnZfE
https://www.youtube.com/watch?v=Bh1VOrRjX0E
https://www.youtube.com/watch?v=OWMwCE-EZL0
https://www.youtube.com/watch?v=ioiyyGBJ5Qo
https://jhalon.github.io/over-the-wire-bandit1/
https://home.adelphi.edu/~ni21347/cybersecgames/OverTheWire/Bandit/index.html
https://github.com/masonc15/CTF-Wargame-Writeups/blob/master/OverTheWire/bandit/README.md
https://raw.githubusercontent.com/RomaniukVadim/wargaming-challenges/master/OverTheWire/bandit/0.txt
https://medium.com/secttp/overthewire-bandit-level-0-53d7b0c43ec8
https://www.akashtrehan.com/writeups/OverTheWire/Bandit/level00/
https://programmercave0.github.io/blog/2019/12/21/Bandit-Level-0-to-Level-5-OverTheWire
https://dev.to/kalkwst/over-the-wire-bandit-0-through-10-ld1
https://thesecuritynoob.com/ctf-walkthrough/ctf-bandit-level-0-walkthrough/
https://agsyndro.me/bandit-challenges-overthewire/
https://www.hacknos.com/overthewire-bandit-walkthrough/
https://superuser.com/questions/1536983/stuck-in-bandit-level-0-overthewire-org
