https://craftware.xyz/ctf/underthewire/2018/05/10/UnderTheWire-Century.html
https://www.absolomb.com/2018-01-16-UnderTheWire-Century/
https://github.com/JohnHammond/underthewire/tree/master/century/century7
