https://raw.githubusercontent.com/pastelito02/Challenges-sol/master/Programming/codewars/n-divisble-by-x-and-y/Evgen8.c
https://raw.githubusercontent.com/pastelito02/Challenges-sol/master/Programming/codewars/n-divisble-by-x-and-y/Bonac.cc
https://raw.githubusercontent.com/pastelito02/Challenges-sol/master/Programming/codewars/n-divisble-by-x-and-y/savery.clj
https://raw.githubusercontent.com/pastelito02/Challenges-sol/master/Programming/codewars/n-divisble-by-x-and-y/Shanethegamer.coffee
https://raw.githubusercontent.com/pastelito02/Challenges-sol/master/Programming/codewars/n-divisble-by-x-and-y/Bonac.cpp
https://raw.githubusercontent.com/pastelito02/Challenges-sol/master/Programming/codewars/n-divisble-by-x-and-y/Stu303.cr
https://raw.githubusercontent.com/pastelito02/Challenges-sol/master/Programming/codewars/n-divisble-by-x-and-y/meskill.dart
https://raw.githubusercontent.com/pastelito02/Challenges-sol/master/Programming/codewars/n-divisble-by-x-and-y/rafael.oliveira.ex
https://raw.githubusercontent.com/pastelito02/Challenges-sol/master/Programming/codewars/n-divisble-by-x-and-y/rafael.oliveira.exs
https://raw.githubusercontent.com/pastelito02/Challenges-sol/master/Programming/codewars/n-divisble-by-x-and-y/GregoryGhost.fs
https://raw.githubusercontent.com/pastelito02/Challenges-sol/master/Programming/codewars/n-divisble-by-x-and-y/stuburger.go
https://raw.githubusercontent.com/pastelito02/Challenges-sol/master/Programming/codewars/n-divisble-by-x-and-y/Unnamed.groovy
https://raw.githubusercontent.com/pastelito02/Challenges-sol/master/Programming/codewars/n-divisble-by-x-and-y/haskellcoder.hs
https://raw.githubusercontent.com/pastelito02/Challenges-sol/master/Programming/codewars/n-divisble-by-x-and-y/Mohammed90.java
https://raw.githubusercontent.com/pastelito02/Challenges-sol/master/Programming/codewars/n-divisble-by-x-and-y/USK.jl
https://raw.githubusercontent.com/pastelito02/Challenges-sol/master/Programming/codewars/n-divisble-by-x-and-y/adrianparisi.js
https://raw.githubusercontent.com/pastelito02/Challenges-sol/master/Programming/codewars/n-divisble-by-x-and-y/lkjadpiu23kd.kt
https://raw.githubusercontent.com/pastelito02/Challenges-sol/master/Programming/codewars/n-divisble-by-x-and-y/smokytheangel0.lua
https://raw.githubusercontent.com/pastelito02/Challenges-sol/master/Programming/codewars/n-divisble-by-x-and-y/Koshkin.php
https://raw.githubusercontent.com/pastelito02/Challenges-sol/master/Programming/codewars/n-divisble-by-x-and-y/TetraPak.py
https://raw.githubusercontent.com/pastelito02/Challenges-sol/master/Programming/codewars/n-divisble-by-x-and-y/aaronsaunders.r
https://raw.githubusercontent.com/pastelito02/Challenges-sol/master/Programming/codewars/n-divisble-by-x-and-y/fkurusu.rb
https://raw.githubusercontent.com/pastelito02/Challenges-sol/master/Programming/codewars/n-divisble-by-x-and-y/Shanethegamer.re
https://raw.githubusercontent.com/pastelito02/Challenges-sol/master/Programming/codewars/n-divisble-by-x-and-y/reynolek.rs
https://raw.githubusercontent.com/pastelito02/Challenges-sol/master/Programming/codewars/n-divisble-by-x-and-y/Dianaata.scala
https://raw.githubusercontent.com/pastelito02/Challenges-sol/master/Programming/codewars/n-divisble-by-x-and-y/Dennis_Tobi.sh
https://raw.githubusercontent.com/pastelito02/Challenges-sol/master/Programming/codewars/n-divisble-by-x-and-y/Mahima5.swift
https://raw.githubusercontent.com/pastelito02/Challenges-sol/master/Programming/codewars/n-divisble-by-x-and-y/BourbonKid.ts
https://raw.githubusercontent.com/pastelito02/Challenges-sol/master/Programming/codewars/n-divisble-by-x-and-y/Fighter1000.vb
