https://raw.githubusercontent.com/NoSoul/CodeForces/master/35A.c
https://raw.githubusercontent.com/fuwutu/CodeForces/master/35A%20-%20Shell%20Game.cpp
https://raw.githubusercontent.com/nomeaning777/codeforces/master/135A.rb
