https://medium.com/infosec-adventures/hacker-fest-2019-walkthrough-d409a613c446
https://www.sevenlayers.com/index.php/258-vulnhub-hacker-fest-2019-walkthrough
https://www.youtube.com/watch?v=yhrJcLV0s3E
https://www.maritimecybersecurity.center/hacker-fest-2019-vulnhub-walkthrough/
https://windsorwebdeveloper.com/hacker-fest-2019-vulnhub-walkthrough/
https://www.hackingarticles.in/hacker-fest-2019-vulnhub-walkthrough/
https://www.youtube.com/watch?v=t_Cnk5W_7Xc
https://www.yckircaali.com/hacker-fest-2019-vulnhub-walkthrough/
https://developpaper.com/hacker-fest-2019-vulnhub-walkthrough/
https://www.programmersought.com/article/79744785614/
