https://www.shuzhiduo.com/A/n2d9xXGY5D/
https://blog.csdn.net/Fly_hps/article/details/80281913
https://www.cnblogs.com/hack404/p/11050548.html
https://raw.githubusercontent.com/gr4vit0n/sqli-labs-solution/master/less19.py
