https://raw.githubusercontent.com/YetAnotherMinion/YAMScratch/master/CodeAbbey/c-sol/src/33.c
https://raw.githubusercontent.com/spokenlore/CodeAbbey/master/Beginner/12.%20diceRoll/diceRoll.cpp
https://raw.githubusercontent.com/Alekseyya/Codeabbey/master/Task_12/Program.cs
https://raw.githubusercontent.com/johnfredswift/CodeAbbey/master/ProblemsCode/BullsAndCows.go
https://raw.githubusercontent.com/pastelito02/Challenges-sol/master/Programming/Codeabbey/008/qaaperson.hs
https://raw.githubusercontent.com/meganroche/CodeAbbeySolutions/master/Java/ParityControl.java
https://raw.githubusercontent.com/pastelito02/Challenges-sol/master/Programming/Codeabbey/004/synesius.jl
https://raw.githubusercontent.com/McQuinTrix/CodeAbbey/master/104.%20Triangle_Area.js
https://raw.githubusercontent.com/peiandsky/codeabbeyByKotlin/master/src/problems01_10/Problem05_MinimumofThree.kt
https://raw.githubusercontent.com/chriswood/codeabbey/master/ca33.lisp
https://raw.githubusercontent.com/jeilow/codeabbey/master/problem_31.m
https://raw.githubusercontent.com/mpeshehonov/Codeabbey/master/practice/%2333/index.php
https://raw.githubusercontent.com/vinitkantrod/codeabbey-Solutions-in-Python/master/33_square_root.py
https://raw.githubusercontent.com/marclerodrigues/ruby_exercises/master/arithmetic_progression.rb
https://raw.githubusercontent.com/mmcdon20/code_abbey/master/src/main/scala/Abbey033.scala
https://raw.githubusercontent.com/skilled19/sols/master/harv/codeabbey-6-rounding.vb
https://raw.githubusercontent.com/JesseClarkND/codeabbey_in_C-NET/master/Parity%20Control
