https://gitlab.com/banjocat/codeeval_solutions/-/raw/master/25/main.c
https://raw.githubusercontent.com/rdtsc/codeeval-solutions/master/src/easy/odd-numbers/solutions/c%2B%2B/solution.cpp
https://raw.githubusercontent.com/AvetisG/CodeEval/master/01%20-%20Easy/C%23/OddNumbers/OddNumbersSolution.cs
https://gitlab.com/banjocat/codeeval_solutions/-/raw/master/25/main.go
https://raw.githubusercontent.com/mpillar/codeeval/master/0-easy/odd-numbers/OddNumbers.java
https://raw.githubusercontent.com/pascal-bourut/codeeval-challenges/master/easy/25%20-%20Odd%20numbers/main.js
https://raw.githubusercontent.com/pascal-bourut/codeeval-challenges/master/easy/25%20-%20Odd%20numbers/main.php
https://gist.githubusercontent.com/yuheiomori/2600311/raw/ec91df4b2955ac5d701cdcc833ad5ca5f75d75d5/odd_numbers.py
https://gitlab.com/agaskell/codeeval/-/raw/master/25/25.rb
