34
Val sick LRZ-BII-ZBN-EXV-DWE-VOJ-VKZ
Luke healthy LRZ-GAR-TKR-EXV-IYG-WOY-JOB-XGH-WQV-LPK-EHL
Irv recovering GAR-EXV-IYG-XGH-WQV-EHL-OCF-KCH-BCY-ZTP
Gil recovering FEJ-BII-ADF-FEO-KBV-JCC-CKN
Liv recovering NIV-OSG-DKJ-JCC-BCY
Nick recovering ZJX-ZKF-IYG-ZOW-JOB-XBF-BKT-OCF-BCY-CKN-QON
Bet recovering IRF-QPW-DWE-ADF-WOY-JNI-KCH-JCC-HKZ-TAW
Tony recovering LRZ-IRF-NIV-VOJ-HAM
Lee healthy ADF-OSG-KVC-KBV-OCF-JCC-QON
Ivy sick LRZ-MQY-SEO-ZOW-XGH-LPK-OCF-BCY
Ian sick ZKF-TAV-DKJ-JCC-CKN
Phil sick FEJ-EXV-ARN-PWF-KBV-UDU-HKZ-VKZ-CKN
Ike healthy IRF-NZM-SEO-ARN-JOB-UKE-TAV-OCF-UDU-BCY
Dave sick ADF-XBF-BKT-FEO-LPK-KCH-BCY-ZTP-QON
Mel sick MEW-ZOW-JNI-PWF-JOB-WQV-ZTP
Dory recovering WOY-XGH-WQV-KBV-HAM-HKZ-DTK
Andy healthy MQY-EXV-IYG-UKE-BKT-EHL-KBV-TAW
Hal sick FEJ-LRZ-ZJX-BII-QPW-ZKF-HAM-TAW-BIL
Jess recovering MEW-KBV-OCF-VKZ-BIL-DTK
Max sick NIV-ZOW-NFG-TAV-DKJ-HAM-PXC-UDU-BIL-DTK-QON
Wes healthy MQY-QPW-ZOW-HAM-PVC
Lori recovering FEJ-OSG-KVC-WQV-LPK-PXC-KCH-UDU-FNV-ZTP-DTK
Ray sick MQY-GAR-MEW-WOY-PWF-JOB-BKT-KCH-HKZ-DTK-QON
Alf sick IRF-BII-IYG-JOB-BKT-XGH-WQV-FEO-TAV-KYM-BIL
Abe healthy SEO-PWF-UKE-FEO-CKN-BIL
Kat sick GAR-NIV-EXV-XBF-HKZ
Joe healthy FEJ-BII-DWE-IYG-VOJ-UKE-BKT-HAM-PVC-BCY-CKN
Cal recovering LRZ-XGH-FEO-KBV-HAM-PXC
Bart healthy BII-NIV-QPW-EXV-DWE-SEO-IYG-XGH-KYM-VKZ-CKN
Gus recovering ZBN-KVC-UKE-EHL-PVC-KYM-HKZ
Vic recovering ZJX-EXV-WOY-KVC-JOB-TAV-OCF-QON
Mary healthy ZKF-SEO-WOY-JNI-VOJ-JOB-XBF-UKE-KYM
Pete healthy FEJ-MQY-EXV-SEO-JNI-VOJ-UKE-OCF-HAM-PXC
Pat sick FEJ-BII-NIV-OSG-WQV-LPK-PXC-JCC-DTK
