https://www.youtube.com/watch?v=ttuFDV1ZR1U
https://g0blin.co.uk/sokar-vulnhub-writeup/
https://highon.coffee/blog/sokar-walkthrough/
https://www.mogozobo.com/?p=2263
https://leonjza.github.io/blog/2015/02/21/beating-sokar-the-vulnhub-turns-0b10-challenge/
https://drive.google.com/file/d/0B9QOE5R2Tal1c2FWTVdraTNteVk/view
https://hml.io/assets/post-2015-02-21-sokar-walkthrough/Walkthrough%20for%20Sokar%20-%20Emre%20Bastuz%20-%20v1.00.pdf
https://www.youtube.com/watch?v=k6ri-LFWEj4
https://hml.io/2015/02/21/sokar-walkthrough/
http://f4l13n5n0w.github.io/blog/2015/07/07/vulnhub-sokar-1/
https://resepkuini.com/vulnhub-walkthrough-sokar-part-1/
https://kzpost.info/ex/q9WoqKaOlJGEY7s/vulnhub-walkthrough-sokar-part-1
https://kzpost.info/ex/a8yLl5WFyXx5oMk/vulnhub-walkthrough-sokar-part-2
