https://github.com/B00139327/cryptohack/blob/master/Lemur%20XOR/solution.md
https://raw.githubusercontent.com/stand4rd/CryptoHack/master/DataFormats/XOR/lemurxor/lemurxor.py
https://raw.githubusercontent.com/B00139327/cryptohack/master/Lemur%20XOR/solution.py
