https://raw.githubusercontent.com/linuxp3nguin/microcorruption-1/master/CTF/CU
https://ctfwriteup.wordpress.com/2014/05/03/microcorruption-cusco/
https://www.youtube.com/watch?v=UG_S0Qf9Grk
http://tlk.tuxfamily.org/doku.php?id=writeup:microcorruption:cusco
https://github.com/ciz/microcorruption#cusco
