https://www.youtube.com/watch?v=ldy_xuMUCZU
https://raw.githubusercontent.com/rishitsaiya/CTFlearn-Writeups/master/Miscellaneous/Wikipedia/README.md
https://github.com/r0han21/ctf_learn_sols/blob/master/wikipedia.docx
