https://raw.githubusercontent.com/XVs32/Codeforce/master/6C%20Alice%2C%20Bob%20and%20Chocolate/speed_optimize/6C.c
https://raw.githubusercontent.com/aeurielesn/codeforces/master/6/C/alice-bob-and-chocolate.cc
https://raw.githubusercontent.com/solaroi/misc/master/Codeforces/6C%20-%20Alice%2C%20Bob%20and%20Chocolate.cpp
https://raw.githubusercontent.com/vkostyukov/codeforces/master/java/CF6C.java
https://raw.githubusercontent.com/shahed-shd/Online-Judge-Solutions/master/Codeforces/6C%20-%20Alice%2C%20Bob%20and%20Chocolate.py
https://raw.githubusercontent.com/nomeaning777/codeforces/master/6C.rb
