https://raw.githubusercontent.com/stbrumme/euler/master/euler-0077.cpp
https://raw.githubusercontent.com/nayuki/Project-Euler-solutions/master/haskell/p077.hs
https://raw.githubusercontent.com/nayuki/Project-Euler-solutions/master/java/p077.java
https://raw.githubusercontent.com/sile/euler.rs/master/euler_03/src/problem077.rs
