https://cysecguide.blogspot.com/2018/05/root-me-write-up-javascript.html
https://hackinblood.lasermark.co/web-client-root-me/
https://phamcongit.wordpress.com/2017/09/27/challenge-3-root-me-javascript-authentication-2/
https://powerprove.tistory.com/entry/rootmeorg-web-client-Javascript-Authentication-2
https://secure-key.tistory.com/35
