https://computersecuritystudent.com/SECURITY_TOOLS/DVWA/DVWAv107/lesson12/index.html
https://www.youtube.com/watch?v=Kw3m37ebxmQ
https://www.youtube.com/watch?v=pA_kTQSNthk
https://www.youtube.com/watch?v=iXDHlmUAF40
