https://hacktips.it/wordpress-root-hackademic/
https://vinegrep.blogspot.com/2017/03/hackademic-rtb1.html
https://ub3rsec.github.io/pages/2016/hackademic-rtb1.html
https://chousensha.github.io/blog/2016/07/18/pentest-lab-hackademic-rtb1/
https://rgolebiowski.blogspot.com/2016/07/hackademic-rtb1-challenge.html
http://bullsecurity.blogspot.com/2015/09/hackademic-rtb1-walkthru.html
http://forelsec.blogspot.com/2012/11/solving-hackademic-rtb1_13.html
https://blog.g0tmi1k.com/2012/01/hackademic-rtb1/
http://www.fuzzysecurity.com/tutorials/5.html
https://www.youtube.com/watch?v=WkiTRkncqRo
