https://bestestredteam.com/2018/06/29/juice-shop-walkthrough-part-1/
https://bkimminich.gitbooks.io/pwning-owasp-juice-shop/content/appendix/solutions.html
https://blog.yekki.co.uk/owasp-juice-shop-introtrivial/
https://incognitjoe.github.io/hacking-the-juice-shop.html
http://m4l1ce.me/writeups/2017/01/09/juice-shop.html
https://n0j.github.io/2018/07/31/owasp-juice-shop-v7.3.0-level-1.html
https://raw.githubusercontent.com/bsqrl/juice-shop-walkthrough/master/README.md
https://www.youtube.com/watch?v=2JeY6nRjw7E
https://raw.githubusercontent.com/apox64/OWASP-Juice-Shop-Write-Up/master/juice-shop-writeup.md
