https://charlesreid1.com/wiki/Metasploitable/SSH/Exploits
https://311hrs.wordpress.com/2016/02/14/metasploitable-2-ssh-part-2/
https://kush.com.fj/blog/posts/2018-07-27-metasploitable2-walkthrough/#port-22-1
https://www.youtube.com/watch?v=YqmIt5u1lI8
https://www.youtube.com/watch?v=uRvfx7PVcwU
https://metaspolitable2.wordpress.com/2017/10/06/first-blog-post/
