https://raw.githubusercontent.com/stbrumme/euler/master/euler-0211.cpp
https://raw.githubusercontent.com/nayuki/Project-Euler-solutions/master/java/p211.java
https://raw.githubusercontent.com/nayuki/Project-Euler-solutions/master/python/p211.py
