http://nodegoat.herokuapp.com/tutorial#collapseOne
https://hydrasky.com/network-security/server-side-javascript-injection-ssjs/
http://location-href.com/nodegoat-walkthrough/
https://www.youtube.com/watch?v=krOx9QWwcYw
https://www.youtube.com/watch?v=Mr-Jh9bjSLo
https://thehackerway.com/tag/nodegoat-owasp/
https://nodegoat.herokuapp.com/tutorial/a1
