https://raw.githubusercontent.com/cyberpirate92/ctflearn-solutions/master/07.lazy_game_challenge.md
https://raw.githubusercontent.com/rishitsaiya/CTFlearn-Writeups/master/Binary/Lazy%20Game%20Challenge/README.md
https://raw.githubusercontent.com/stefanman125/ctflearn-challenges/master/Binary/README.md
