https://raw.githubusercontent.com/RyanFehr/HackerRank/master/Algorithms/Implementation/Grading%20Students/Solution.cs
https://raw.githubusercontent.com/EdNgulele/Hacker-Rank-Solutions-In-Kotlin/master/src/Algorithms/Implementation/Kotlin/GradingStudents.kt
https://raw.githubusercontent.com/sapanz/Hackerrank-Problem-Solving-Python-Solutions/master/HackerRank-Grading%20Students/Grading_Students.py
