https://www.youtube.com/watch?v=SRmvRGUuuno
https://www.youtube.com/watch?v=RMcGUrRzXVI
https://drive.google.com/file/d/1iS3cwGlX2PLBAskszYt4n4HG6D-bEQ_Q/view
https://www.hackingarticles.in/hack-the-box-challenge-mirai-walkthrough/
https://medium.com/@_C_3PJoe/htb-retired-box-walkthrough-mirai-83b22174f03b
https://medium.com/syscall59/pentesting-begginer-hackthebox-mirai-walkthrough-dc55d11250ca
https://securityboulevard.com/2019/03/hack-the-box-htb-machines-walkthrough-series-mirai/
https://berzerk0.github.io/GitPage/CTF-Writeups/Mirai-HTB.html
https://ratil.life/hack-the-box-marai/
https://blog.barradell-johns.com/index.php/2019/08/26/htb-mirai/
https://www.youtube.com/watch?v=qykIBlVdPAQ
https://github.com/Hackplayers/hackthebox-writeups/blob/master/machines/Mirai/fiti-mirai.pdf
https://github.com/Hackplayers/hackthebox-writeups/blob/master/machines/Mirai/pitenager-mirai.pdf
