https://raw.githubusercontent.com/stbrumme/euler/master/euler-0102.cpp
https://raw.githubusercontent.com/nayuki/Project-Euler-solutions/master/haskell/p102.hs
https://raw.githubusercontent.com/nayuki/Project-Euler-solutions/master/java/p102.java
https://raw.githubusercontent.com/nayuki/Project-Euler-solutions/master/python/p102.py
https://raw.githubusercontent.com/gifnksm/ProjectEulerRust/master/src/bin/p102.rs
