https://raw.githubusercontent.com/SongYuki/CodeForces-1/master/01-99/18B-Platforms.cpp
https://raw.githubusercontent.com/nomeaning777/codeforces/master/118B.rb
https://raw.githubusercontent.com/kolaveridi/solution-codeforces/master/Codeforces%20Beta%20Round%20%2318%20(Div.%202%20Only)%2C%20problem%3A%20(C)%20Stripe%2C
