https://raw.githubusercontent.com/SatanWoo/leetcode/master/Merge%20Sorted%20Array.cpp
https://raw.githubusercontent.com/kflili/LeetcodeCShaprDotNetCore/master/Algorithms%20Basics/Chapter%202.%20Linked%20List/88.%20Merge%20Sorted%20Array.cs
https://raw.githubusercontent.com/wumansgy/LeetCode-in-Go/master/Algorithms/0088.merge-sorted-array/merge-sorted-array.go
https://raw.githubusercontent.com/hijiangtao/LeetCode-with-JavaScript/master/src/merge-sorted-array/res.js
https://raw.githubusercontent.com/topwu/leetkotlin/master/src/main/kotlin/leetcode/MergeSortedArray.kt
https://raw.githubusercontent.com/kyle8998/LeetCode/master/Python/merge-sorted-array.py
https://raw.githubusercontent.com/qqnc/leetcode-1/master/algorithms/merge_sorted_array.rb
https://raw.githubusercontent.com/dylansun/leetcode-cn-scala/master/sol-module/src/No88.scala
https://raw.githubusercontent.com/soapyigu/LeetCode-Swift/master/Sort/MergeSortedArray.swift
