http://purpleskypeter.blogspot.com/2018/05/owasp-securityshepherd-csrf1.html
https://github.com/udith6415/owasp-security-shepherd/blob/master/IT13029296_Offensive_Assign_1.pdf
https://5t0rm5had0w.wordpress.com/categories/walkthroughs/owasp-security-shepherd-walkthrough/
