https://github.com/a3X3k/Bi0s/tree/master/CTFs/Pico21/Disk%2C%20disk%2C%20slueth!
https://bitcriminals.github.io/dctf21/bad-apple.html
https://github.com/Ethan127/CTF_writeups/tree/main/picoCTF_2021/Cryptography/it's-not-my-fault-2
https://github.com/ZeroDayTea/PicoCTF-2021-Killer-Queen-Writeups/blob/main/GeneralSkills/MagikarpGroundMission.md
https://github.com/ZeroDayTea/PicoCTF-2021-Killer-Queen-Writeups/blob/main/GeneralSkills/TabTabAttack.md
https://github.com/ZeroDayTea/PicoCTF-2021-Killer-Queen-Writeups/blob/main/GeneralSkills/StaticAintAlwaysNoise.md
https://github.com/ZeroDayTea/PicoCTF-2021-Killer-Queen-Writeups/blob/main/GeneralSkills/NiceNetcat.md
https://github.com/ZeroDayTea/PicoCTF-2021-Killer-Queen-Writeups/blob/main/GeneralSkills/WaveAFlag.md
https://github.com/ZeroDayTea/PicoCTF-2021-Killer-Queen-Writeups/blob/main/GeneralSkills/PythonWrangling.md
https://github.com/ZeroDayTea/PicoCTF-2021-Killer-Queen-Writeups/blob/main/GeneralSkills/ObedientCat.md
