https://raw.githubusercontent.com/nikzsaz/Codeforces-solution/master/263A-BeautifulMatrix.cpp
https://raw.githubusercontent.com/yeicol/CodeForces/master/CF263BeautifulMatrix.java
https://raw.githubusercontent.com/dwiajik/codeforces/master/263A.py
