https://www.youtube.com/watch?v=hA_lRblz0Ig
https://www.youtube.com/watch?v=synFB3er-xc
https://r4stl1n.github.io/2015/07/28/Other-OWASP-Hackademic.html#chapter-4
http://promag.se/project/health-hack-academy-hacking-solutions-mental-health-issues-among-teenagers
https://www.changemakers.com/destinationchange/entries/hackacademy
