https://computersecuritystudent.com/SECURITY_TOOLS/DVWA/DVWAv107/lesson11/index.html
https://www.youtube.com/watch?v=16yxu9rvmcw
https://www.youtube.com/watch?v=qB9c01R3aQU
https://www.youtube.com/watch?v=Mr0N1JPHhJ0
https://www.youtube.com/watch?v=pA_kTQSNthk
https://www.youtube.com/watch?v=Ym1LyRAbEgw
https://www.youtube.com/watch?v=7-k0Gpv1veA
https://www.youtube.com/watch?v=4nmh1O_Co1g
https://www.youtube.com/watch?v=lq7_NjIJ8Aw
