https://raw.githubusercontent.com/stbrumme/euler/master/euler-0098.cpp
https://raw.githubusercontent.com/nayuki/Project-Euler-solutions/master/java/p098.java
https://raw.githubusercontent.com/nayuki/Project-Euler-solutions/master/python/p098.py
https://raw.githubusercontent.com/gifnksm/ProjectEulerRust/master/src/bin/p098.rs
