https://raw.githubusercontent.com/kamyu104/LeetCode-Solutions/master/C%2B%2B/24-game.cpp
https://raw.githubusercontent.com/itsongsong/leetcode/master/24-game.go
https://raw.githubusercontent.com/charles-wangkai/leetcode/master/24-game/Solution.java
https://raw.githubusercontent.com/everthis/leetcode-js/master/679-24-game.js
https://raw.githubusercontent.com/ngrt/LeetCode/master/Python/24-game.py
