https://raw.githubusercontent.com/leeychee/hackerrank/master/practice/algorithms/implementation/strange_counter/main.go
https://raw.githubusercontent.com/charles-wangkai/hackerrank/master/strange-code/Solution.java
https://raw.githubusercontent.com/gabrielgiordan/hackerrank/master/algorithms/implementation/strange-advertising.js
https://raw.githubusercontent.com/raghav97/Hackerrank-Solutions/master/strange_counter.rb
