https://raw.githubusercontent.com/stbrumme/euler/master/euler-0100.cpp
https://raw.githubusercontent.com/nayuki/Project-Euler-solutions/master/haskell/p100.hs
https://raw.githubusercontent.com/nayuki/Project-Euler-solutions/master/java/p100.java
https://raw.githubusercontent.com/nayuki/Project-Euler-solutions/master/python/p100.py
https://raw.githubusercontent.com/gifnksm/ProjectEulerRust/master/src/bin/p100.rs
