https://raw.githubusercontent.com/ZLester/Coderbyte-Solutions/master/Medium/17%20-%20Prime%20Checker.js
https://raw.githubusercontent.com/bolducp/coderbyte/master/medium/17_prime_checker.py
https://raw.githubusercontent.com/tomyancey/coderbyte_solutions/master/prime_checker.rb
https://raw.githubusercontent.com/designerGenes/CoderbyteInSwift/master/PrimeChecker/PrimeChecker.playground/Contents.swift
