https://github.com/skiptomyliu/solutions-bwapp#sql-injection---stored-blog
https://www.youtube.com/watch?v=2ip7DOAnNsM
https://medium.com/@grep_security/sql-injections-part-2-8e2fefbec0f8
https://studysecurity-world.tistory.com/78
https://www.youtube.com/watch?v=qj43sQW5aB4
https://www.youtube.com/watch?v=haB5gdqViSg
https://cloud.tencent.com/developer/article/1078965
