https://raw.githubusercontent.com/smokeleeteveryday/CTF_WRITEUPS/master/2017/KASPERSKY/fun/old-school/README.md
https://ctftime.org/writeup/7731
http://www.codehead.co.uk/klctf2017-oldschool/
http://zeosutt.hatenablog.com/entry/2017/10/10/033717
