10
116 133 80 95 52 149 29
109 137 49 81 161 31 63
58 120 87 133 32 74 102
35 145 172 50 116 88 74
155 72 49 170 25 128 100
19 93 64 107 36 127 149
150 73 163 19 44 90 121
42 101 18 72 122 166 148
78 93 23 117 171 52 146
40 80 108 64 122 135 19
