https://www.youtube.com/watch?v=6K5LKex6NFc
https://medium.com/syscall59/badstore-1-2-3-walkthrough-vulnhub-7816f3001333
https://teachcryptography.blogspot.com/2015/03/badstore-funway-of-exploiting-web.html
