https://raw.githubusercontent.com/mkzpd/leetcode-solution/60c9b218683bcdee86477a910c58ec702185c726/need-to-do/c------download-problem--of--leetcode/500.keyboard-row.c
https://raw.githubusercontent.com/rongyi/leetcode/9d66feb7df3ad85db33c594841cc778b6ae4266f/cc/keyboard-row.cc
https://raw.githubusercontent.com/njusegzyf/CppSolution/5edbccfb434fdc7e0e543612c0c03f503dfbcb17/ProgrammingProblemsTest/src/leetcode/problem0500_keyboard_row_test.cpp
https://raw.githubusercontent.com/harshitgindra/LeetCode/c8f7fed9af7ae386436da2ff261c94571a8fa9f2/LeetCode/Easy/Keyboard%20Row.cs
https://raw.githubusercontent.com/joelrorseth/Leetcode-Solutions/0c40af7348f5a64dbcbcc790a4c42a3a5e58a69a/keyboard_row.cxx
https://raw.githubusercontent.com/guoliangxd/LeetCode/d5d15b89391225d818d8f9167e96fb51e98f80fa/Go/500.%20Keyboard%20Row.go
https://raw.githubusercontent.com/countime/leetcode/d28def324948625b865bb029fe6e387238198129/src/main/java/leetcode/editor/cn/KeyboardRow.java
https://raw.githubusercontent.com/JuliaCN/LeetCode.jl/37fdccdabb57cca30a648479f9011f4d7caac870/src/unresolved/500.keyboard-row.jl
https://raw.githubusercontent.com/retarsis/ands/e46a45a3550d25371cccf99f7499848cf61733d9/src/leetcode/keyboard-row/keyboard-row.js
https://raw.githubusercontent.com/harsh159357/crack_the_code_with_kotlin/2cb7383a1824f0af8a4efefece005bbe5c9a77c7/src/com/harsh/sharma/leetcode/easy/KeyboardRow.kt
https://raw.githubusercontent.com/IceHe/lib/0c49f57b965e2df6f2b299d9393d10b2a3188551/src/leetcode/easy/500-keyboard-row.php
https://raw.githubusercontent.com/hyunjun/practice/ef91ae4e0942d981078b748b5d424ddcd1e9617d/python/problem-ETC/keyboard_row.py
https://raw.githubusercontent.com/linyaoli/acm/98f94b5749189935e8172fc77e1f4aa4f4217e23/various/ruby/easy/keyboard_row.rb
https://raw.githubusercontent.com/pinylin/my-leetcode/e0c4b289df3766d3099d73e8315e4bf2d9e73ba0/rust/src/s500_keyboard_row.rs
https://raw.githubusercontent.com/lyk4411/LearnScala/2a44841da629f559fc93fb3c5c20d60d2e378464/src/Leetcode/KeyboardRow.scala
https://raw.githubusercontent.com/Tianid/AlgorithmicTasks/a9f2217188a2d319ce5127164ed89e1ef49408fa/AlgorithmicTasks/LeetCode/Strings/KeyboardRow.swift
https://raw.githubusercontent.com/yjlo123/yjlo-script/5602f0efdd96cabd437fac8fd4f90a6617fc28c8/example/LeetCode/LeetCode_500_keyboard_row.yjlo
https://raw.githubusercontent.com/Amitha353/Leetcode/d22a341ca955b0d0e8cd550399162cd8e19df359/500.Keyboard_Row
https://raw.githubusercontent.com/sukavasi-bhavana/ds-algo/8a5840b1a04a4cd951cdb27e22abbc63773f20a6/HashTable&Dictionary/Keyboard%20Row
https://raw.githubusercontent.com/zjayers/leetcode-scraper/50b1829db990be895c82494fd649a9e3ecc7c5ea/algorithms/keyboard-row
