https://www.youtube.com/watch?v=PCblZjp1Krg
https://nandunb.wordpress.com/2016/10/26/hax-tor-hu-levels-5-and-6/
https://www.youtube.com/watch?v=PCblZjp1Krg&list=PL1-ZWx_72En1PXg4ifUPivG7dI_364DPV&index=6
