10
20 17 46 21 29 12 58 3
1 13 21 8 19 1 52 4
2 17 28 24 6 17 53 56
9 5 31 30 16 14 4 5
8 11 39 54 16 4 51 8
6 5 33 52 23 11 50 13
6 2 18 39 19 10 28 39
15 18 45 25 19 14 45 2
9 5 30 32 25 8 8 38
12 5 34 37 19 8 19 58
