https://raw.githubusercontent.com/ivankra/acm/master/spoj.sphere.pl/BLINNET.cc
https://raw.githubusercontent.com/viraj071/SPOJ/master/BLINNET%20-%20Bytelandian%20Blingors%20Network/BLINNET.cpp
https://raw.githubusercontent.com/lewin/SPOJ/master/blinnet.java
