https://blog.csdn.net/qq_35078631/article/details/77619302
https://chp747.tistory.com/262
https://ctf.yeuchimse.com/wargame-already-got/
https://ndb796.tistory.com/326
https://mrxx.tistory.com/72
https://kangsecu.tistory.com/30
https://mitny.github.io/articles/2017-07/Wargamekr-already-got
https://godhaword.tistory.com/13
https://blog.limelee.xyz/entry/alreadygot?category=744475
https://mtucx.tistory.com/40?category=676835
