https://appsecco.com/books/owasp-railsgoat/stored-xss.html
https://techvomit.net/railsgoat-notes/
https://brakemanpro.com/2017/09/08/cross-site-scripting-in-rails
https://medium.com/rubyinside/how-to-sanitize-your-inputs-in-rails-11489e9e0eca
https://gorails.com/episodes/protecting-from-xss-with-sanitize
https://github.com/OWASP/railsgoat/wiki/A3-Cross-Site-Scripting
https://www.hackplayers.com/2017/02/pentesterlab-web-for-pentester-1-xss.html
https://github.com/OWASP/railsgoat/wiki/A3-Cross-Site-Scripting-DOM-Based
