https://raw.githubusercontent.com/rahulnht/codeforces/master/136A.c
https://raw.githubusercontent.com/buglinjo/codeforces/master/136A%20-%20Presents.cpp
https://raw.githubusercontent.com/Luciferved/Codeforces/master/Presents.java
https://raw.githubusercontent.com/radioaktive/codeforces-nodejs-js-solutions/master/136-A-Presents-nodejs-mocha-tests/solution.js
https://raw.githubusercontent.com/dwiajik/codeforces/master/136A.py
https://raw.githubusercontent.com/nomeaning777/codeforces/master/136A.rb
