https://www.ctfs.nl/machine_picoctf.html
https://raw.githubusercontent.com/AMACB/picoCTF-2019-writeups/master/problems/picobrowser/README.md
https://www.youtube.com/watch?v=t92_KNQnbc0
https://www.youtube.com/watch?v=3Ip-d-nk4hw
https://www.youtube.com/watch?v=zuafDDR_328
