https://computersecuritystudent.com/SECURITY_TOOLS/MUTILLIDAE/MUTILLIDAE_2511/lesson14/index.html
https://www.youtube.com/watch?v=WzskKafhRRE
http://mcle8.blogspot.com/2013/11/bai-huong-dan-mutillidae-lesson-14.html
https://hackware.ru/?p=1174
https://www.irongeek.com/i.php?page=videos/web-application-pen-testing-tutorials-with-mutillidae#basics-of-injecting-cross-site-script-into-HTML-onclick-event
