https://raw.githubusercontent.com/stbrumme/euler/master/euler-0401.cpp
https://raw.githubusercontent.com/nayuki/Project-Euler-solutions/master/java/p401.java
https://raw.githubusercontent.com/nayuki/Project-Euler-solutions/master/python/p401.py
https://raw.githubusercontent.com/nayuki/Project-Euler-solutions/master/mathematica/p401.mathematica
