https://raw.githubusercontent.com/yahwes/project-euler/master/R-Files-0001-0100/pe0014.R
https://raw.githubusercontent.com/wce-codepals/hacktoberfest-projecteuler/master/solutions/problem-14/solution.c
https://raw.githubusercontent.com/zimpha/competitive-programming/master/project-euler/volume01/14.cc
https://raw.githubusercontent.com/danielfm/euler-clojure/master/euler/problem_14.clj
https://raw.githubusercontent.com/EaterOA/Euler/master/1-25/euler014.cpp
https://raw.githubusercontent.com/Dukotech/Project-Euler-Solutions/master/dotnet/src/Problem14.cs
https://raw.githubusercontent.com/DestructHub/ProjectEuler/master/Problem014/Elixir/solution_1.exs
https://raw.githubusercontent.com/jmoiron/euler.go/master/014.go
https://raw.githubusercontent.com/nayuki/Project-Euler-solutions/master/haskell/p014.hs
https://raw.githubusercontent.com/nayuki/Project-Euler-solutions/master/java/p014.java
https://raw.githubusercontent.com/johnmyleswhite/projecteuler.jl/master/014.jl
https://raw.githubusercontent.com/lilyball/projecteuler-ocaml/master/prob14.ml
https://raw.githubusercontent.com/fedeisas/project-euler/master/14/problem-14.php
https://raw.githubusercontent.com/jpillora/euler-in-perl/master/014.pl
https://raw.githubusercontent.com/kdungs/euler/master/014/euler_14.py
https://raw.githubusercontent.com/zsiciarz/euler.rs/master/src/solutions/problem14.rs
https://raw.githubusercontent.com/samskivert/euler-scala/master/Euler014.scala
https://raw.githubusercontent.com/nayuki/Project-Euler-solutions/master/mathematica/p014.mathematica
