https://www.youtube.com/watch?v=IUAGkoVGaVM
https://www.youtube.com/watch?v=zu7904Ve9Eo
https://www.youtube.com/watch?v=0N8cYRQlhgo
https://www.youtube.com/watch?v=ro-71xA-5SE
https://www.hackingarticles.in/comprehensive-guide-on-metasploitable-2/
https://fwhibbit.es/guia-metasploitable-2-parte-3
https://kush.com.fj/blog/posts/2018-07-27-metasploitable2-walkthrough/
http://hacknode.blogspot.com/2012/06/guia-de-explotabilidad-de.html
https://informationtreasure.wordpress.com/2014/07/25/metasploitable-2-vulnerability-assessment-and-remote-login/
https://pentestlab.blog/2012/07/20/rlogin-service-exploitation/
https://ianlee1521.com/2018/03/25/metasploitable2/
https://salamancageek.blogspot.com/2016/07/intrusion-metasploitable-parte-2.html
https://hackertarget.com/sample/nexpose-metasploitable-test.pdf
https://medium.com/hacker-toolbelt/metasploitable-2-vi-port-512-f637b1a59823
http://www.reydes.com/archivos/Kali_Linux_v2_ReYDeS.pdf
