https://raw.githubusercontent.com/rishitsaiya/CTFlearn-Writeups/master/Cryptography/Morse%20Code/README.md
https://raw.githubusercontent.com/EladBeber/CTFlearn-Writeups/master/Cryptography/Easy/MORSE%20CODE/README.md
https://github.com/r0han21/ctf_learn_sols/blob/master/morse_code.docx
