https://raw.githubusercontent.com/Gamer1092/Coderbyte/Easy/Multiplicative%20Persistence.cpp
https://raw.githubusercontent.com/ZLester/Coderbyte-Solutions/master/Easy/29%20-%20Multiplicative%20Persistence.js
https://raw.githubusercontent.com/tomyancey/coderbyte_solutions/master/multiplicative_persistence.rb
