https://raw.githubusercontent.com/jakobbossek/rpn/master/R/rpn.R
https://raw.githubusercontent.com/theDazzler/Reverse-Polish-Notation-in-C/master/main.c
https://raw.githubusercontent.com/xoseperez/rpnlib/master/src/rpnlib.cpp
https://raw.githubusercontent.com/xoseperez/rpnlib/master/src/rpnlib.h
https://raw.githubusercontent.com/vfarcic/TechnologyConversationsJava/master/src/test/java/com/technologyconversations/learning/kata/solutions/ReversePolishNotationTest.java
https://raw.githubusercontent.com/olegskl/rpn-calculator/master/rpn.js
https://raw.githubusercontent.com/TehFlaminTaco/Reverse-Programmer-Notation/master/lua_implementation/main.lua
https://raw.githubusercontent.com/rangaraaj/reverse-polish-notation/master/reverse_polish_notation.php
https://gist.githubusercontent.com/viebel/3d0f146484989b0c5afc29e53e3e9f2c/raw/aa0b775f100c99c6dd2274ea16224732c1b34708/reverse_polish_evaluator.py
https://gist.githubusercontent.com/AjayMT/7805180/raw/72d9e46815abd6c2c1e22fb0fa4785ac7e785d1b/calc.rb
https://raw.githubusercontent.com/fflorent/rust-rpn/master/src/main.rs
https://raw.githubusercontent.com/bcyran/asm-rpn-calc/master/src/main.s
https://gist.githubusercontent.com/bitwalker/6111452/raw/3bfa7d7f4c86035918fd17d6204c24c377b4f610/App.scala
https://raw.githubusercontent.com/JesseClarkND/codeabbey_in_C-NET/master/Reverse%20Polish%20Notation
