https://raw.githubusercontent.com/Dalimil/ProjectEuler/master/Project_Euler_Solutions/Problem_%2338_Pandigital_multiples.cpp
https://raw.githubusercontent.com/DestructHub/ProjectEuler/master/Problem038/Elixir/solution_1.exs
https://raw.githubusercontent.com/iandioch/solutions/master/project_euler/038/solution.go
https://raw.githubusercontent.com/nayuki/Project-Euler-solutions/master/haskell/p038.hs
https://raw.githubusercontent.com/nayuki/Project-Euler-solutions/master/java/p038.java
https://raw.githubusercontent.com/kdungs/euler/master/038/euler_38.py
https://raw.githubusercontent.com/sile/euler.rs/master/euler_01/src/problem038.rs
https://raw.githubusercontent.com/DestructHub/ProjectEuler/master/Problem038/Swift/solution_1.swift
