https://raw.githubusercontent.com/mzfr/ctf-writeups/master/picoCTF-2018/Web_exploitation/Logon/readme.md
https://raw.githubusercontent.com/PlatyPew/picoctf-2018-writeup/master/Web%20Exploitation/Logon/README.md
https://raw.githubusercontent.com/0e85dc6eaf/CTF-Writeups/master/PicoCTF%202018/Web%20exploitation/Logon/README.md
