https://raw.githubusercontent.com/pathosDev/CodinGame-Solutions/master/Puzzles/Easy/Brick%20in%20the%20Wall/CSharp.cs
https://raw.githubusercontent.com/pathosDev/CodinGame-Solutions/master/Puzzles/Easy/Brick%20in%20the%20Wall/Java.java
https://raw.githubusercontent.com/denvash/codingame-puzzles-solutions/master/1-Easy/Brick-in-the-Wall.js
https://raw.githubusercontent.com/pathosDev/CodinGame-Solutions/master/Puzzles/Easy/Brick%20in%20the%20Wall/Python.py
