https://raw.githubusercontent.com/RyanFehr/HackerRank/master/Algorithms/Search/Pairs/Solution.cpp
https://raw.githubusercontent.com/HamidTheGeek/HackerRankSolutions/master/Solutions/Pairs.cs
https://raw.githubusercontent.com/ehotinger/HackerRank/master/Pairs/Solution.java
https://raw.githubusercontent.com/mminer/hackerrank/master/pairs.py
