https://raw.githubusercontent.com/12dabbott/Codingame-Solutions/master/Medium%20Puzzles/SkynetRevolutionEpisode1.cpp
https://raw.githubusercontent.com/denvash/codingame-puzzles-solutions/master/2-Medium/Skynet-Revolution-ep1.js
https://raw.githubusercontent.com/anomen-s/programming-challenges/master/codingame.com/easy/Skynet%20the%20Chasm/solve.py
