https://github.com/Hackplayers/hackthebox-writeups/tree/master/challenges/OSINT/Easy%20Phish
https://www.youtube.com/watch?v=XP0z8NNmTUo
https://www.dideo.ir/v/yt/XP0z8NNmTUo/hackthebox%3A-osint-challenges%28easy-phish%29-writeup?list=PLvVo-xqnJCI7ZvWCjAAhAV41fmRPWw0S_
https://www.youtube.com/watch?v=WvauiCjUJPw
https://www.youtube.com/watch?v=mrxToCqGF64
https://raw.githubusercontent.com/jmlgomez73/OSINT-Challenges-HackTheBox-Write-Ups/main/Easy%20Phish/README.md
https://github.com/carlospolop/hackthebox-machines-challenges-SirBroccoli/blob/master/challenges/OSINT/SirBroccoli-Easy%20Phish.pdf
