https://medium.com/swlh/hack-the-boxdwriteup-rev-1-a94282cb0c63
https://www.youtube.com/watch?v=ZWc7SC4s1wY
https://www.youtube.com/watch?v=keJu7npzxfY
https://www.youtube.com/watch?v=gYVJFveRyWE
https://jaeflo.github.io/2020/hack-the-box-bypass/
https://www.security-hive.com/post/3-reversing-challenges
https://ichi.pro/es/escritura-de-hack-the-box-bypass-186103127280739
https://www.youtube.com/watch?v=koqyNFtqnXA
https://www.youtube.com/watch?v=l1GK_8PXBn4
https://www.youtube.com/watch?v=ySGCN56jG-Y
