https://raw.githubusercontent.com/vli02/leetcode/master/78.%20Subsets.c
https://raw.githubusercontent.com/MaskRay/LeetCode/master/subsets.cc
https://raw.githubusercontent.com/royalpranjal/LeetCode/master/Subsets.cpp
https://raw.githubusercontent.com/wumansgy/LeetCode-in-Go/master/Algorithms/0078.subsets/subsets.go
https://raw.githubusercontent.com/ahmetb/leetcode-solutions/master/Subsets.java
https://raw.githubusercontent.com/topwu/leetkotlin/master/src/main/kotlin/leetcode/Subsets.kt
https://raw.githubusercontent.com/frankgx97/leetcode/master/Subsets.py
https://raw.githubusercontent.com/harrifeng/leetcode-2/master/algorithms/subsets.rb
https://raw.githubusercontent.com/aylei/leetcode-rust/master/src/solution/s0078_subsets.rs
https://raw.githubusercontent.com/dylansun/leetcode-cn-scala/master/sol-module/src/No78.scala
https://raw.githubusercontent.com/soapyigu/LeetCode-Swift/master/DFS/Subsets.swift
