https://gitlab.com/agaskell/codeeval/-/raw/master/15/15.c
https://raw.githubusercontent.com/mpillar/codeeval/master/1-moderate/endianness/main.cpp
https://raw.githubusercontent.com/joshimoo/Challenges/master/CodeEval/Easy/Endianness/Endianness.cs
https://gitlab.com/agaskell/codeeval/-/raw/master/15/15.go
https://raw.githubusercontent.com/mpillar/codeeval/master/1-moderate/endianness/Endianness.java
https://raw.githubusercontent.com/pascal-bourut/codeeval-challenges/master/moderate/15%20-%20Endianness/15.js
https://raw.githubusercontent.com/pascal-bourut/codeeval-challenges/master/moderate/15%20-%20Endianness/15.php
https://raw.githubusercontent.com/leaen/Codeeval-solutions/master/endianness.py
https://raw.githubusercontent.com/jtibbertsma/code-eval/master/endianness/endian.rb
