https://raw.githubusercontent.com/BOAKGP/CTF-Writeups/master/PicoCTF%202017/Level%202/Cryptography/LeakedHashes/README.md
https://www.rootnetsec.com/picoctf-leaked-hashes/
https://raw.githubusercontent.com/0e85dc6eaf/CTF-Writeups/master/PicoCTF%202017/Level%202/Cryptography/LeakedHashes/README.md
