https://raw.githubusercontent.com/ysmolsky/cryptopals-matasano-solutions/master/34/main.go
https://raw.githubusercontent.com/ilchen/cryptopals/master/src/main/java/com/cryptopals/Set5.java
https://raw.githubusercontent.com/lt/php-cryptopals/master/Cryptopals/Set5/Challenge34/Solution34.php
https://raw.githubusercontent.com/akalin/cryptopals-python3/master/challenge34_server.py
https://raw.githubusercontent.com/technion/matasano_challenge/master/set5/chal34/chal34.rb
