https://raw.githubusercontent.com/zjbztianya/LeetCode/master/Algorithms/0024.swap-nodes-in-pairs/swap-nodes-in-pairs.go
https://raw.githubusercontent.com/agermain/Leetcode/master/solutions/024-swap-nodes-in-pairs/swap-nodes-in-pairs.java
https://raw.githubusercontent.com/aylei/leetcode-rust/master/src/solution/s0024_swap_nodes_in_pairs.rs
https://raw.githubusercontent.com/diwu/LeetCode-Solutions-in-Swift/master/Solutions/Solutions/Medium/Medium_024_Swap_Nodes_In_Pairs.swift
