22
ECCECAEAACEEAFAF
BADDCFBEDDCCCEBDDDDEDDFADA
BEBBFACEADCBDBFDFFDFD
CEEBFEABDFEA
EDACDABBBAEFFBBFCCDDDFC
CDCFEDAEBDAFC
ACFCEBDDAAEFCB
BDBCEBCBDBFCCFECCBCECEFFDDCDA
CBEBCABEAABDBEFAEEBDDBBEBEBDC
ECFFFEEEFBCCFBE
AEDAEAFCBDADBACCFCAABFCCBEDABAAC
BCCFEDDFEEEFACAFEEBDDDBDECDDBB
ADEFEACBDAFFCEDDADFCB
FAA
BBEDEBADEBFAFECCEDDCCEBEFD
EFCDCCDFB
BFEEEEEFFDEF
BCBCEACFDC
DBAABAAFFDBBBEDADFD
FAAAACBCBCEAABBBABBDEBAACADDD
CFDFDFEAE
BEDBA
