https://www.youtube.com/watch?v=mHcGQuuUUl4
https://www.youtube.com/watch?v=PWBcrOrumsA
https://hackthissitesoltution.wordpress.com/2012/03/07/hts-realistic-mission-1/
https://www.aldeid.com/wiki/Hackthissite/Realistic/Level1
https://www.businessinsider.com/goodnight-byte-hackthissite-realistic-1-real-hacking-simulations-2012-1
https://raw.githubusercontent.com/tiancode/learn-hacking/master/hackthissite/Realistic.md
https://www.youtube.com/watch?v=heTeRD0OFps
