https://raw.githubusercontent.com/strikersps/Competitive-Programming/master/Hacker-Rank/Counting-Sort-2/counting_sort_2.c
https://raw.githubusercontent.com/derekhh/HackerRank/master/Algorithms/Sorting/countingsort2.cpp
https://raw.githubusercontent.com/RyanFehr/HackerRank/master/Algorithms/Sorting/Counting%20Sort%202/Solution.cs
https://raw.githubusercontent.com/RyanFehr/HackerRank/master/Algorithms/Sorting/Counting%20Sort%202/Solution.java
https://raw.githubusercontent.com/jackiehluo/practice/master/hackerrank/algorithms/arrays-and-sorting/the-full-counting-sort.py
https://raw.githubusercontent.com/raghav97/Hackerrank-Solutions/master/counting_sort2.rb
