https://raw.githubusercontent.com/stefanoschrs/wechall/master/Exploit/Exploit%20-%20Limited%20Access
https://gist.github.com/trietptm/5569359
https://gist.github.com/trietptm/5562110
http://www.nowhere.co.jp/blog/archives/20141128-213307.html
https://raw.githubusercontent.com/BirkhoffLee/wechall/master/exploit/Limited%20Access/README.md
https://github.com/james9909/PracticeCTF/blob/master/WeChall/Guesswork/Solution.txt
https://gist.github.com/trietptm/5519932
https://raw.githubusercontent.com/BirkhoffLee/wechall/master/exploit/Limited%20Access%20Too/README.md
