http://dummy2dummies.blogspot.com/2012/07/sqli-labs-series-part-13.html
https://blog.csdn.net/qq_34444097/article/details/81257007
https://www.cnblogs.com/hack404/p/11050548.html
https://www.jianshu.com/p/6f0336f89e8e
https://www.youtube.com/watch?v=2FgLcPuU7Vw
https://raw.githubusercontent.com/gr4vit0n/sqli-labs-solution/master/less17.py
