https://www.youtube.com/watch?v=ntfmIryn64g
https://0xdf.gitlab.io/2018/11/30/htb-hawk.html
https://snowscan.io/htb-writeup-hawk/
https://www.hackplayers.com/2018/12/htb-writeup-hawk.html
https://hackso.me/hawk-htb-walkthrough/
https://securityboulevard.com/2019/07/hack-the-box-htb-machines-walkthrough-series-hawk/
https://www.hackingarticles.in/hack-the-box-hawk-walkthrough/
https://raw.githubusercontent.com/Hackplayers/hackthebox-writeups/master/machines/Hawk/fiti-hawk.pdf
https://github.com/Hackplayers/hackthebox-writeups/blob/master/machines/Hawk/artikrh-hawk.pdf
https://github.com/Hackplayers/hackthebox-writeups/blob/master/machines/Hawk/mcruz-hawk.pdf
https://github.com/Hackplayers/hackthebox-writeups/blob/master/machines/Hawk/wilde-hawk.pdf
https://github.com/Purp1eW0lf/HackTheBoxWriteups/blob/master/Retired%20Machines/Hawk.pdf
