https://raw.githubusercontent.com/pastelito02/Challenges-sol/master/Programming/codewars/you-only-need-one-beginner/psmilliorn.coffee
https://raw.githubusercontent.com/pastelito02/Challenges-sol/master/Programming/codewars/you-only-need-one-beginner/spTorin.cr
https://raw.githubusercontent.com/pastelito02/Challenges-sol/master/Programming/codewars/you-only-need-one-beginner/zelu861.cs
https://raw.githubusercontent.com/pastelito02/Challenges-sol/master/Programming/codewars/you-only-need-one-beginner/chenyulue.hs
https://raw.githubusercontent.com/pastelito02/Challenges-sol/master/Programming/codewars/you-only-need-one-beginner/JohanWiltink.js
https://raw.githubusercontent.com/pastelito02/Challenges-sol/master/Programming/codewars/you-only-need-one-beginner/dileader.php
https://raw.githubusercontent.com/pastelito02/Challenges-sol/master/Programming/codewars/you-only-need-one-beginner/lilsweetcaligula.py
https://raw.githubusercontent.com/pastelito02/Challenges-sol/master/Programming/codewars/you-only-need-one-beginner/joshsimon85.rb
https://raw.githubusercontent.com/pastelito02/Challenges-sol/master/Programming/codewars/you-only-need-one-beginner/amir650.scala
https://raw.githubusercontent.com/pastelito02/Challenges-sol/master/Programming/codewars/you-only-need-one-beginner/shivakumargoudapatil.swift
