https://raw.githubusercontent.com/caixiangyue/leetcode/master/solutions/0258_add_digits.cc
https://raw.githubusercontent.com/kamyu104/LeetCode-Solutions/master/C%2B%2B/add-digits.cpp
https://raw.githubusercontent.com/wumansgy/LeetCode-in-Go/master/Algorithms/0258.add-digits/add-digits.go
https://raw.githubusercontent.com/JeasonWong/LeetCode/master/258.%20Add%20Digits.java
https://raw.githubusercontent.com/everthis/leetcode-js/master/258-add-digits.js
https://raw.githubusercontent.com/topwu/leetkotlin/master/src/main/kotlin/leetcode/AddDigits.kt
https://raw.githubusercontent.com/twtrubiks/leetcode-python/master/258%20Add%20Digits.py
https://raw.githubusercontent.com/harrifeng/leetcode-2/master/algorithms/add_digits.rb
https://raw.githubusercontent.com/soapyigu/LeetCode-Swift/master/Math/AddDigits.swift
