https://raw.githubusercontent.com/TheNewStyles/hackerrank-solutions/master/MigratoryBirds.cs
https://raw.githubusercontent.com/rishabh1403/hackerrank-golang-solutions/master/practice/algorithms/implementation/migratory-birds.go
https://raw.githubusercontent.com/charles-wangkai/hackerrank/master/migratory-birds/Solution.java
https://raw.githubusercontent.com/gabrielgiordan/hackerrank/master/algorithms/implementation/migratory-birds.js
https://raw.githubusercontent.com/danhenriquesc/hackerrank/master/algorithms/implementation/migratory_birds.php
https://raw.githubusercontent.com/imPatidar/HackerRankPythonProblems/master/Migratory%20Birds.py
https://raw.githubusercontent.com/raghav97/Hackerrank-Solutions/master/migratory_birds.rb
https://raw.githubusercontent.com/witekbobrowski/HackerRank/master/Algorithms/Implementation/migratory-birds.swift
