https://github.com/Dvd848/CTFs/blob/master/2019_GoogleCTF_BQ/FriendSpaceBookPlusAllAccessRedPremium.md
https://github.com/Gdasl/CTFs/blob/master/GoogleCTF2019/BeginnerQuest/FriendSpaceBookPlusAllAccessRedPremium.com/Readme.md
https://github.com/konelav/writeups/blob/master/GoogleCTF2019-BQ/Day5.FriendSpaceBookPlusAllAccessRedPremium.md
https://github.com/weibell/ctf-google2019-beginners/tree/master/write-up/day5-easy
https://github.com/nathanieloon/CTF_writeups/blob/master/2019/google_ctf/FriendSpaceBookPlusAllAccessRedPremium/FriendSpaceBookPlusAllAccessRedPremium.md
