https://raw.githubusercontent.com/james-a-henderson/CodeAbbey_Solutions/master/109Lucky_Tickets.cpp
https://raw.githubusercontent.com/VanceaV/codeabbey/master/src/problems_91_120/LuckyTickets_109.java
https://raw.githubusercontent.com/djs1193/codeabbey/master/q109.py
