https://whitehat.vn/threads/pentesting-lab-thuc-hanh-web-application-hacking-voi-bts.663/
https://www.youtube.com/watch?v=OVLz6RgOjIY
http://isgmx.blogspot.com/2014/08/laboratorio-de-vulnerabilidades-xss.html
https://www.youtube.com/watch?v=vTFTZH5yOZI
https://www.youtube.com/watch?v=fPKVWk4zd5k
https://blog.csdn.net/qq_34444097/article/details/83388187
https://infoinsecu.wordpress.com/tag/owasp-dvwa-setting/
http://scx010c066.blogspot.com/2012/02/exploit-dvwa-file-sql-injection-blind.html
http://scx010c082.blogspot.com/2012/02/dumping-database.html
http://scx050d066.blogspot.com/2013/10/sqli.html
http://scx010c064.blogspot.com/2012/02/difference-sql-injection-and-dump-sql.html
http://vikrantamin.blogspot.com/2014/12/dvwa-step-by-step-sql-injection-with.html
https://www.axcelsec.com/2018/02/penetration-testing-with-owasp-top-10.html
