https://raw.githubusercontent.com/stbrumme/euler/master/euler-0101.cpp
https://raw.githubusercontent.com/nayuki/Project-Euler-solutions/master/java/p101.java
https://raw.githubusercontent.com/nayuki/Project-Euler-solutions/master/python/p101.py
https://raw.githubusercontent.com/gifnksm/ProjectEulerRust/master/src/bin/p101.rs
