https://raw.githubusercontent.com/saleem-hadad/hackerrank/master/Halloween%20Sale.c
https://raw.githubusercontent.com/charles-wangkai/hackerrank/master/halloween-sale/Solution.java
https://raw.githubusercontent.com/gabrielgiordan/hackerrank/master/algorithms/implementation/halloween-sale.js
https://raw.githubusercontent.com/s1ssagar/halloween-sale/master/halloween-sale.py
