https://raw.githubusercontent.com/A-8246/CryptoHack/master/General/ASCII.py
https://raw.githubusercontent.com/justadoll/Cryptohack/master/ascii.cpp
https://raw.githubusercontent.com/r34g4n/cryptohack/master/encoding/ascii-encoding.py
https://raw.githubusercontent.com/s-nikravesh/crypto-hack/master/General/ASCII.py
https://raw.githubusercontent.com/stand4rd/CryptoHack/master/DataFormats/Conversion/ascii.py
https://raw.githubusercontent.com/B00139327/cryptohack/master/ASCII/ascii_solution.py
