https://raw.githubusercontent.com/rishitsaiya/CTFlearn-Writeups/master/Forensics/Image%20Magic/README.md
https://raw.githubusercontent.com/shoulderhu/CTFLearn/master/image_magic.py
https://github.com/MrMoosti/CTFLearning/tree/master/CTFLearn/Programming/Image%20Magic
