https://www.youtube.com/watch?v=_6oXDdtl7CA
https://www.youtube.com/watch?v=aS6z4NgRysU
https://www.youtube.com/watch?v=DbtkCh6XzlU
https://www.youtube.com/watch?v=o2ycVQraZ80
https://www.youtube.com/watch?v=6R4xX_SfSdA
https://www.youtube.com/watch?v=g_fJ3buqVLk
https://www.youtube.com/watch?v=ilR0MTTySNE
https://www.youtube.com/watch?v=GFacPoWOcw0
https://v3ded.github.io/ctf/htb-celestial.html
https://www.rootnetsec.com/hackthebox-celestial/
http://offsecnewbie.com/2018/05/10/celestial-hackthebox/
https://www.secjuice.com/hack-the-box-celestial-writeup/
https://video.hacking.reviews/2018/08/hackthebox-celestial.html
https://medium.com/ctf-writeups/celestial-write-up-htb-3e2472e7d2c9
https://dastinia.io/write-up/hackthebox/2018/08/25/hackthebox-celestial-writeup/
https://cramhack.com/2018/08/27/celestial-hackthebox-notes/
https://zineausa.com/blog/2018/08/hackthebox-celestial-writeup/
https://made0x78.com/htb-celestial/
https://0xdf.gitlab.io/2018/08/25/htb-celestial.html
https://www.hackplayers.com/2018/08/htb-writeup-celestial.html
https://v3ded.github.io/ctf/htb-celestial
https://www.sevenlayers.com/index.php/363-hackthebox-celestial-walkthrough
https://blog.csdn.net/qq_34801745/article/details/106578720
https://www.itsecuritynews.info/hack-the-box-htb-machines-walkthrough-series-celestial/
https://hkh4cks.com/blog/2018/08/27/htb-celestial-walktrhough/
https://medium.com/@hadi_mene/hackthebox-celestial-write-up-62aa953cb6b8
https://ironhackers.es/en/writeups/writeup-celestial-hackthebox/
https://github.com/Hackplayers/hackthebox-writeups/blob/master/machines/Celestial/fiti-celestial.pdf
https://github.com/Hackplayers/hackthebox-writeups/blob/master/machines/Celestial/Roskyfrosky-Celestial.pdf
https://github.com/Hackplayers/hackthebox-writeups/blob/master/machines/Celestial/drx51-celestial.pdf
https://github.com/Hackplayers/hackthebox-writeups/blob/master/machines/Celestial/fibbot-celestial.pdf
https://github.com/Hackplayers/hackthebox-writeups/blob/master/machines/Celestial/pimmytrousers-celestial.pdf
https://github.com/Hackplayers/hackthebox-writeups/blob/master/machines/Celestial/zaiuss-celestial.pdf
https://fwhibbit.es/htb-write-up-celestial
https://medium.com/ctf-writeups/celestial-write-up-htb-3e2472e7d2c9?source=---------10-----------------------
https://github.com/fatihh92/HackTheBox-Writeups/blob/master/celestial.pdf
