https://www.aperikube.fr/docs/tamuctf_2020/652ahs/
https://ctftime.org/writeup/19238
https://ctftime.org/writeup/19237
https://ctftime.org/writeup/19229
http://mikelgarcialarragan.blogspot.com/2019/12/explotacion-web-vi-solucion-reto.html
https://raw.githubusercontent.com/Gamer92000/CTF_writeups/master/2020%20X-MAS%20GTF/Web/X-MAS%7BCircular_dependency_hell%7D.md
https://raw.githubusercontent.com/Internaut401/CTF_Writeup/master/2020/TAMUctf/Echo%20as%20a%20Service.md
https://raw.githubusercontent.com/corax/writeups/master/VolgaCTF2020/Web/User%20Center/README.md
https://raw.githubusercontent.com/abinpaul1/CTF-Writeups/master/TAMUCTF%202020%20-%20Too_Many_Credits/README.md
https://github.com/0e85dc6eaf/CTF-Writeups/tree/master/PicoCTF%202019/Web%20Exploitation/JaWT%20Scratchpad
