https://raw.githubusercontent.com/smokeleeteveryday/CTF_WRITEUPS/master/2015/BACKDOORCTF/misc/lhc/README.md
https://raw.githubusercontent.com/ctfs/write-ups-2015/master/backdoor-ctf-2015/misc/lhc/README.md
https://raw.githubusercontent.com/VulnHub/ctf-writeups/master/2015/backdoor-ctf/lhc.md
