https://raw.githubusercontent.com/mementum/codeeval/master/02-medium/0158-interrupted-bubble-sort/0158-interrupted-bubble-sort.cpp
https://raw.githubusercontent.com/pascal-bourut/codeeval-challenges/master/moderate/158%20-%20Interrupted%20bubble%20sort/158.js
https://raw.githubusercontent.com/pascal-bourut/codeeval-challenges/master/moderate/158%20-%20Interrupted%20bubble%20sort/158.php
https://raw.githubusercontent.com/mpillar/codeeval/master/1-moderate/interrupted-bubble-sort/main.py
