https://raw.githubusercontent.com/stbrumme/euler/master/euler-0088.cpp
https://raw.githubusercontent.com/nayuki/Project-Euler-solutions/master/java/p088.java
https://raw.githubusercontent.com/nayuki/Project-Euler-solutions/master/python/p088.py
https://raw.githubusercontent.com/sile/euler.rs/master/euler_03/src/problem088.rs
