https://www.postpwnedramblings.com/2018/07/hack-box-challenge-widescreen.html
https://www.youtube.com/watch?v=khWZZeq3Ifw
https://medium.com/write-ups-hackthebox/como-resolver-widescreen-hackthebox-806a944e1a53
https://github.com/mmetalmaster/hackthebox/tree/master/stego/widescreen
