https://www.youtube.com/watch?v=svEuKmdK_9Y
https://raw.githubusercontent.com/BOAKGP/CTF-Writeups/master/PicoCTF%202017/Level%201/Forensics/Digital%20Camouflage/README.md
https://www.youtube.com/watch?v=VkW1Y0v_4Dk
https://www.youtube.com/watch?v=X2CKj_SyXBc
https://www.youtube.com/watch?v=EW0O7Kov2Zg
https://raw.githubusercontent.com/0e85dc6eaf/CTF-Writeups/master/PicoCTF%202017/Level%201/Forensics/Digital%20Camouflage/README.md
