https://raw.githubusercontent.com/stefanos1316/Rosetta_Code_Research_MSR/master/Scripts/Task/fibonacci-sequence/0815/fibonacci-sequence.0815
https://raw.githubusercontent.com/stefanos1316/Rosetta_Code_Research_MSR/master/Scripts/Task/fibonacci-sequence/360-assembly/fibonacci-sequence.360
https://raw.githubusercontent.com/stefanos1316/Rosetta_Code_Research_MSR/master/Scripts/Task/fibonacci-sequence/6502-assembly/fibonacci-sequence.6502
https://raw.githubusercontent.com/stefanos1316/Rosetta_Code_Research_MSR/master/Scripts/Task/fibonacci-sequence/8080-assembly/fibonacci-sequence.8080
https://raw.githubusercontent.com/stefanos1316/Rosetta_Code_Research_MSR/master/Scripts/Task/fibonacci-sequence/8th/fibonacci-sequence.8th
https://raw.githubusercontent.com/susjoh/fibonacci/master/R/fibonacci.R
https://raw.githubusercontent.com/stefanos1316/Rosetta_Code_Research_MSR/master/Scripts/Task/fibonacci-sequence/acl2/fibonacci-sequence.acl2
https://raw.githubusercontent.com/stefanos1316/Rosetta_Code_Research_MSR/master/Scripts/Task/fibonacci-sequence/ada/fibonacci-sequence-1.ada
https://raw.githubusercontent.com/stefanos1316/Rosetta_Code_Research_MSR/master/Scripts/Task/fibonacci-sequence/autohotkey/fibonacci-sequence-1.ahk
https://raw.githubusercontent.com/stefanos1316/Rosetta_Code_Research_MSR/master/Scripts/Task/fibonacci-sequence/aime/fibonacci-sequence.aime
https://raw.githubusercontent.com/stefanos1316/Rosetta_Code_Research_MSR/master/Scripts/Task/fibonacci-sequence/algol-68/fibonacci-sequence-1.alg
https://raw.githubusercontent.com/stefanos1316/Rosetta_Code_Research_MSR/master/Scripts/Task/fibonacci-sequence/alore/fibonacci-sequence.alore
https://raw.githubusercontent.com/stefanos1316/Rosetta_Code_Research_MSR/master/Scripts/Task/fibonacci-sequence/antlang/fibonacci-sequence.antlang
https://raw.githubusercontent.com/stefanos1316/Rosetta_Code_Research_MSR/master/Scripts/Task/fibonacci-sequence/apex/fibonacci-sequence.apex
https://raw.githubusercontent.com/stefanos1316/Rosetta_Code_Research_MSR/master/Scripts/Task/fibonacci-sequence/apl/fibonacci-sequence-1.apl
https://raw.githubusercontent.com/stefanos1316/Rosetta_Code_Research_MSR/master/Scripts/Task/fibonacci-sequence/arm-assembly/fibonacci-sequence.arm
https://raw.githubusercontent.com/stefanos1316/Rosetta_Code_Research_MSR/master/Scripts/Task/fibonacci-sequence/actionscript/fibonacci-sequence.as
https://raw.githubusercontent.com/stefanos1316/Rosetta_Code_Research_MSR/master/Scripts/Task/fibonacci-sequence/ats/fibonacci-sequence-1.ats
https://raw.githubusercontent.com/lllllll-llll-llllll/codeabbey_autoit/master/67.au3
https://raw.githubusercontent.com/stefanos1316/Rosetta_Code_Research_MSR/master/Scripts/Task/fibonacci-sequence/autoit/fibonacci-sequence-1.autoit
https://raw.githubusercontent.com/stefanos1316/Rosetta_Code_Research_MSR/master/Scripts/Task/fibonacci-sequence/awk/fibonacci-sequence.awk
https://raw.githubusercontent.com/stefanos1316/Rosetta_Code_Research_MSR/master/Scripts/Task/fibonacci-sequence/axe/fibonacci-sequence.axe
https://raw.githubusercontent.com/stefanos1316/Rosetta_Code_Research_MSR/master/Scripts/Task/fibonacci-sequence/basic/fibonacci-sequence-1.basic
https://raw.githubusercontent.com/stefanos1316/Rosetta_Code_Research_MSR/master/Scripts/Task/fibonacci-sequence/batch-file/fibonacci-sequence.bat
https://raw.githubusercontent.com/stefanos1316/Rosetta_Code_Research_MSR/master/Scripts/Task/fibonacci-sequence/bbc-basic/fibonacci-sequence.bbc
https://raw.githubusercontent.com/BearKruts/CodeAbbey/master/Brainfuck/BrainFibo.bf
https://raw.githubusercontent.com/stefanos1316/Rosetta_Code_Research_MSR/master/Scripts/Task/fibonacci-sequence/burlesque/fibonacci-sequence-1.blq
https://raw.githubusercontent.com/stefanos1316/Rosetta_Code_Research_MSR/master/Scripts/Task/fibonacci-sequence/bracmat/fibonacci-sequence-1.bracmat
https://raw.githubusercontent.com/stefanos1316/Rosetta_Code_Research_MSR/master/Scripts/Task/fibonacci-sequence/brat/fibonacci-sequence-1.brat
https://raw.githubusercontent.com/YetAnotherMinion/YAMScratch/master/CodeAbbey/c-sol/src/67.c
https://raw.githubusercontent.com/stefanos1316/Rosetta_Code_Research_MSR/master/Scripts/Task/fibonacci-sequence/cat/fibonacci-sequence.cat
https://raw.githubusercontent.com/KnowledgePending/COBOL-Fibonacci-Sequence/master/fib.cbl
https://raw.githubusercontent.com/pastelito02/Challenges-sol/master/Programming/Codeabbey/067/gunsmoke.cc
https://raw.githubusercontent.com/stefanos1316/Rosetta_Code_Research_MSR/master/Scripts/Task/fibonacci-sequence/chapel/fibonacci-sequence.chapel
https://raw.githubusercontent.com/stefanos1316/Rosetta_Code_Research_MSR/master/Scripts/Task/fibonacci-sequence/chef/fibonacci-sequence.chef
https://raw.githubusercontent.com/CKamadev/fibonacci-sequence/master/src/fibonacci_sequence/core.clj
https://raw.githubusercontent.com/stefanos1316/Rosetta_Code_Research_MSR/master/Scripts/Task/fibonacci-sequence/cmake/fibonacci-sequence-1.cmake
https://raw.githubusercontent.com/stefanos1316/Rosetta_Code_Research_MSR/master/Scripts/Task/fibonacci-sequence/cobol/fibonacci-sequence-1.cobol
https://raw.githubusercontent.com/blakeembrey/code-problems/master/solutions/coffeescript/fibonacci.coffee
https://raw.githubusercontent.com/spokenlore/CodeAbbey/master/Beginner/23.%20fibSequence/fibSequence.cpp
https://raw.githubusercontent.com/Tempurturtul/CodeAbbey/master/C%23/FibonacciSequence.cs
https://raw.githubusercontent.com/pastelito02/Challenges-sol/master/Programming/Codeabbey/067/Ratzenfutz.d
https://raw.githubusercontent.com/stefanos1316/Rosetta_Code_Research_MSR/master/Scripts/Task/fibonacci-sequence/delphi/fibonacci-sequence-1.delphi
https://raw.githubusercontent.com/yuenmichelle/dogescript/master/dogescript.djs
https://raw.githubusercontent.com/stefanos1316/Rosetta_Code_Research_MSR/master/Scripts/Task/fibonacci-sequence/dwscript/fibonacci-sequence.dw
https://raw.githubusercontent.com/stefanos1316/Rosetta_Code_Research_MSR/master/Scripts/Task/fibonacci-sequence/e/fibonacci-sequence.e
https://raw.githubusercontent.com/stefanos1316/Rosetta_Code_Research_MSR/master/Scripts/Task/fibonacci-sequence/ecl/fibonacci-sequence.ecl
https://raw.githubusercontent.com/stefanos1316/Rosetta_Code_Research_MSR/master/Scripts/Task/fibonacci-sequence/edsac-order-code/fibonacci-sequence.edsac
https://raw.githubusercontent.com/stefanos1316/Rosetta_Code_Research_MSR/master/Scripts/Task/fibonacci-sequence/ela/fibonacci-sequence-1.ela
https://raw.githubusercontent.com/stefanos1316/Rosetta_Code_Research_MSR/master/Scripts/Task/fibonacci-sequence/elixir/fibonacci-sequence-1.elixir
https://raw.githubusercontent.com/diegonc/elm-fib-rug-plot/master/src/elm/Main.elm
https://raw.githubusercontent.com/stefanos1316/Rosetta_Code_Research_MSR/master/Scripts/Task/fibonacci-sequence/erlang/fibonacci-sequence-1.erl
https://raw.githubusercontent.com/stefanos1316/Rosetta_Code_Research_MSR/master/Scripts/Task/fibonacci-sequence/erre/fibonacci-sequence.erre
https://raw.githubusercontent.com/Qqwy/elixir-sequences/master/lib/sequences.ex
https://raw.githubusercontent.com/DestructHub/ProjectEuler/master/Problem007/Elixir/solution_slow_1.exs
https://raw.githubusercontent.com/xtuc/Fibonacci-forth/master/fib.f
https://raw.githubusercontent.com/eladolfos/fibonacci-sequence/master/fibonacci.f95
https://raw.githubusercontent.com/stefanos1316/Rosetta_Code_Research_MSR/master/Scripts/Task/fibonacci-sequence/factor/fibonacci-sequence-1.factor
https://raw.githubusercontent.com/stefanos1316/Rosetta_Code_Research_MSR/master/Scripts/Task/fibonacci-sequence/falcon/fibonacci-sequence-1.falcon
https://raw.githubusercontent.com/stefanos1316/Rosetta_Code_Research_MSR/master/Scripts/Task/fibonacci-sequence/false/fibonacci-sequence.false
https://raw.githubusercontent.com/stefanos1316/Rosetta_Code_Research_MSR/master/Scripts/Task/fibonacci-sequence/fancy/fibonacci-sequence.fancy
https://raw.githubusercontent.com/stefanos1316/Rosetta_Code_Research_MSR/master/Scripts/Task/fibonacci-sequence/fantom/fibonacci-sequence.fantom
https://raw.githubusercontent.com/stefanos1316/Rosetta_Code_Research_MSR/master/Scripts/Task/fibonacci-sequence/fexl/fibonacci-sequence.fexl
https://raw.githubusercontent.com/stefanos1316/Rosetta_Code_Research_MSR/master/Scripts/Task/fibonacci-sequence/focal/fibonacci-sequence.focal
https://raw.githubusercontent.com/stefanos1316/Rosetta_Code_Research_MSR/master/Scripts/Task/fibonacci-sequence/frink/fibonacci-sequence.frink
https://raw.githubusercontent.com/stefanos1316/Rosetta_Code_Research_MSR/master/Scripts/Task/fibonacci-sequence/frisc-assembly/fibonacci-sequence.frisc
https://raw.githubusercontent.com/stefanos1316/Rosetta_Code_Research_MSR/master/Scripts/Task/fibonacci-sequence/forth/fibonacci-sequence-1.fth
https://raw.githubusercontent.com/stefanos1316/Rosetta_Code_Research_MSR/master/Scripts/Task/fibonacci-sequence/funl/fibonacci-sequence-1.funl
https://raw.githubusercontent.com/stefanos1316/Rosetta_Code_Research_MSR/master/Scripts/Task/fibonacci-sequence/futhark/fibonacci-sequence.futhark
https://raw.githubusercontent.com/stefanos1316/Rosetta_Code_Research_MSR/master/Scripts/Task/fibonacci-sequence/gap/fibonacci-sequence-1.gap
https://raw.githubusercontent.com/stefanos1316/Rosetta_Code_Research_MSR/master/Scripts/Task/fibonacci-sequence/gecho/fibonacci-sequence.gecho
https://raw.githubusercontent.com/stefanos1316/Rosetta_Code_Research_MSR/master/Scripts/Task/fibonacci-sequence/gfa-basic/fibonacci-sequence.gfa
https://raw.githubusercontent.com/stefanos1316/Rosetta_Code_Research_MSR/master/Scripts/Task/fibonacci-sequence/gml/fibonacci-sequence.gml
https://raw.githubusercontent.com/johnfredswift/CodeAbbey/master/ProblemsCode/FibonacciSequence.go
https://raw.githubusercontent.com/stefanos1316/Rosetta_Code_Research_MSR/master/Scripts/Task/fibonacci-sequence/groovy/fibonacci-sequence-1.groovy
https://raw.githubusercontent.com/stefanos1316/Rosetta_Code_Research_MSR/master/Scripts/Task/fibonacci-sequence/harbour/fibonacci-sequence-1.harbour
https://raw.githubusercontent.com/stefanos1316/Rosetta_Code_Research_MSR/master/Scripts/Task/fibonacci-sequence/haxe/fibonacci-sequence-1.haxe
https://raw.githubusercontent.com/stefanos1316/Rosetta_Code_Research_MSR/master/Scripts/Task/fibonacci-sequence/hicest/fibonacci-sequence.hicest
https://raw.githubusercontent.com/stefanos1316/Rosetta_Code_Research_MSR/master/Scripts/Task/fibonacci-sequence/hope/fibonacci-sequence-1.hope
https://raw.githubusercontent.com/typelead/eta-fib-service/master/src/Main.hs
https://raw.githubusercontent.com/stefanos1316/Rosetta_Code_Research_MSR/master/Scripts/Task/fibonacci-sequence/hy/fibonacci-sequence.hy
https://raw.githubusercontent.com/stefanos1316/Rosetta_Code_Research_MSR/master/Scripts/Task/fibonacci-sequence/icon/fibonacci-sequence-1.icon
https://raw.githubusercontent.com/stefanos1316/Rosetta_Code_Research_MSR/master/Scripts/Task/fibonacci-sequence/idl/fibonacci-sequence-1.idl
https://raw.githubusercontent.com/stefanos1316/Rosetta_Code_Research_MSR/master/Scripts/Task/fibonacci-sequence/idris/fibonacci-sequence-1.idris
https://raw.githubusercontent.com/stefanos1316/Rosetta_Code_Research_MSR/master/Scripts/Task/fibonacci-sequence/j/fibonacci-sequence-1.j
https://raw.githubusercontent.com/emafazillah/codeabbey/master/src/problem061To070/FibonacciSequence.java
https://raw.githubusercontent.com/pastelito02/Challenges-sol/master/Programming/Codeabbey/067/kittyaurel.jl
https://raw.githubusercontent.com/stefanos1316/Rosetta_Code_Research_MSR/master/Scripts/Task/fibonacci-sequence/joy/fibonacci-sequence-1.joy
https://raw.githubusercontent.com/stefanos1316/Rosetta_Code_Research_MSR/master/Scripts/Task/fibonacci-sequence/jq/fibonacci-sequence-1.jq
https://raw.githubusercontent.com/pastelito02/Challenges-sol/master/Programming/Codeabbey/067/Rodionische.js
https://raw.githubusercontent.com/stefanos1316/Rosetta_Code_Research_MSR/master/Scripts/Task/fibonacci-sequence/julia/fibonacci-sequence-1.julia
https://raw.githubusercontent.com/stefanos1316/Rosetta_Code_Research_MSR/master/Scripts/Task/fibonacci-sequence/k/fibonacci-sequence-1.k
https://raw.githubusercontent.com/stefanos1316/Rosetta_Code_Research_MSR/master/Scripts/Task/fibonacci-sequence/kotlin/fibonacci-sequence.kotlin
https://raw.githubusercontent.com/GeoCoo/Fibonacci/master/app/src/main/java/com/example/fibonacci/MainActivity.kt
https://raw.githubusercontent.com/stefanos1316/Rosetta_Code_Research_MSR/master/Scripts/Task/fibonacci-sequence/emacs-lisp/fibonacci-sequence-1.l
https://raw.githubusercontent.com/stefanos1316/Rosetta_Code_Research_MSR/master/Scripts/Task/fibonacci-sequence/lang5/fibonacci-sequence.lang5
https://raw.githubusercontent.com/stefanos1316/Rosetta_Code_Research_MSR/master/Scripts/Task/fibonacci-sequence/lasso/fibonacci-sequence.lasso
https://raw.githubusercontent.com/stefanos1316/Rosetta_Code_Research_MSR/master/Scripts/Task/fibonacci-sequence/lfe/fibonacci-sequence-1.lfe
https://raw.githubusercontent.com/stefanos1316/Rosetta_Code_Research_MSR/master/Scripts/Task/fibonacci-sequence/liberty-basic/fibonacci-sequence-1.liberty
https://raw.githubusercontent.com/stefanos1316/Rosetta_Code_Research_MSR/master/Scripts/Task/fibonacci-sequence/lingo/fibonacci-sequence-1.lingo
https://raw.githubusercontent.com/stefanos1316/Rosetta_Code_Research_MSR/master/Scripts/Task/fibonacci-sequence/lisaac/fibonacci-sequence.lisaac
https://raw.githubusercontent.com/chriswood/codeabbey/master/caid67.lisp
https://raw.githubusercontent.com/stefanos1316/Rosetta_Code_Research_MSR/master/Scripts/Task/fibonacci-sequence/logo/fibonacci-sequence.logo
https://raw.githubusercontent.com/stefanos1316/Rosetta_Code_Research_MSR/master/Scripts/Task/fibonacci-sequence/l%2B%2B/fibonacci-sequence.lpp
https://raw.githubusercontent.com/stefanos1316/Rosetta_Code_Research_MSR/master/Scripts/Task/fibonacci-sequence/lsl/fibonacci-sequence.lsl
https://raw.githubusercontent.com/pastelito02/Challenges-sol/master/Programming/Codeabbey/067/tinbtinb.lua
https://raw.githubusercontent.com/stefanos1316/Rosetta_Code_Research_MSR/master/Scripts/Task/fibonacci-sequence/luck/fibonacci-sequence.luck
https://raw.githubusercontent.com/stefanos1316/Rosetta_Code_Research_MSR/master/Scripts/Task/fibonacci-sequence/lush/fibonacci-sequence.lush
https://raw.githubusercontent.com/dnafinder/viswanath/master/rndfibseq.m
https://raw.githubusercontent.com/stefanos1316/Rosetta_Code_Research_MSR/master/Scripts/Task/fibonacci-sequence/m4/fibonacci-sequence.m4
https://raw.githubusercontent.com/stefanos1316/Rosetta_Code_Research_MSR/master/Scripts/Task/fibonacci-sequence/maple/fibonacci-sequence.maple
https://raw.githubusercontent.com/stefanos1316/Rosetta_Code_Research_MSR/master/Scripts/Task/fibonacci-sequence/mathematica/fibonacci-sequence-1.math
https://raw.githubusercontent.com/stefanos1316/Rosetta_Code_Research_MSR/master/Scripts/Task/fibonacci-sequence/maxscript/fibonacci-sequence-1.max
https://raw.githubusercontent.com/stefanos1316/Rosetta_Code_Research_MSR/master/Scripts/Task/fibonacci-sequence/maxima/fibonacci-sequence.maxima
https://raw.githubusercontent.com/stefanos1316/Rosetta_Code_Research_MSR/master/Scripts/Task/fibonacci-sequence/mercury/fibonacci-sequence-1.mercury
https://raw.githubusercontent.com/stefanos1316/Rosetta_Code_Research_MSR/master/Scripts/Task/fibonacci-sequence/mips-assembly/fibonacci-sequence.mips
https://raw.githubusercontent.com/stefanos1316/Rosetta_Code_Research_MSR/master/Scripts/Task/fibonacci-sequence/mirah/fibonacci-sequence.mirah
https://raw.githubusercontent.com/pastelito02/Challenges-sol/master/Programming/Codeabbey/067/stefan.schmiedl.ml
https://raw.githubusercontent.com/stefanos1316/Rosetta_Code_Research_MSR/master/Scripts/Task/fibonacci-sequence/modula-3/fibonacci-sequence.mod3
https://raw.githubusercontent.com/stefanos1316/Rosetta_Code_Research_MSR/master/Scripts/Task/fibonacci-sequence/mumps/fibonacci-sequence.mumps
https://raw.githubusercontent.com/stefanos1316/Rosetta_Code_Research_MSR/master/Scripts/Task/fibonacci-sequence/nemerle/fibonacci-sequence-1.nemerle
https://raw.githubusercontent.com/stefanos1316/Rosetta_Code_Research_MSR/master/Scripts/Task/fibonacci-sequence/nesl/fibonacci-sequence.nesl
https://raw.githubusercontent.com/stefanos1316/Rosetta_Code_Research_MSR/master/Scripts/Task/fibonacci-sequence/netrexx/fibonacci-sequence.netrexx
https://raw.githubusercontent.com/stefanos1316/Rosetta_Code_Research_MSR/master/Scripts/Task/fibonacci-sequence/newlisp/fibonacci-sequence-1.newlisp
https://raw.githubusercontent.com/stefanos1316/Rosetta_Code_Research_MSR/master/Scripts/Task/fibonacci-sequence/ngs/fibonacci-sequence.ngs
https://raw.githubusercontent.com/stefanos1316/Rosetta_Code_Research_MSR/master/Scripts/Task/fibonacci-sequence/nim/fibonacci-sequence-1.nim
https://raw.githubusercontent.com/stefanos1316/Rosetta_Code_Research_MSR/master/Scripts/Task/fibonacci-sequence/nimrod/fibonacci-sequence-1.nimrod
https://raw.githubusercontent.com/stefanos1316/Rosetta_Code_Research_MSR/master/Scripts/Task/fibonacci-sequence/objeck/fibonacci-sequence.objeck
https://raw.githubusercontent.com/stefanos1316/Rosetta_Code_Research_MSR/master/Scripts/Task/fibonacci-sequence/ocaml/fibonacci-sequence-1.ocaml
https://raw.githubusercontent.com/stefanos1316/Rosetta_Code_Research_MSR/master/Scripts/Task/fibonacci-sequence/octave/fibonacci-sequence-1.octave
https://raw.githubusercontent.com/stefanos1316/Rosetta_Code_Research_MSR/master/Scripts/Task/fibonacci-sequence/oforth/fibonacci-sequence.oforth
https://raw.githubusercontent.com/stefanos1316/Rosetta_Code_Research_MSR/master/Scripts/Task/fibonacci-sequence/opl/fibonacci-sequence.opl
https://raw.githubusercontent.com/stefanos1316/Rosetta_Code_Research_MSR/master/Scripts/Task/fibonacci-sequence/order/fibonacci-sequence-1.order
https://raw.githubusercontent.com/stefanos1316/Rosetta_Code_Research_MSR/master/Scripts/Task/fibonacci-sequence/oz/fibonacci-sequence-1.oz
https://raw.githubusercontent.com/stefanos1316/Rosetta_Code_Research_MSR/master/Scripts/Task/fibonacci-sequence/pari-gp/fibonacci-sequence-10.pari
https://raw.githubusercontent.com/stefanos1316/Rosetta_Code_Research_MSR/master/Scripts/Task/fibonacci-sequence/pascal/fibonacci-sequence-1.pascal
https://raw.githubusercontent.com/stefanos1316/Rosetta_Code_Research_MSR/master/Scripts/Task/fibonacci-sequence/babel/fibonacci-sequence-1.pb
https://raw.githubusercontent.com/stefanos1316/Rosetta_Code_Research_MSR/master/Scripts/Task/fibonacci-sequence/phix/fibonacci-sequence-1.phix
https://raw.githubusercontent.com/pastelito02/Challenges-sol/master/Programming/Codeabbey/067/CodyMaker.php
https://raw.githubusercontent.com/stefanos1316/Rosetta_Code_Research_MSR/master/Scripts/Task/fibonacci-sequence/pike/fibonacci-sequence-1.pike
https://raw.githubusercontent.com/stefanos1316/Rosetta_Code_Research_MSR/master/Scripts/Task/fibonacci-sequence/pir/fibonacci-sequence-1.pir
https://raw.githubusercontent.com/pastelito02/Challenges-sol/master/Programming/Codeabbey/067/pearl_barley.pl
https://raw.githubusercontent.com/stefanos1316/Rosetta_Code_Research_MSR/master/Scripts/Task/fibonacci-sequence/perl-6/fibonacci-sequence-1.pl6
https://raw.githubusercontent.com/stefanos1316/Rosetta_Code_Research_MSR/master/Scripts/Task/fibonacci-sequence/pl-i/fibonacci-sequence.pli
https://raw.githubusercontent.com/stefanos1316/Rosetta_Code_Research_MSR/master/Scripts/Task/fibonacci-sequence/pop11/fibonacci-sequence.pop11
https://raw.githubusercontent.com/stefanos1316/Rosetta_Code_Research_MSR/master/Scripts/Task/fibonacci-sequence/potion/fibonacci-sequence-1.potion
https://raw.githubusercontent.com/stefanos1316/Rosetta_Code_Research_MSR/master/Scripts/Task/fibonacci-sequence/prolog/fibonacci-sequence-1.pro
https://raw.githubusercontent.com/stefanos1316/Rosetta_Code_Research_MSR/master/Scripts/Task/fibonacci-sequence/postscript/fibonacci-sequence.ps
https://raw.githubusercontent.com/stefanos1316/Rosetta_Code_Research_MSR/master/Scripts/Task/fibonacci-sequence/powershell/fibonacci-sequence-1.psh
https://raw.githubusercontent.com/stefanos1316/Rosetta_Code_Research_MSR/master/Scripts/Task/fibonacci-sequence/pure/fibonacci-sequence.pure
https://raw.githubusercontent.com/stefanos1316/Rosetta_Code_Research_MSR/master/Scripts/Task/fibonacci-sequence/purity/fibonacci-sequence-1.purity
https://raw.githubusercontent.com/rajangyawali/codeabbeyPrograms/master/fibon.py
https://raw.githubusercontent.com/stefanos1316/Rosetta_Code_Research_MSR/master/Scripts/Task/fibonacci-sequence/qi/fibonacci-sequence-1.qi
https://raw.githubusercontent.com/stefanos1316/Rosetta_Code_Research_MSR/master/Scripts/Task/fibonacci-sequence/r/fibonacci-sequence.r
https://raw.githubusercontent.com/stefanos1316/Rosetta_Code_Research_MSR/master/Scripts/Task/fibonacci-sequence/ra/fibonacci-sequence.ra
https://gitlab.com/rypervenche/challenges/-/raw/master/the-programmers-hangout/fibonacci-sequence.raku
https://raw.githubusercontent.com/John-Russell/CodeAbbey/master/Fibonacci%20Sequence.rb
https://raw.githubusercontent.com/stefanos1316/Rosetta_Code_Research_MSR/master/Scripts/Task/fibonacci-sequence/retro/fibonacci-sequence-1.retro
https://raw.githubusercontent.com/stefanos1316/Rosetta_Code_Research_MSR/master/Scripts/Task/fibonacci-sequence/rexx/fibonacci-sequence.rexx
https://raw.githubusercontent.com/stefanos1316/Rosetta_Code_Research_MSR/master/Scripts/Task/fibonacci-sequence/ring/fibonacci-sequence.ring
https://gitlab.com/CodeArtisan/codeabbey/raw/master/problem_67/solution.rkt
https://raw.githubusercontent.com/pastelito02/Challenges-sol/master/Programming/Codeabbey/067/subarenev.rs
https://raw.githubusercontent.com/stefanos1316/Rosetta_Code_Research_MSR/master/Scripts/Task/fibonacci-sequence/run-basic/fibonacci-sequence.run
https://raw.githubusercontent.com/stefanos1316/Rosetta_Code_Research_MSR/master/Scripts/Task/fibonacci-sequence/rust/fibonacci-sequence-1.rust
https://raw.githubusercontent.com/rumaf/mips/master/fibonacci.s
https://raw.githubusercontent.com/stefanos1316/Rosetta_Code_Research_MSR/master/Scripts/Task/fibonacci-sequence/sather/fibonacci-sequence.sa
https://raw.githubusercontent.com/stefanos1316/Rosetta_Code_Research_MSR/master/Scripts/Task/fibonacci-sequence/sas/fibonacci-sequence-1.sas
https://raw.githubusercontent.com/mmcdon20/code_abbey/master/src/main/scala/Abbey067.scala
https://raw.githubusercontent.com/stefanos1316/Rosetta_Code_Research_MSR/master/Scripts/Task/fibonacci-sequence/scilab/fibonacci-sequence.scilab
https://raw.githubusercontent.com/DestructHub/ProjectEuler/master/Problem007/Scheme/solution_1.scm
https://raw.githubusercontent.com/stefanos1316/Rosetta_Code_Research_MSR/master/Scripts/Task/fibonacci-sequence/seed7/fibonacci-sequence-1.seed7
https://raw.githubusercontent.com/stefanos1316/Rosetta_Code_Research_MSR/master/Scripts/Task/fibonacci-sequence/setl/fibonacci-sequence.setl
https://raw.githubusercontent.com/stefanos1316/Rosetta_Code_Research_MSR/master/Scripts/Task/fibonacci-sequence/unix-shell/fibonacci-sequence-1.sh
https://raw.githubusercontent.com/stefanos1316/Rosetta_Code_Research_MSR/master/Scripts/Task/fibonacci-sequence/shen/fibonacci-sequence.shen
https://raw.githubusercontent.com/stefanos1316/Rosetta_Code_Research_MSR/master/Scripts/Task/fibonacci-sequence/sidef/fibonacci-sequence-1.sidef
https://raw.githubusercontent.com/stefanos1316/Rosetta_Code_Research_MSR/master/Scripts/Task/fibonacci-sequence/simula/fibonacci-sequence.simula
https://raw.githubusercontent.com/stefanos1316/Rosetta_Code_Research_MSR/master/Scripts/Task/fibonacci-sequence/skookumscript/fibonacci-sequence-2.skookum
https://raw.githubusercontent.com/stefanos1316/Rosetta_Code_Research_MSR/master/Scripts/Task/fibonacci-sequence/slate/fibonacci-sequence.slate
https://raw.githubusercontent.com/stefanos1316/Rosetta_Code_Research_MSR/master/Scripts/Task/fibonacci-sequence/snobol4/fibonacci-sequence-1.sno
https://raw.githubusercontent.com/stefanos1316/Rosetta_Code_Research_MSR/master/Scripts/Task/fibonacci-sequence/snusp/fibonacci-sequence-1.snusp
https://raw.githubusercontent.com/stefanos1316/Rosetta_Code_Research_MSR/master/Scripts/Task/fibonacci-sequence/pl-sql/fibonacci-sequence.sql
https://raw.githubusercontent.com/stefanos1316/Rosetta_Code_Research_MSR/master/Scripts/Task/fibonacci-sequence/scheme/fibonacci-sequence-1.ss
https://raw.githubusercontent.com/stefanos1316/Rosetta_Code_Research_MSR/master/Scripts/Task/fibonacci-sequence/ssem/fibonacci-sequence.ssem
https://raw.githubusercontent.com/stefanos1316/Rosetta_Code_Research_MSR/master/Scripts/Task/fibonacci-sequence/smalltalk/fibonacci-sequence.st
https://raw.githubusercontent.com/Thinkful-Ed/FibonacciSequence/master/Fibonacci%20Sequence/Fibonacci%20Sequence/FibonacciSequence.swift
https://raw.githubusercontent.com/stefanos1316/Rosetta_Code_Research_MSR/master/Scripts/Task/fibonacci-sequence/tcl/fibonacci-sequence-1.tcl
https://raw.githubusercontent.com/CoffeelessProgrammer/Data-Structures-and-Algorithms-TS/768b6a27dc3cfcad64e19bc8fda2659c7a35313b/Algorithms/Recursion/Fibonacci.ts
https://raw.githubusercontent.com/stefanos1316/Rosetta_Code_Research_MSR/master/Scripts/Task/fibonacci-sequence/tse-sal/fibonacci-sequence.tse
https://raw.githubusercontent.com/stefanos1316/Rosetta_Code_Research_MSR/master/Scripts/Task/fibonacci-sequence/tuscript/fibonacci-sequence.tu
https://raw.githubusercontent.com/stefanos1316/Rosetta_Code_Research_MSR/master/Scripts/Task/fibonacci-sequence/ursa/fibonacci-sequence.ursa
https://raw.githubusercontent.com/stefanos1316/Rosetta_Code_Research_MSR/master/Scripts/Task/fibonacci-sequence/ursala/fibonacci-sequence-1.ursala
https://raw.githubusercontent.com/stefanos1316/Rosetta_Code_Research_MSR/master/Scripts/Task/fibonacci-sequence/v/fibonacci-sequence.v
https://raw.githubusercontent.com/stefanos1316/Rosetta_Code_Research_MSR/master/Scripts/Task/fibonacci-sequence/vala/fibonacci-sequence-1.vala
https://raw.githubusercontent.com/pastelito02/Challenges-sol/master/Programming/Codeabbey/067/hamza772000.vb
https://raw.githubusercontent.com/stefanos1316/Rosetta_Code_Research_MSR/master/Scripts/Task/fibonacci-sequence/vba/fibonacci-sequence-1.vba
https://raw.githubusercontent.com/stefanos1316/Rosetta_Code_Research_MSR/master/Scripts/Task/fibonacci-sequence/vedit-macro-language/fibonacci-sequence.vedit
https://raw.githubusercontent.com/danielgaio/fibonacci_sequence/master/fibonacci.vhd
https://raw.githubusercontent.com/stefanos1316/Rosetta_Code_Research_MSR/master/Scripts/Task/fibonacci-sequence/visual-basic-.net/fibonacci-sequence-1.visual
https://raw.githubusercontent.com/stefanos1316/Rosetta_Code_Research_MSR/master/Scripts/Task/fibonacci-sequence/wart/fibonacci-sequence-1.wart
https://raw.githubusercontent.com/stefanos1316/Rosetta_Code_Research_MSR/master/Scripts/Task/fibonacci-sequence/wrapl/fibonacci-sequence-1.wrapl
https://raw.githubusercontent.com/stefanos1316/Rosetta_Code_Research_MSR/master/Scripts/Task/fibonacci-sequence/whitespace/fibonacci-sequence-4.ws
https://raw.githubusercontent.com/stefanos1316/Rosetta_Code_Research_MSR/master/Scripts/Task/fibonacci-sequence/xlisp/fibonacci-sequence-1.xlisp
https://raw.githubusercontent.com/stefanos1316/Rosetta_Code_Research_MSR/master/Scripts/Task/fibonacci-sequence/xquery/fibonacci-sequence.xquery
https://raw.githubusercontent.com/JesseClarkND/codeabbey_in_C-NET/master/Fibonacci%20Sequence
https://raw.githubusercontent.com/stefanos1316/Rosetta_Code_Research_MSR/master/Scripts/Task/fibonacci-sequence/applescript/fibonacci-sequence-1.applescript
https://raw.githubusercontent.com/stefanos1316/Rosetta_Code_Research_MSR/master/Scripts/Task/fibonacci-sequence/battlestar/fibonacci-sequence.battlestar
https://raw.githubusercontent.com/stefanos1316/Rosetta_Code_Research_MSR/master/Scripts/Task/fibonacci-sequence/computer-zero-assembly/fibonacci-sequence.computer
https://raw.githubusercontent.com/stefanos1316/Rosetta_Code_Research_MSR/master/Scripts/Task/fibonacci-sequence/echolisp/fibonacci-sequence.echolisp
https://raw.githubusercontent.com/stefanos1316/Rosetta_Code_Research_MSR/master/Scripts/Task/fibonacci-sequence/euphoria/fibonacci-sequence-1.euphoria
https://raw.githubusercontent.com/stefanos1316/Rosetta_Code_Research_MSR/master/Scripts/Task/fibonacci-sequence/freebasic/fibonacci-sequence.freebasic
https://raw.githubusercontent.com/stefanos1316/Rosetta_Code_Research_MSR/master/Scripts/Task/fibonacci-sequence/futurebasic/fibonacci-sequence.futurebasic
https://raw.githubusercontent.com/stefanos1316/Rosetta_Code_Research_MSR/master/Scripts/Task/fibonacci-sequence/livecode/fibonacci-sequence.livecode
https://raw.githubusercontent.com/stefanos1316/Rosetta_Code_Research_MSR/master/Scripts/Task/fibonacci-sequence/metafont/fibonacci-sequence.metafont
https://raw.githubusercontent.com/stefanos1316/Rosetta_Code_Research_MSR/master/Scripts/Task/fibonacci-sequence/oberon-2/fibonacci-sequence.oberon-2
https://raw.githubusercontent.com/stefanos1316/Rosetta_Code_Research_MSR/master/Scripts/Task/fibonacci-sequence/powerbasic/fibonacci-sequence.powerbasic
https://raw.githubusercontent.com/stefanos1316/Rosetta_Code_Research_MSR/master/Scripts/Task/fibonacci-sequence/purebasic/fibonacci-sequence-1.purebasic
https://raw.githubusercontent.com/stefanos1316/Rosetta_Code_Research_MSR/master/Scripts/Task/fibonacci-sequence/realbasic/fibonacci-sequence.realbasic
https://raw.githubusercontent.com/stefanos1316/Rosetta_Code_Research_MSR/master/Scripts/Task/fibonacci-sequence/sequencel/fibonacci-sequence-1.sequencel
https://raw.githubusercontent.com/stefanos1316/Rosetta_Code_Research_MSR/master/Scripts/Task/fibonacci-sequence/streamit/fibonacci-sequence.streamit
https://raw.githubusercontent.com/stefanos1316/Rosetta_Code_Research_MSR/master/Scripts/Task/fibonacci-sequence/supercollider/fibonacci-sequence-1.supercollider
https://raw.githubusercontent.com/stefanos1316/Rosetta_Code_Research_MSR/master/Scripts/Task/fibonacci-sequence/ti-83-basic/fibonacci-sequence-1.ti-83
https://raw.githubusercontent.com/stefanos1316/Rosetta_Code_Research_MSR/master/Scripts/Task/fibonacci-sequence/ti-89-basic/fibonacci-sequence-1.ti-89
https://raw.githubusercontent.com/stefanos1316/Rosetta_Code_Research_MSR/master/Scripts/Task/fibonacci-sequence/unixpipes/fibonacci-sequence.unixpipes
