https://raw.githubusercontent.com/kyle8998/LeetCode/master/C%2B%2B/flood-fill.cpp
https://raw.githubusercontent.com/wumansgy/LeetCode-in-Go/master/Algorithms/0733.flood-fill/flood-fill.go
https://raw.githubusercontent.com/varunu28/LeetCode-Java-Solutions/master/Easy/Flood%20Fill.java
https://raw.githubusercontent.com/everthis/leetcode-js/master/733-flood-fill.js
https://raw.githubusercontent.com/RishiSankineni/LeetCode/master/Python/flood-fill.py
