https://www.computersecuritystudent.com/SECURITY_TOOLS/METASPLOITABLE/EXPLOIT/lesson11/index.html
https://charlesreid1.com/wiki/Metasploitable/MySQL
https://www.h1rd.com/hacking/Metasploitable2-mysql
http://linux-hacking-guide.blogspot.com/2015/06/metasploitable2-hack-mysql-server-using.html
https://pentestlab.blog/2012/07/27/attacking-mysql-with-metasploit/
https://metaspolitable2.wordpress.com/2017/10/06/first-blog-post/
https://blog.g0tmi1k.com/2010/07/metasploitable-mysql/
https://www.youtube.com/watch?v=evo5-ER6K_o
https://www.youtube.com/watch?v=_QndfugU3ME
https://hakin9.org/how-to-use-sqlploit/
https://www.blackploit.com/2010/06/intrusion-mysql-y-luego-obteniendo.html
https://topic.alibabacloud.com/a/metasploit-scan-mysql-weak-password_1_41_30120521.html
https://msfbt.wordpress.com/2012/06/15/metasploitable-2-bruteforce-mysql-using-metasploit/
http://www.reydes.com/archivos/Kali_Linux_v2_ReYDeS.pdf
