https://github.com/AlessandroMorelli96/Writeups/blob/master/HackTheBox/01_MarketDump.md
https://www.thedigitalforensics.com/blog/hack-the-box-marketdump
https://byte-mind.net/hackthebox-forensic-challenge-marketdump/
https://www.petermstewart.net/hack-the-box-marketdump-forensics-challenge/
https://enaljammaz.blogspot.com/
https://cqureacademy.com/blog/hacks/memory-dump-analysis
https://www.cybergoat.co.uk/writeup/Market_Dump/
https://blogthinkbig.com/analizar-paquetes-de-red-wireshark
https://sniferl4bs.com/2014/04/pcaps-gratuitos-para-analizar-y-pasar-el-rato/
https://seguridadyredes.wordpress.com/2010/03/22/wireshark-extraccion-ficheros-binarios-y-objetos-http/
