https://niiconsulting.com/checkmate/2014/01/from-sql-injection-to-0wnage-using-sqlmap/
https://www.youtube.com/watch?v=-KxgHgYiEcw
https://www.geeksforgeeks.org/use-sqlmap-test-website-sql-injection-vulnerability/
https://www.hackingloops.com/web-application-penetration-testing-sql-injection-with-sqlmap/
https://hackertarget.com/sqlmap-tutorial/
https://null-byte.wonderhowto.com/how-to/hack-databases-hacking-mysql-online-databases-with-sqlmap-0150368/
