https://raw.githubusercontent.com/Armerila/Word-frequency-counter/master/TRA_final.c
https://raw.githubusercontent.com/pastelito02/Challenges-sol/master/Programming/Codeabbey/070/nalbe666.cc
https://gist.githubusercontent.com/ideamonk/3404700/raw/34bb607e768b6005da1de93ffead03c1963d5f2a/one.clj
https://raw.githubusercontent.com/DionysiosB/CodeAbbey/master/MostFrequentWord.cpp
https://raw.githubusercontent.com/pastelito02/Challenges-sol/master/Programming/Codeabbey/070/follfoll.cs
https://gist.githubusercontent.com/pfigue/1367793/raw/7093e65f9202956d5ab9a1c642d6c4d1b5a3df95/count_words.erl
https://gist.githubusercontent.com/stockwellb/cf1feedd7a27bf064c2aab7373d3c238/raw/31a4ababc90d15ee778cc789959293fc27d23fc7/word_count.exs
https://raw.githubusercontent.com/pastelito02/Challenges-sol/master/Programming/Codeabbey/070/istudent.go
https://raw.githubusercontent.com/pastelito02/Challenges-sol/master/Programming/Codeabbey/070/Hennes.hs
https://raw.githubusercontent.com/igor-kutepov/codeabbey/master/src/main/java/com/kutepov/samples/codeabbey/MostFrequentWord.java
https://raw.githubusercontent.com/pastelito02/Challenges-sol/master/Programming/Codeabbey/070/VoinSveta.js
https://raw.githubusercontent.com/antoine1anthony/wordCounter-CLItool-Kotlin/master/wordCounter/src/WordCount.kt
https://raw.githubusercontent.com/bkane2/Word2Vec-Lisp/master/lisp-implementation/w2v.lisp
https://raw.githubusercontent.com/pastelito02/Challenges-sol/master/Programming/Codeabbey/070/memstick.lua
https://raw.githubusercontent.com/pastelito02/Challenges-sol/master/Programming/Codeabbey/070/KOR_Ryat.php
https://raw.githubusercontent.com/rkj777/PrologChallenge/master/ProblemSet1.pl
https://raw.githubusercontent.com/pastelito02/Challenges-sol/master/Programming/Codeabbey/070/ky_python.py
https://raw.githubusercontent.com/pastelito02/Challenges-sol/master/Programming/Codeabbey/070/lvcrft.rb
https://raw.githubusercontent.com/lise-henry/caribon/master/src/lib/word.rs
https://raw.githubusercontent.com/mmcdon20/code_abbey/master/src/main/scala/Abbey070.scala
https://raw.githubusercontent.com/coffee-cup/count.macro/master/src/index.macro.ts
https://raw.githubusercontent.com/pastelito02/Challenges-sol/master/Programming/Codeabbey/070/hamza772000.vb
https://raw.githubusercontent.com/JesseClarkND/codeabbey_in_C-NET/master/Most%20Frequent%20Word
