https://raw.githubusercontent.com/endeav/hackerrank/master/simple-array-sum.R
https://raw.githubusercontent.com/fahdi/simple-array-sum/master/simple-array-sum.c
https://raw.githubusercontent.com/MaskRay/HackerRank/master/simple-array-sum.clj
https://raw.githubusercontent.com/danhenriquesc/hackerrank/master/algorithms/warmup/simple_array_sum.cpp
https://raw.githubusercontent.com/mattspaulding/hacker-rank/master/HackerRank/Algorithms/Warmup/SimpleArraySum.cs
https://raw.githubusercontent.com/avinoth/hackerrank-algo-solutions/master/simple-array-sum.go
https://raw.githubusercontent.com/RyanFehr/HackerRank/master/Algorithms/Warmup/Simple%20Array%20Sum/Solution.java
https://raw.githubusercontent.com/fahdi/simple-array-sum/master/simple-array-sum.js
https://raw.githubusercontent.com/EdNgulele/Hacker-Rank-Solutions-In-Kotlin/master/src/Algorithms/Warmup/Kotlin/SimpleArraySum.kt
https://raw.githubusercontent.com/fahdi/simple-array-sum/master/simple-array-sum.php
https://raw.githubusercontent.com/witekbobrowski/HackerRank/master/Algorithms/Warmup/simple-array-sum.swift
