https://raw.githubusercontent.com/Cheshulko/Algorithms/master/Leetcode/AddTwoNumbers.cpp
https://raw.githubusercontent.com/kflili/LeetcodeCShaprDotNetCore/master/top-interview-questions/2.%20Add%20Two%20Numbers.cs
https://raw.githubusercontent.com/kamyu104/LeetCode-Solutions/master/Golang/add-two-numbers.go
https://raw.githubusercontent.com/Rikin04/leetcode/master/0002.add-two-numbers/add-two-numbers.java
https://raw.githubusercontent.com/MrErHu/Leetcode/master/algorithms/2.Add%20Two%20Numbers/Add%20Two%20Numbers.js
https://raw.githubusercontent.com/topwu/leetkotlin/master/src/main/kotlin/leetcode/AddTwoNumbers.kt
https://raw.githubusercontent.com/diwu/LeetCode-Solutions-in-Swift/master/Solutions/Solutions_ObjC/Medium/ObjC_Medium_002_Add_Two_Numbers.m
https://raw.githubusercontent.com/harrifeng/leetcode-2/master/algorithms/add_two_numbers.rb
https://raw.githubusercontent.com/diwu/LeetCode-Solutions-in-Swift/master/Solutions/Solutions/Medium/Medium_002_Add_Two_Numbers.swift
