https://raw.githubusercontent.com/fuwutu/CodeForces/master/246B%20-%20Increase%20and%20Decrease.cpp
https://raw.githubusercontent.com/o-panda-o/MySolutions/master/Greedy/Code_246B_IncreaseAndDecrease.java
https://raw.githubusercontent.com/changyuheng/codeforces-solutions/master/246b.py
