https://computersecuritystudent.com/SECURITY_TOOLS/MUTILLIDAE/MUTILLIDAE_2511/lesson6/index.html
https://www.irongeek.com/i.php?page=videos/web-application-pen-testing-tutorials-with-mutillidae#determine-http-methods-using-netcat
https://www.computersecuritystudent.com/SECURITY_TOOLS/MUTILLIDAE/MUTILLIDAE_2511/lesson6/index.html
