https://raw.githubusercontent.com/raybaxter/cycle-detector/master/cycle_detector.c
https://raw.githubusercontent.com/seesawlabs/digraph/master/src/digraph/core.clj
https://raw.githubusercontent.com/BrunoRB/algorithms.coffee/master/src/graph/cycle-detection.coffee
https://raw.githubusercontent.com/BlakeBrown/HackerRank-Solutions/master/Tutorials/Cracking%20the%20Coding%20Interview/Linked%20Lists%20-%20Detect%20a%20Cycle.cpp
https://raw.githubusercontent.com/AminAliari/fsm/master/source/DS-FinalProject/Data%20Structures/Graph.cs
https://gitlab.com/David_McLaughlin/programming-challenges/-/raw/master/%2344%20%5BEasy%5D%20(Elixir)/LongestSentence.csx
https://gitlab.com/David_McLaughlin/programming-challenges/-/raw/master/%2344%20%5BEasy%5D%20(Elixir)/longest_sentence.ex
https://raw.githubusercontent.com/joeycumines/go-detect-cycle/master/floyds/floyds.go
https://raw.githubusercontent.com/ppetr/cycle-detection/master/Floyd.hs
https://raw.githubusercontent.com/igor-kutepov/codeabbey/master/src/main/java/com/kutepov/samples/codeabbey/CyclesDetection.java
https://gist.githubusercontent.com/onpubcom/1772996/raw/ceac1212a0ed2df8411cda75c3b23530e4060810/onpubcom_array_date_sort.js
https://gist.githubusercontent.com/TobleMiner/e197665e5098e8538c0aa7c60c723ca9/raw/df842589b0e2eb9f558168e751f5bea6e2f2d1e5/vardump.lua
https://raw.githubusercontent.com/y-max/CyclePro/master/CyclePro.m
https://gist.githubusercontent.com/artf/802c44835572aa81b0881ea8348d3a36/raw/2d6a1f856eb0158b6b30d79efde7095362c79cae/orderObjects.php
https://gitlab.com/David_McLaughlin/programming-challenges/-/raw/master/%23383%20%5BEasy%5D%20Necklace%20matching%20(Elixir)%20(C%23)/Compare-NecklaceStrings.ps1
https://raw.githubusercontent.com/sash-ko/graph-cd/master/cycles/detector.py
https://gitlab.com/rypervenche/challenges/-/raw/master/code-army/02-dollar-dollar-bill.raku
https://raw.githubusercontent.com/isisAnchalee/Algorithms/master/Algorithms/Ruby/detect-graph-cycle.rb
https://raw.githubusercontent.com/tmont/tarjan-graph/master/index.d.ts
https://gist.githubusercontent.com/jmullan/450465/raw/77bdaa2a57e73ecee8ca6d9449aad3f74b379ca5/Detecting%2520Cycles%2520in%2520Tree%2520Structures%2520with%2520PHP
https://raw.githubusercontent.com/JesseClarkND/codeabbey_in_C-NET/master/Cycles%20Detection
