https://raw.githubusercontent.com/Infinite-eyes/Codeforces/master/3C.C
https://raw.githubusercontent.com/aeurielesn/codeforces/master/3/C/tic-tac-toe.cc
https://raw.githubusercontent.com/solaroi/misc/master/Codeforces/3C%20-%20Tic-tac-toe.cpp
https://raw.githubusercontent.com/0JAdams/JavaCodeForcesSolutions/master/3C/Main.java
https://raw.githubusercontent.com/vsg/codeforces/master/003C.%20Tic-tac-toe.py
