https://raw.githubusercontent.com/paulfioravanti/exercism/master/c/leap/src/leap.c
https://raw.githubusercontent.com/joaofnds/exercism/master/clojure/leap/src/leap.clj
https://raw.githubusercontent.com/paulfioravanti/exercism/master/cpp/leap/leap.cpp
https://raw.githubusercontent.com/paulfioravanti/exercism/master/crystal/leap/src/leap.cr
https://raw.githubusercontent.com/g147/exercism-solutions/master/csharp/leap/Leap.cs
https://raw.githubusercontent.com/paulfioravanti/exercism/master/erlang/leap/src/leap.erl
https://raw.githubusercontent.com/ChrisPritchard/My-Exercism-Solutions/master/fsharp/leap/Leap.fs
https://raw.githubusercontent.com/little-dude/exercism/master/go/leap/leap.go
https://raw.githubusercontent.com/connorads/Exercism/master/haskell/leap/src/LeapYear.hs
https://raw.githubusercontent.com/paulfioravanti/exercism/master/java/leap/src/main/java/Leap.java
https://raw.githubusercontent.com/ThomasZumsteg/exercism-javascript/master/leap/leap.js
https://raw.githubusercontent.com/rootulp/exercism/master/python/leap/leap.py
https://raw.githubusercontent.com/rootulp/exercism/master/ruby/exercises/leap/year.rb
https://raw.githubusercontent.com/brianvanburken/exercism/master/rust/leap/src/lib.rs
https://raw.githubusercontent.com/connorads/Exercism/master/typescript/leap/leap.ts
