https://raw.githubusercontent.com/rdtsc/codeeval-solutions/master/src/easy/nice-angles/solutions/c/solution.c
https://raw.githubusercontent.com/rdtsc/codeeval-solutions/master/src/easy/nice-angles/solutions/c%2B%2B/solution.cpp
https://raw.githubusercontent.com/AvetisG/CodeEval/master/01%20-%20Easy/C%23/NiceAngles/NiceAnglesSolution.cs
https://raw.githubusercontent.com/SedaKunda/CodeEval/master/Easy-Level/NiceAngles.java
https://raw.githubusercontent.com/pascal-bourut/codeeval-challenges/master/easy/160%20-%20Nice%20angles/160.js
https://raw.githubusercontent.com/pascal-bourut/codeeval-challenges/master/easy/160%20-%20Nice%20angles/160.php
https://raw.githubusercontent.com/mpillar/codeeval/master/0-easy/nice-angles/main.py
