https://net123.tistory.com/516
https://wooly6bear.files.wordpress.com/2016/01/bwapp-tutorial.pdf
https://kakyouim.hatenablog.com/entry/2020/02/04/215117#Local-Privilege-Escalation-udev
https://www.turkhackteam.org/capture-flag/1841684-bwapp-cozumleri-anka-tim.html
https://www.youtube.com/watch?v=2qcpIZBycek
