https://raw.githubusercontent.com/fuwutu/CodeForces/master/43A%20-%20Football.cpp
https://raw.githubusercontent.com/nomeaning777/codeforces/master/143A.rb
https://raw.githubusercontent.com/noobslayer404/codeforces/master/43A
