https://vinegrep.blogspot.com/2017/05/hackademic-rtb2-walkthrough.html
https://chousensha.github.io/blog/2016/07/20/pentest-lab-hackademic-rtb2/
http://bullsecurity.blogspot.com/2015/09/hackademic-rtb2-walkthru.html
http://forelsec.blogspot.com/2012/11/solving-hackademic-rtb2.html
https://blog.g0tmi1k.com/2012/01/hackademic-rtb2/
https://www.hackingarticles.in/hack-the-hackademic-rtb2-boot2root/
