https://raw.githubusercontent.com/rdtsc/codeeval-solutions/master/src/hard/prefix-expressions/solutions/c/solution.c
https://raw.githubusercontent.com/rdtsc/codeeval-solutions/master/src/hard/prefix-expressions/solutions/c%2B%2B/solution.cpp
https://gitlab.com/agaskell/codeeval/-/raw/master/7/7.go
https://raw.githubusercontent.com/Brianjr0428/CodeEval/master/Hard/Prefix%20expressions/prefix.java
https://raw.githubusercontent.com/pascal-bourut/codeeval-challenges/master/hard/7%20-%20Prefix%20expressions/7.js
https://raw.githubusercontent.com/mdavey/codeeval/master/007%20prefix%20expressions/007_prefix_expressions.lua
https://raw.githubusercontent.com/pascal-bourut/codeeval-challenges/master/hard/7%20-%20Prefix%20expressions/7.php
https://raw.githubusercontent.com/mpillar/codeeval/master/2-hard/prefix-expressions/main.py
https://raw.githubusercontent.com/antarr/CodeEval-Solutions/master/hard/prefixexpression.rb
