https://www.binarytides.com/sqlmap-hacking-tutorial/
https://sechow.com/bricks/docs/login-1.html
https://www.youtube.com/watch?v=x0ITGIQhfTg
https://www.veracode.com/security/sql-injection
https://www.acunetix.com/blog/articles/exploiting-sql-injection-example/
https://wicksnet.wordpress.com/2014/09/23/introduction-to-sql-injection-and-cross-site-scripting-xss/
https://medium.com/@charithra/introduction-to-sql-injections-8c806537cf5d
https://github.com/psiinon/test/wiki/ZapMdReportTest#sql-injection
https://wicksnet.wordpress.com/tag/bodgeit-store/
https://thefluffy007.com/2018/01/19/the-bodgeit-store-series-7-change-your-passwords-via-a-get-request-bodgeit-infosec-pentest-appsec-webapp/
