https://medium.com/write-ups-hackthebox/blacksquare-stego-writeup-745a63d6bdd0
https://github.com/Hackplayers/hackthebox-writeups/blob/master/challenges/stego/blackSquare/amber-blacksquare.pdf
https://www.youtube.com/watch?v=VcQgUxCyfqo&ab_channel=CryptoCat
