http://www.fuzzysecurity.com/tutorials/4.html
https://github.com/sheimo/DVWA-Answers#xss-stored-low
https://redinfocol.org/dvwa-conociendo-y-explotando-diferentes-vulnerabilidades-level-low/
http://www.tapost.org/wp-content/uploads/2016/10/3_s2_t3_1_Aigars-Naglis_Alise-Silde-LV.pdf
https://raw.githubusercontent.com/sheimo/DVWA-Answers/master/README.md
