https://github.com/skiptomyliu/solutions-bwapp#xmlxpath-injection-login-form
http://penthusiasts.blogspot.com/2013/12/bwapp-xml-and-xpath-injection-login.html
https://teckk2.github.io/web-pentesting/2018/02/07/SQL-Injection-Blind-Time-Based.html
https://www.youtube.com/watch?v=MFO5MgISyqY
https://www.adslzone.net/foro/seguridad-informatica.111/bwapp-xpath-injection-level-medium.465926/
https://shacojx.blogspot.com/2017/10/xpath-injection_8.html
https://net123.tistory.com/469?category=695510
