https://raw.githubusercontent.com/HamidTheGeek/HackerRankSolutions/master/Solutions/HashTablesRansomNote.cs
https://raw.githubusercontent.com/imPatidar/HackerRankPythonProblems/master/hashtables_ransom_note.py
https://raw.githubusercontent.com/witekbobrowski/HackerRank/master/Cracking%20the%20Coding%20Interview/Data%20Structures/hash-tables-ransom-note.swift
