https://raw.githubusercontent.com/strikersps/Competitive-Programming/master/Hacker-Rank/Minimum-Swaps-2/minimum_swaps_2.c
https://raw.githubusercontent.com/strikersps/Competitive-Programming/master/Hacker-Rank/Minimum-Swaps-2/minimum_swaps_2.cpp
https://raw.githubusercontent.com/HamidTheGeek/HackerRankSolutions/master/Solutions/MinimumSwaps2.cs
https://raw.githubusercontent.com/irlndts/go-hackerrank/master/interview-preparation-kit/arrays/3.minimum-swaps-2.go
https://raw.githubusercontent.com/gabrielgiordan/hackerrank/master/interview-preparation-kit/minimum-swaps-2.js
