https://phamcongit.wordpress.com/2017/09/27/challenge-1-root-me-html-disabled-buttons/
https://cysecguide.blogspot.com/2018/04/root-me-write-up-html-disabled-buttons.html
http://khansalmanblog.blogspot.com/2018/07/root-me.html
https://looka149.tistory.com/entry/rootmeHTML-disabled-buttons
https://duwjdtn11.tistory.com/167
https://raw.githubusercontent.com/vmauricio93/Challenges-Solutions/master/hack/rootme/web-client-html-disabled-buttons/diegoxdc99.txt
https://raw.githubusercontent.com/vmauricio93/Challenges-Solutions/master/hack/rootme/web-client-html-disabled-buttons/evilbyteLV.txt
https://raw.githubusercontent.com/vmauricio93/Challenges-Solutions/master/hack/rootme/web-client-html-disabled-buttons/lotolo.txt
https://raw.githubusercontent.com/vmauricio93/Challenges-Solutions/master/hack/rootme/web-client-html-disabled-buttons/Phobia.txt
https://raw.githubusercontent.com/vmauricio93/Challenges-Solutions/master/hack/rootme/web-client-html-disabled-buttons/terapty.txt
https://www.youtube.com/watch?v=HvKYMlSG58k
https://www.youtube.com/watch?v=Ag6dMSRgzbI
https://www.dideo.ir/v/yt/HvKYMlSG58k/root-me%3A-html-disabled-buttons%28write-up%29
http://imranparay.blogspot.com/2018/01/root-meorg-solution.html
https://www.youtube.com/watch?v=MRRzhsVeMcE
https://www.youtube.com/watch?v=0tm-M8O4BE8
https://www.youtube.com/watch?v=qUesHe6zWR4
https://www.youtube.com/watch?v=VBCVolaAQXs
https://www.youtube.com/watch?v=jAzuG0FLPd8
https://secure-key.tistory.com/32
