https://raw.githubusercontent.com/AkashChandrakar/codeforces-solutions/master/c%2B%2B/59-A-13356916.cpp
https://gist.githubusercontent.com/Jack-Saleem/3ceb248e9ae82ecbcb3a/raw/c769d01b78a5c7eb82258bb09bbc8713fc8bcc02/Word.java
https://raw.githubusercontent.com/dwiajik/codeforces/master/59A.py
https://raw.githubusercontent.com/nomeaning777/codeforces/master/159A.rb
https://gist.githubusercontent.com/KhNishad/67bd10083f16a80814f3eb5dbdbc1980/raw/6b653b20f120ff70f1376493edb39fa39942dadd/Codeforces%252059A%2520Solution
