16
4676 6488 1570 3838 8316 7957
5978 7767 4578 7389 7372 8110
1452 6404 9197 2348 3015 6156
2410 3002 6129 1535 7773 6496
6540 4406 9866 2270 1467 3592
8134 393 9562 3689 2267 4421
6340 9060 4914 6139 6323 9827
6981 1262 3789 720 8066 6255
5752 6968 2344 151 9994 8215
8260 3931 1671 1690 1293 9949
4707 9231 6563 197 766 5885
304 83 3049 4130 579 7128
4281 1319 9440 2827 1771 9036
2403 9774 9949 5438 4160 2718
1713 6444 6695 8365 1623 7223
4784 4953 6055 2029 2117 3144
