https://raw.githubusercontent.com/wce-codepals/hacktoberfest-projecteuler/master/solutions/problem-17/solution.c
https://raw.githubusercontent.com/mishadoff/project-euler/master/src/project_euler/problem017.clj
https://raw.githubusercontent.com/DestructHub/ProjectEuler/master/Problem017/Elixir/solution_1.exs
https://raw.githubusercontent.com/nayuki/Project-Euler-solutions/master/haskell/p017.hs
https://raw.githubusercontent.com/nayuki/Project-Euler-solutions/master/java/p017.java
https://raw.githubusercontent.com/eevee/project-euler/master/heteroglot/017.ni
https://raw.githubusercontent.com/kdungs/euler/master/017/euler_17.py
https://raw.githubusercontent.com/zsiciarz/euler.rs/master/src/solutions/problem17.rs
https://raw.githubusercontent.com/dbgrandi/EulerKit/master/eulerTests/Problem17Tests.swift
https://raw.githubusercontent.com/nayuki/Project-Euler-solutions/master/mathematica/p017.mathematica
