https://raw.githubusercontent.com/BlakeBrown/HackerRank-Solutions/master/Algorithms/Searching/Connected%20Cell%20in%20a%20Grid.cpp
https://raw.githubusercontent.com/HamidTheGeek/HackerRankSolutions/master/Solutions/ConnectedCellsinaGrid.cs
https://raw.githubusercontent.com/RodneyShag/HackerRank_solutions/master/Algorithms/Search/Connected%20Cells%20in%20a%20Grid/Solution.java
https://raw.githubusercontent.com/aditiraj/hackerrankSolutions-JavaScript/master/Search/connectedCellsInAGrid.js
https://raw.githubusercontent.com/danhenriquesc/hackerrank/master/cracking_the_coding_interview/algorithms/dfs_connected_cell_in_a_grid.py
