https://raw.githubusercontent.com/gsparsh220598/Data-Structures-HackerRank-Solutions/master/2D%20Array-DS.cpp
https://raw.githubusercontent.com/HamidTheGeek/HackerRankSolutions/master/Solutions/2DArray-DS.cs
https://raw.githubusercontent.com/irlndts/go-hackerrank/master/2DArrays/cutboard.go
https://gist.githubusercontent.com/arsho/b3d5d0b98a4dc2dffd9b/raw/0f9e8f171d5cc485ec2a17374a3cd12aad5c322f/Solution.java
https://gist.githubusercontent.com/pandeysoni/51d7e2ca9596517767ad0530bb9cec75/raw/3059c8e1720514f108a0bdc297fc98072e3d73c4/2darray_ds.js
https://raw.githubusercontent.com/MaskRay/HackerRank/master/2d-array.rs
https://raw.githubusercontent.com/witekbobrowski/HackerRank/master/Data%20Structures/Arrays/2d-array-ds.swift
https://raw.githubusercontent.com/HugApps/hackerrank-solutions/master/2D%20Array%20-DS
