https://raw.githubusercontent.com/stbrumme/euler/master/euler-0135.cpp
https://raw.githubusercontent.com/nayuki/Project-Euler-solutions/master/java/p135.java
https://raw.githubusercontent.com/nayuki/Project-Euler-solutions/master/python/p135.py
https://raw.githubusercontent.com/gifnksm/ProjectEulerRust/master/src/bin/p135.rs
