https://gitlab.com/agaskell/codeeval/-/raw/master/52/52.go
https://raw.githubusercontent.com/habhab93/CodeEval-Text-Dollar/master/Main.java
https://raw.githubusercontent.com/pascal-bourut/codeeval-challenges/master/hard/52%20-%20Text%20dollar/52.js
https://raw.githubusercontent.com/schrodervictor/codeeval-challenges/master/hard/Text-Dollar/solution-rev-1.php
https://raw.githubusercontent.com/jtibbertsma/code-eval/master/text-dollar/dollar.rb
