https://github.com/Hackplayers/hackthebox-writeups/blob/master/machines/Nest/FlatMarsSociet-hackthebox-nest.pdf
https://github.com/Hackplayers/hackthebox-writeups/blob/master/machines/Nest/kaosam-Nest.pdf
https://github.com/Hackplayers/hackthebox-writeups/blob/master/machines/Nest/nest-HTB-WU-noraj.pdf
https://github.com/Hackplayers/hackthebox-writeups/blob/master/machines/Nest/SevenLayerJedi-Nest.pdf
https://github.com/Hackplayers/hackthebox-writeups/blob/master/machines/Nest/SirBroccoli-Nest.pdf
