https://fwhibbit.es/htb-writeup-traverxec
https://github.com/Hackplayers/hackthebox-writeups/blob/master/machines/Traverxec/Traverxec-Writeup-Qarnix.pdf
https://github.com/Hackplayers/hackthebox-writeups/blob/master/machines/Traverxec/kaosam-Traverxec.pdf
https://github.com/Hackplayers/hackthebox-writeups/blob/master/machines/Traverxec/traverxec-HTB-WU-noraj.pdf
