https://raw.githubusercontent.com/max-b/io-netgarage/master/basic/level7/level07.c
https://github.com/randomcompanyname/ctf_writeup/blob/master/io.netgarage.org/level7.md
https://raw.githubusercontent.com/mitchellharvey/io.netgarage.org/master/level7/solution
