https://raw.githubusercontent.com/fuwutu/CodeForces/master/22A%20-%20Second%20Order%20Statistics.cpp
https://raw.githubusercontent.com/nicolaspenagos/competitive-programming_IV-Icesi-training-camp-2020/master/src/CodeForces_22A_SecondOrderStatictics.java
https://raw.githubusercontent.com/nomeaning777/codeforces/master/22A.rb
