https://raw.githubusercontent.com/RomaniukVadim/wargaming-challenges/master/RootMe/cryptoanalysis/ascii.txt
https://blog.encrypted.gg/739
https://tgraph.io/CTF-Kurs-molodogo-bojca-Nachalnye-zadaniya-kategorii-Crypto-08-19
https://mandu-mandu.tistory.com/227
https://0xleaner-mm.blogspot.com/2016/07/root-mecryptanalysis-encoding.html
