https://raw.githubusercontent.com/appsecco/dvna/master/docs/solution/a9-using-components-with-known-vulnerability.md
https://code610.blogspot.com/2019/10/testing-dvna.html
https://appsecco.com/books/owasp-2017-dvna-attacks/known-components.html
https://www.cnblogs.com/hack404/p/10386938.html
