https://raw.githubusercontent.com/mkzpd/leetcode-solution/60c9b218683bcdee86477a910c58ec702185c726/need-to-do/c------download-problem--of--leetcode/441.arranging-coins.c
https://raw.githubusercontent.com/rongyi/leetcode/9d66feb7df3ad85db33c594841cc778b6ae4266f/cc/distribute-coins-in-binary-tree.cc
https://raw.githubusercontent.com/kamyu104/LeetCode-Solutions/master/C%2B%2B/arranging-coins.cpp
https://raw.githubusercontent.com/JiDevOps/Coding-Practice-CSharp/e46c87a6e3a503f7a4d9ef82436c64f81bacd2a0/LeetCode/Src/P441ArrangingCoins.cs
https://raw.githubusercontent.com/mutoe/leetcode/d7c1d6fe6726a5d0b67a007d78b0b8fad72c215a/441_arranging_coins/arranging_coins.go
https://raw.githubusercontent.com/htbkoo/java/fa9f3ffeb4cb706c980a0419a3f12240838217ee/java/src/test/groovy/online/leetcode/DistributeCoinsInBinaryTreeTest.groovy
https://raw.githubusercontent.com/2292384454/KeinLeetCodeQuestions/2d521aca911729792e3d35b005ae068d99aef6be/src/leetcode/editor/cn/P441ArrangingCoins.java
https://raw.githubusercontent.com/JuliaCN/LeetCode.jl/37fdccdabb57cca30a648479f9011f4d7caac870/src/unresolved/979.distribute-coins-in-binary-tree.jl
https://raw.githubusercontent.com/retarsis/ands/e46a45a3550d25371cccf99f7499848cf61733d9/src/leetcode/arranging-coins/arranging-coins.js
https://raw.githubusercontent.com/abitgen/Algos/119164618a4ab50b51b6579402cdb77c862f4ec4/kotlin/src/main/kotlin/io/github/abitgen/leetcode/twenty20July/_01_arrangingcoins/ArrangingCoins.kt
https://raw.githubusercontent.com/FLRYG/Competitive-programming/836c79e3c2b35abc4454ab1b49dd276488e15e4d/AtCoder/ABC/A_Two%20Coins.lsp
https://raw.githubusercontent.com/dyhpoon/Attack-on-Pirates/d88e271002101e1eb87aba94d58b44c1f56cb7a0/AttackOnPirates/gameLogic/coins.lua
https://raw.githubusercontent.com/sunchengxiu/Arithmetic/21d0ac6aa65dbb6c2dc1dffc17a09851f068bcf5/TestArithmetic/TestArithmetic/%E7%AE%97%E6%B3%95/%E5%8A%A8%E6%80%81%E8%A7%84%E5%88%92/%E6%8D%A2%E9%92%B1/SCXMinCoins.m
https://raw.githubusercontent.com/utkarsh380/logic_builder/e222be97aa31d5e344b33518295f19176cb6eda8/ArrangingCoins.php
https://raw.githubusercontent.com/b1ueskydragon/PythonGround/4e100c4318597bb68c317ced7f2d09ff01167d97/leetcode/p0441/test_arrangeCoins.py
https://raw.githubusercontent.com/traciechang/algorithm-problems/e081c7b26e0ad8c71b16a3363e001c8351858635/arranging_coins.rb
https://raw.githubusercontent.com/qiwei9743/leetcode_rs/36725a174ed473e709e67d3bd2efcbbfe3e2bbff/src/orig/441.arranging-coins.rs
https://raw.githubusercontent.com/tday93/dnd/a1eb363004412510362b774794ca4fcd857f9184/srd/5e/equipment/coins.rst
https://raw.githubusercontent.com/moyanling/datastructure-algorithm/94ca8246b51dfac2649c7b3eb7f8e49bd28661ff/src/main/scala/org/mo39/fmbh/uncategorized/ArrangingCoins.scala
https://raw.githubusercontent.com/antonio081014/LeetCode-CodeBase/478bc8f81fe337e8ea3c34e0503a5e00220acacd/Swift/arranging-coins.swift
https://raw.githubusercontent.com/DarkerBo/dataStructure-algorithm-practice/28c5417918f8ceea89669f05dbf539a9a23b7826/src/Algorithm/DynamicProgramming/ChangeCoins.ts
https://raw.githubusercontent.com/Aashu24/Leetcode-solutions/18b85bf4fc1fc860a5840ad0d2458e2a53bf0749/Arranging%20coins
https://raw.githubusercontent.com/Ashutosh24197/CompetitiveCoding/022d2b1319156789ba7b833a4f452caf0bc121ac/LeetCode/JUL_30_day_challenge/1.%20Arranging%20Coins
https://raw.githubusercontent.com/DekshaH/Competitive_Programming/2765cc75ac590851f4656830de72c401dbfe0d6d/Day%202/Arranging%20Coins
https://raw.githubusercontent.com/KnowledgeCenterYoutube/LeetCode/7116423d5bf34ca52dcf241c6a8afcb634e6351f/441_Arranging_Coins
https://raw.githubusercontent.com/aditya803/leetcode-solutions/d060d1bfbeffe914accb87cf03e0462726f8f357/EASY/BINARY/Arranging%20coins
https://raw.githubusercontent.com/czbead/Practice/598517c10f82fbe19acd41fdfea1995e7ea229fc/441.%20Arranging%20Coins
https://raw.githubusercontent.com/mayank05942/Dynamic-Programming/0c3c463a4673b91b32d5923b457dfc8e5bda6896/Coin%20Change%20(%20Min%20%20number%20of%20coins%20)
https://raw.githubusercontent.com/mayank05942/Dynamic-Programming/0c3c463a4673b91b32d5923b457dfc8e5bda6896/Knapsack_variations/Coin%20Change%20(%20Min%20%20number%20of%20coins%20)
https://raw.githubusercontent.com/utkzas/July-Leetcoding-Challenge/654fe91524cc4566ba51032a279a98afb8871a1c/441.%20Arranging%20Coins
https://raw.githubusercontent.com/wz30/Leetcode/e5370d102e2e6db52f85282835ecba0e7ef1ecd5/[441]%20Arranging%20Coins
