https://computersecuritystudent.com/SECURITY_TOOLS/MUTILLIDAE/MUTILLIDAE_2511/lesson4/index.html
https://tipstrickshack.blogspot.com/2013/11/broken-authentication-session.html
https://www.irongeek.com/i.php?page=videos/web-application-pen-testing-tutorials-with-mutillidae
https://www.youtube.com/watch?v=0BeI-d_riuY
