https://raw.githubusercontent.com/mishadoff/project-euler/master/src/project_euler/problem020.clj
https://raw.githubusercontent.com/DestructHub/ProjectEuler/master/Problem020/Elixir/solution_1.exs
https://raw.githubusercontent.com/nayuki/Project-Euler-solutions/master/haskell/p020.hs
https://raw.githubusercontent.com/nayuki/Project-Euler-solutions/master/java/p020.java
https://raw.githubusercontent.com/DestructHub/ProjectEuler/master/Problem020/CommonLisp/solution_1.lisp
https://raw.githubusercontent.com/DestructHub/ProjectEuler/master/Problem020/Python/solution_1.py
https://raw.githubusercontent.com/DestructHub/ProjectEuler/master/Problem020/Ruby/solution_1.rb
https://raw.githubusercontent.com/zsiciarz/euler.rs/master/src/solutions/problem20.rs
https://raw.githubusercontent.com/nayuki/Project-Euler-solutions/master/mathematica/p020.mathematica
