https://raw.githubusercontent.com/mkzpd/leetcode-solution/60c9b218683bcdee86477a910c58ec702185c726/need-to-do/c------download-problem--of--leetcode/1006.clumsy-factorial.c
https://raw.githubusercontent.com/rongyi/leetcode/9d66feb7df3ad85db33c594841cc778b6ae4266f/cc/clumsy-factorial.cc
https://raw.githubusercontent.com/kamyu104/LeetCode-Solutions/master/C%2B%2B/clumsy-factorial.cpp
https://raw.githubusercontent.com/monsterNY/vlxm/fa881d0982b099dc9d7b55ac101efc7584d0bc21/cast/Orientation/ConsoleTest/MiddleQuestion/Clumsy.cs
https://raw.githubusercontent.com/letientai299/leetcode/18319e32111893d1ab878424b4e4120b0e5d2ad8/go/1006.clumsy-factorial.go
https://raw.githubusercontent.com/htbkoo/java/fa9f3ffeb4cb706c980a0419a3f12240838217ee/java/src/test/groovy/online/leetcode/ClumsyFactorialTest.groovy
https://raw.githubusercontent.com/atulmgupta/leetcode-solutions/ba76c8028326aa4817ce24d9266c968159a80ea0/src/main/java/com/atul/leetcode/medium/ClumsyFactorial.java
https://raw.githubusercontent.com/JuliaCN/LeetCode.jl/37fdccdabb57cca30a648479f9011f4d7caac870/src/unresolved/1006.clumsy-factorial.jl
https://raw.githubusercontent.com/rudongsu/leetcode-algorithms/424fea047dfa73073871d400d8ca34edd716d549/1006.clumsy-factorial.js
https://raw.githubusercontent.com/HakuLess/LeetCode/eaafadb7c2962149d26600704e6980f953069505/src/leetcode/normal/1006.%20Clumsy%20Factorial.kt
https://raw.githubusercontent.com/chenxu0602/LeetCode/c05581ebcde18675d4ec8cc4b720c21cb26da8bf/1006.clumsy-factorial.py
https://raw.githubusercontent.com/GaoangLiu/leetcode/33f06bf3936d67b95cd2323e54a32a5ee5630c5b/python_solutions/1006.clumsy-factorial.rb
https://raw.githubusercontent.com/Grekz/coding-problems-scala/e052f1ffa756223177a6e63e5bf4925bb975b982/src/mx/grekz/leetcode/easy/E1006_ClumsyFactorial.scala
https://raw.githubusercontent.com/LiuLongyang0305/LeetCode/c17c0a779661801b98ee29fd6488b8e674550c7e/swift/Math/1006_ClumsyFactorial.swift
