https://www.aldeid.com/wiki/TryHackMe-kiba
https://www.youtube.com/watch?v=XeSqxiUJE6c
https://www.g10s.io/tryhackme-kiba/
https://medium.com/@rohitsubramani/tryhackme-kiba-walkthrough-9c3957aa7583
https://musyokaian.medium.com/kiba-tryhackme-walkthrough-a779b5369cc0
https://beginninghacking.net/2020/08/28/try-hack-me-kiba-this-room-was-released-today-this-will-get-unlocked-after-3-days-otherwise-you-can-use-the-root-flag-to-unlock-it-thmp___s/
https://raw.githubusercontent.com/quietmeteor/Writeups/master/Kiba/Kiba.md
https://0xsanz.medium.com/kiba-tryhackme-728c6f433067
https://medium.com/@kevin.de.vijlder/tryhackme-kiba-write-up-43a9d3734868
https://raw.githubusercontent.com/AkzharkynDM/CTFs-writeups/master/tryhackme/kiba.md
