https://thinbashane.wordpress.com/2015/11/06/reversing-kr-easy-crack-100-points/
https://tuonilabs.wordpress.com/2017/11/16/reversing-kr-write-up/
https://raw.githubusercontent.com/DoubleLabyrinth/reversing.kr/master/Easy%20Crack/Easy%20Crack.py
