https://raw.githubusercontent.com/stefanos1316/Rosetta_Code_Research_MSR/master/Scripts/Task/sorting-algorithms-selection-sort/360-assembly/sorting-algorithms-selection-sort.360
https://raw.githubusercontent.com/sireum/v2-bakar/901665e57bf3a8501ffc11859d67ce6fc864cfda/sireum-bakar-test/src/test/resources/org/sireum/example/bakar/regression/2005/fse10/2010/Selection_Sort/selection_sort_ptf.ada
https://raw.githubusercontent.com/stefanos1316/Rosetta_Code_Research_MSR/9ffa9026c5919cae5f199a5721a30d69bfb1be75/Scripts/Task/sorting-algorithms-selection-sort/autohotkey/sorting-algorithms-selection-sort.ahk
https://raw.githubusercontent.com/stefanos1316/Rosetta_Code_Research_MSR/9ffa9026c5919cae5f199a5721a30d69bfb1be75/Scripts/Task/sorting-algorithms-selection-sort/algol-68/sorting-algorithms-selection-sort.alg
https://raw.githubusercontent.com/stefanos1316/Rosetta_Code_Research_MSR/9ffa9026c5919cae5f199a5721a30d69bfb1be75/Scripts/Task/sorting-algorithms-selection-sort/actionscript/sorting-algorithms-selection-sort.as
https://raw.githubusercontent.com/linuxasm/aedit/a736b301b5b4bb5d526e3301977389fe91f0a45a/AsmLib/sort/sort_selection.asm
https://raw.githubusercontent.com/timm/lawker/69e4809b69f17cada44dd32a63aec2c3acb77e4f/fridge/lib/awk/sorting.awk
https://raw.githubusercontent.com/stefanos1316/Rosetta_Code_Research_MSR/9ffa9026c5919cae5f199a5721a30d69bfb1be75/Scripts/Task/sorting-algorithms-selection-sort/bbc-basic/sorting-algorithms-selection-sort.bbc
https://raw.githubusercontent.com/geyslan/algorithms/master/selection-sort.c
https://gist.githubusercontent.com/thirtyspokes/9f7b747b7a9262ce6242/raw/c2ed6d571a21f0fd92da0d2ae03c980470779430/core.clj
https://raw.githubusercontent.com/stefanos1316/Rosetta_Code_Research_MSR/9ffa9026c5919cae5f199a5721a30d69bfb1be75/Scripts/Task/sorting-algorithms-selection-sort/cobol/sorting-algorithms-selection-sort.cobol
https://raw.githubusercontent.com/stefanos1316/Rosetta_Code_Research_MSR/9ffa9026c5919cae5f199a5721a30d69bfb1be75/Scripts/Task/sorting-algorithms-selection-sort/c%2B%2B/sorting-algorithms-selection-sort.cpp
https://gist.githubusercontent.com/martin-nikolov/5895826/raw/abbcab78931e5c74d285f6d01fed6ca005762c36/SelectionSort.cs
https://raw.githubusercontent.com/pastelito02/Challenges-sol/master/Programming/Codeabbey/120/Ratzenfutz.d
https://raw.githubusercontent.com/sananth12/Dart-Algorithms/master/Sorting/selection_sort.dart
https://raw.githubusercontent.com/stefanos1316/Rosetta_Code_Research_MSR/9ffa9026c5919cae5f199a5721a30d69bfb1be75/Scripts/Task/sorting-algorithms-selection-sort/delphi/sorting-algorithms-selection-sort-1.delphi
https://raw.githubusercontent.com/stefanos1316/Rosetta_Code_Research_MSR/9ffa9026c5919cae5f199a5721a30d69bfb1be75/Scripts/Task/sorting-algorithms-selection-sort/e/sorting-algorithms-selection-sort.e
https://raw.githubusercontent.com/stefanos1316/Rosetta_Code_Research_MSR/9ffa9026c5919cae5f199a5721a30d69bfb1be75/Scripts/Task/sorting-algorithms-selection-sort/elixir/sorting-algorithms-selection-sort.elixir
https://raw.githubusercontent.com/stefanos1316/Rosetta_Code_Research_MSR/9ffa9026c5919cae5f199a5721a30d69bfb1be75/Scripts/Task/sorting-algorithms-selection-sort/fortran/sorting-algorithms-selection-sort.f
https://raw.githubusercontent.com/stefanos1316/Rosetta_Code_Research_MSR/9ffa9026c5919cae5f199a5721a30d69bfb1be75/Scripts/Task/sorting-algorithms-selection-sort/forth/sorting-algorithms-selection-sort.fth
https://raw.githubusercontent.com/stefanos1316/Rosetta_Code_Research_MSR/9ffa9026c5919cae5f199a5721a30d69bfb1be75/Scripts/Task/sorting-algorithms-selection-sort/gap/sorting-algorithms-selection-sort.gap
https://raw.githubusercontent.com/pastelito02/Challenges-sol/master/Programming/Codeabbey/120/vodmin.go
https://raw.githubusercontent.com/stefanos1316/Rosetta_Code_Research_MSR/9ffa9026c5919cae5f199a5721a30d69bfb1be75/Scripts/Task/sorting-algorithms-selection-sort/haxe/sorting-algorithms-selection-sort.haxe
https://raw.githubusercontent.com/pastelito02/Challenges-sol/master/Programming/Codeabbey/120/Hennes.hs
https://raw.githubusercontent.com/stefanos1316/Rosetta_Code_Research_MSR/9ffa9026c5919cae5f199a5721a30d69bfb1be75/Scripts/Task/sorting-algorithms-selection-sort/icon/sorting-algorithms-selection-sort.icon
https://raw.githubusercontent.com/stefanos1316/Rosetta_Code_Research_MSR/9ffa9026c5919cae5f199a5721a30d69bfb1be75/Scripts/Task/sorting-algorithms-selection-sort/io/sorting-algorithms-selection-sort.io
https://raw.githubusercontent.com/stefanos1316/Rosetta_Code_Research_MSR/9ffa9026c5919cae5f199a5721a30d69bfb1be75/Scripts/Task/sorting-algorithms-selection-sort/j/sorting-algorithms-selection-sort-1.j
https://raw.githubusercontent.com/KlaudioVito/CodeAbbey/master/SelectionSort.java
https://raw.githubusercontent.com/pastelito02/Challenges-sol/master/Programming/Codeabbey/120/Zacharias.jl
https://raw.githubusercontent.com/stefanos1316/Rosetta_Code_Research_MSR/9ffa9026c5919cae5f199a5721a30d69bfb1be75/Scripts/Task/sorting-algorithms-selection-sort/jq/sorting-algorithms-selection-sort-1.jq
https://raw.githubusercontent.com/pastelito02/Challenges-sol/master/Programming/Codeabbey/120/dissonantdev.js
https://raw.githubusercontent.com/caiodearaujo/algorithm-samples/master/src/main/kotlin/algorithm/SelectionSort.kt
https://raw.githubusercontent.com/stefanos1316/Rosetta_Code_Research_MSR/master/Scripts/Task/sorting-algorithms-selection-sort/picolisp/sorting-algorithms-selection-sort.l
https://raw.githubusercontent.com/stefanos1316/Rosetta_Code_Research_MSR/9ffa9026c5919cae5f199a5721a30d69bfb1be75/Scripts/Task/sorting-algorithms-selection-sort/liberty-basic/sorting-algorithms-selection-sort.liberty
https://raw.githubusercontent.com/stefanos1316/Rosetta_Code_Research_MSR/9ffa9026c5919cae5f199a5721a30d69bfb1be75/Scripts/Task/sorting-algorithms-selection-sort/common-lisp/sorting-algorithms-selection-sort.lisp
https://raw.githubusercontent.com/PaolaGiraldo/codeabbey_solutions/master/Lisp/120/problem_120.lsp
https://raw.githubusercontent.com/pastelito02/Challenges-sol/master/Programming/Codeabbey/120/ayy_luamao.lua
https://raw.githubusercontent.com/stefanos1316/Rosetta_Code_Research_MSR/9ffa9026c5919cae5f199a5721a30d69bfb1be75/Scripts/Task/sorting-algorithms-selection-sort/matlab/sorting-algorithms-selection-sort-1.m
https://raw.githubusercontent.com/stefanos1316/Rosetta_Code_Research_MSR/9ffa9026c5919cae5f199a5721a30d69bfb1be75/Scripts/Task/sorting-algorithms-selection-sort/mathematica/sorting-algorithms-selection-sort-1.math
https://raw.githubusercontent.com/stefanos1316/Rosetta_Code_Research_MSR/9ffa9026c5919cae5f199a5721a30d69bfb1be75/Scripts/Task/sorting-algorithms-selection-sort/maxscript/sorting-algorithms-selection-sort.max
https://raw.githubusercontent.com/stefanos1316/Rosetta_Code_Research_MSR/9ffa9026c5919cae5f199a5721a30d69bfb1be75/Scripts/Task/sorting-algorithms-selection-sort/maxima/sorting-algorithms-selection-sort.maxima
https://raw.githubusercontent.com/pastelito02/Challenges-sol/master/Programming/Codeabbey/120/stefan.schmiedl.ml
https://raw.githubusercontent.com/stefanos1316/Rosetta_Code_Research_MSR/9ffa9026c5919cae5f199a5721a30d69bfb1be75/Scripts/Task/sorting-algorithms-selection-sort/nemerle/sorting-algorithms-selection-sort.nemerle
https://raw.githubusercontent.com/stefanos1316/Rosetta_Code_Research_MSR/master/Scripts/Task/sorting-algorithms-selection-sort/netrexx/sorting-algorithms-selection-sort.netrexx
https://raw.githubusercontent.com/stefanos1316/Rosetta_Code_Research_MSR/master/Scripts/Task/sorting-algorithms-selection-sort/nim/sorting-algorithms-selection-sort.nim
https://raw.githubusercontent.com/stefanos1316/Rosetta_Code_Research_MSR/master/Scripts/Task/sorting-algorithms-selection-sort/oforth/sorting-algorithms-selection-sort.oforth
https://raw.githubusercontent.com/stefanos1316/Rosetta_Code_Research_MSR/master/Scripts/Task/sorting-algorithms-selection-sort/oz/sorting-algorithms-selection-sort.oz
https://raw.githubusercontent.com/stefanos1316/Rosetta_Code_Research_MSR/master/Scripts/Task/sorting-algorithms-selection-sort/pari-gp/sorting-algorithms-selection-sort.pari
https://raw.githubusercontent.com/stefanos1316/Rosetta_Code_Research_MSR/master/Scripts/Task/sorting-algorithms-selection-sort/phix/sorting-algorithms-selection-sort.phix
https://raw.githubusercontent.com/stefanos1316/Rosetta_Code_Research_MSR/master/Scripts/Task/sorting-algorithms-selection-sort/php/sorting-algorithms-selection-sort-1.php
https://raw.githubusercontent.com/pastelito02/Challenges-sol/master/Programming/Codeabbey/120/pearl_barley.pl
https://raw.githubusercontent.com/stefanos1316/Rosetta_Code_Research_MSR/master/Scripts/Task/sorting-algorithms-selection-sort/perl-6/sorting-algorithms-selection-sort-1.pl6
https://raw.githubusercontent.com/stefanos1316/Rosetta_Code_Research_MSR/master/Scripts/Task/sorting-algorithms-selection-sort/pl-i/sorting-algorithms-selection-sort.pli
https://raw.githubusercontent.com/stefanos1316/Rosetta_Code_Research_MSR/master/Scripts/Task/sorting-algorithms-selection-sort/prolog/sorting-algorithms-selection-sort.pro
https://raw.githubusercontent.com/stefanos1316/Rosetta_Code_Research_MSR/master/Scripts/Task/sorting-algorithms-selection-sort/powershell/sorting-algorithms-selection-sort.psh
https://raw.githubusercontent.com/Xzya/CodeAbbeySolutions/master/SelectionSort.py
https://raw.githubusercontent.com/stefanos1316/Rosetta_Code_Research_MSR/master/Scripts/Task/sorting-algorithms-selection-sort/qi/sorting-algorithms-selection-sort.qi
https://raw.githubusercontent.com/stefanos1316/Rosetta_Code_Research_MSR/master/Scripts/Task/sorting-algorithms-selection-sort/r/sorting-algorithms-selection-sort-1.r
https://raw.githubusercontent.com/stefanos1316/Rosetta_Code_Research_MSR/master/Scripts/Task/sorting-algorithms-selection-sort/ra/sorting-algorithms-selection-sort.ra
https://raw.githubusercontent.com/pastelito02/Challenges-sol/master/Programming/Codeabbey/120/Natalia-K.rb
https://raw.githubusercontent.com/stefanos1316/Rosetta_Code_Research_MSR/master/Scripts/Task/sorting-algorithms-selection-sort/rexx/sorting-algorithms-selection-sort.rexx
https://raw.githubusercontent.com/stefanos1316/Rosetta_Code_Research_MSR/master/Scripts/Task/sorting-algorithms-selection-sort/ring/sorting-algorithms-selection-sort.ring
https://raw.githubusercontent.com/stefanos1316/Rosetta_Code_Research_MSR/master/Scripts/Task/sorting-algorithms-selection-sort/racket/sorting-algorithms-selection-sort.rkt
https://raw.githubusercontent.com/stefanos1316/Rosetta_Code_Research_MSR/master/Scripts/Task/sorting-algorithms-selection-sort/run-basic/sorting-algorithms-selection-sort.run
https://gist.githubusercontent.com/Lytol/225870/raw/e0caa8d8628c75d9d996759ba208335270c380ab/selection_sort.scala
https://raw.githubusercontent.com/stefanos1316/Rosetta_Code_Research_MSR/master/Scripts/Task/sorting-algorithms-selection-sort/seed7/sorting-algorithms-selection-sort.seed7
https://raw.githubusercontent.com/stefanos1316/Rosetta_Code_Research_MSR/master/Scripts/Task/sorting-algorithms-selection-sort/sidef/sorting-algorithms-selection-sort.sidef
https://raw.githubusercontent.com/stefanos1316/Rosetta_Code_Research_MSR/master/Scripts/Task/sorting-algorithms-selection-sort/swift/sorting-algorithms-selection-sort.swift
https://raw.githubusercontent.com/stefanos1316/Rosetta_Code_Research_MSR/master/Scripts/Task/sorting-algorithms-selection-sort/tcl/sorting-algorithms-selection-sort.tcl
https://raw.githubusercontent.com/stefanos1316/Rosetta_Code_Research_MSR/master/Scripts/Task/sorting-algorithms-selection-sort/ursala/sorting-algorithms-selection-sort-1.ursala
https://raw.githubusercontent.com/pastelito02/Challenges-sol/master/Programming/Codeabbey/120/Guy-Gervais.vb
https://raw.githubusercontent.com/stefanos1316/Rosetta_Code_Research_MSR/master/Scripts/Task/sorting-algorithms-selection-sort/vba/sorting-algorithms-selection-sort.vba
https://raw.githubusercontent.com/stefanos1316/Rosetta_Code_Research_MSR/master/Scripts/Task/sorting-algorithms-selection-sort/xpl0/sorting-algorithms-selection-sort.xpl0
https://raw.githubusercontent.com/JesseClarkND/codeabbey_in_C-NET/master/Selection%20Sort
https://raw.githubusercontent.com/stefanos1316/Rosetta_Code_Research_MSR/9ffa9026c5919cae5f199a5721a30d69bfb1be75/Scripts/Task/sorting-algorithms-selection-sort/echolisp/sorting-algorithms-selection-sort-1.echolisp
https://raw.githubusercontent.com/stefanos1316/Rosetta_Code_Research_MSR/9ffa9026c5919cae5f199a5721a30d69bfb1be75/Scripts/Task/sorting-algorithms-selection-sort/euphoria/sorting-algorithms-selection-sort.euphoria
https://raw.githubusercontent.com/stefanos1316/Rosetta_Code_Research_MSR/9ffa9026c5919cae5f199a5721a30d69bfb1be75/Scripts/Task/sorting-algorithms-selection-sort/freebasic/sorting-algorithms-selection-sort.freebasic
https://raw.githubusercontent.com/stefanos1316/Rosetta_Code_Research_MSR/master/Scripts/Task/sorting-algorithms-selection-sort/purebasic/sorting-algorithms-selection-sort.purebasic
