https://www.hacknos.com/durian-vulnhub-walkthrough/
https://www.hackingarticles.in/durian-1-vulnhub-walkthrough/
https://www.youtube.com/watch?v=uaE1bSsd0Kw
https://procoder.in/durian-vulnhub/
https://leetvilu.blogspot.com/2020/09/oscp-lab-durian-1-vulnhub-walkthrough.html
https://www.youtube.com/watch?v=1t70eH3_tNo
https://www.youtube.com/watch?v=v9GtX8KRoWo
https://rvimer.blogspot.com/2017/10/ctf-proteus-1-vulnhub.html
https://zviezvuln.blogspot.com/2017/06/how-to-crack-proteus-machine.html
