https://raw.githubusercontent.com/pastelito02/Challenges-sol/master/Programming/Codeabbey/137/Efistus.java
https://raw.githubusercontent.com/pastelito02/Challenges-sol/master/Programming/Codeabbey/137/Tehel.js
https://raw.githubusercontent.com/PaolaGiraldo/codeabbey_solutions/master/Lisp/137/problem_137.lsp
https://raw.githubusercontent.com/pastelito02/Challenges-sol/master/Programming/Codeabbey/137/ferchoafta.lua
https://raw.githubusercontent.com/pastelito02/Challenges-sol/master/Programming/Codeabbey/137/Dmytro%20Pryhornytskyi.php
https://raw.githubusercontent.com/pastelito02/Challenges-sol/master/Programming/Codeabbey/137/DaveRoox.py
