https://www.youtube.com/watch?v=RDgN7asnC88
https://github.com/Offliners/CTFlearn-writeup/blob/master/FORENSICS/A%20CAPture%20of%20a%20Flag/README.md
https://raw.githubusercontent.com/cyberpirate92/ctflearn-solutions/master/08.a_capture_of_a_flag.md
https://raw.githubusercontent.com/rishitsaiya/CTFlearn-Writeups/master/Forensics/A%20CAPture%20of%20a%20Flag/README.md
https://raw.githubusercontent.com/EladBeber/CTFlearn-Writeups/master/Forensics/Easy/A%20CAPTURE%20OF%20A%20FLAG/README.md
