29
463044423 1175406385 343057853
245328333 1895414580 120626273
337196803 1195661630 319031561
472258233 1259510215 168947099
945193827 1508747131 180483449
182700352 1285200795 343308619
193166208 1673274497 194103401
465825957 1120326807 252597979
326865054 1351369401 387940979
932045730 1293602048 272874247
459116950 1378508362 193878161
422478437 1072571007 265933439
442027276 1916948629 398241887
527573712 1044637866 224540663
706452624 1334372141 388061801
105806903 1015724836 210341983
581929132 1497389159 236544391
489432439 1195523061 236544391
664045016 1704799844 352526617
687900917 1860580732 213626969
898644376 1249902360 299060903
254655003 1122222057 219020071
990403796 1857745030 150373247
554499985 1035448571 252505717
440108608 1847620858 272922269
402938886 1790276392 352451377
262393282 1199677857 272922269
350894933 1347209969 252444209
191930386 1400796334 180582011
