https://raw.githubusercontent.com/zimpha/competitive-programming/master/codeforces/Codeforces%20Beta%20Round%20%238/C.cc
https://raw.githubusercontent.com/DucPr0/Codeforces---Dynamic-Programming/master/8C.cpp
https://raw.githubusercontent.com/0JAdams/JavaCodeForcesSolutions/master/8C/Main.java
https://raw.githubusercontent.com/vsg/codeforces/master/088C.%20Trains.py
