https://raw.githubusercontent.com/stbrumme/euler/master/euler-0188.cpp
https://raw.githubusercontent.com/nayuki/Project-Euler-solutions/master/haskell/p188.hs
https://raw.githubusercontent.com/nayuki/Project-Euler-solutions/master/java/p188.java
https://raw.githubusercontent.com/nayuki/Project-Euler-solutions/master/python/p188.py
