https://raw.githubusercontent.com/leeychee/hackerrank/master/practice/algorithms/strings/mars_exploration/main.go
https://raw.githubusercontent.com/charles-wangkai/hackerrank/master/mars-exploration/Solution.java
https://raw.githubusercontent.com/danhenriquesc/hackerrank/master/algorithms/strings/mars_exploration.php
https://raw.githubusercontent.com/Shwaubh/HackerrankSolutions/master/easy/string/Mars%20Exploration.py
https://raw.githubusercontent.com/raghav97/Hackerrank-Solutions/master/mars_exploration.rb
https://raw.githubusercontent.com/witekbobrowski/HackerRank/master/Algorithms/Strings/mars-exploration.swift
