https://raw.githubusercontent.com/adamjdeacon/checkLuhn/master/R/checkLuhn.R
https://raw.githubusercontent.com/bdlightner/luhn-implementation-C-/master/luhn.c
https://raw.githubusercontent.com/blancohugo/luhn/master/src/blancohugo/luhn.clj
https://raw.githubusercontent.com/europa502/luhn-algorithm/master/luhn.cpp
https://raw.githubusercontent.com/unkdvt/LuhnAlgorithmCSharp/master/LuhnAlgorithmCSharp/Luhn.cs
https://raw.githubusercontent.com/BaptisteHugot/algorithmeLuhn/master/algorithmeLuhn.dart
https://raw.githubusercontent.com/ma2gedev/luhn_ex/master/mix.exs
https://raw.githubusercontent.com/theplant/luhn/master/luhn.go
https://raw.githubusercontent.com/mikachoow21/Haskell-Luhn-Algorithm/master/Luhn.hs
https://raw.githubusercontent.com/Autumncong/problemssolve/master/Problems/problems156.java
https://raw.githubusercontent.com/europa502/luhn-algorithm/master/luhn.js
https://raw.githubusercontent.com/luhnmod10/kotlin/master/src/main/kotlin/luhnmod10/Luhnmod10.kt
https://raw.githubusercontent.com/PaolaGiraldo/codeabbey_solutions/master/Lisp/156/problem_156.lsp
https://raw.githubusercontent.com/aol/moloch/master/capture/plugins/lua/samples/creditcard.lua
https://raw.githubusercontent.com/Ekman/luhn-algorithm/master/src/LuhnAlgorithm.php
https://raw.githubusercontent.com/bdlightner/luhn-implementation-Perl-/master/luhn.pl
https://raw.githubusercontent.com/GuillermoLopezJr/CodeAbbey/master/Abbey156/main.py
https://raw.githubusercontent.com/rolfb/luhn-ruby/master/lib/luhn.rb
https://raw.githubusercontent.com/justinmc/luhn-rust/master/luhnd.rs
https://raw.githubusercontent.com/AlexMckey/CodeAbbey_Scala/master/src/JosephusProblem.scala
https://raw.githubusercontent.com/europa502/luhn-algorithm/master/luhn.sh
https://raw.githubusercontent.com/maxkramer/SwiftLuhn/master/SwiftLuhn/Classes/SwiftLuhn.swift
https://raw.githubusercontent.com/JesseClarkND/codeabbey_in_C-NET/master/Luhn%20Algorithm
