https://raw.githubusercontent.com/Mitame/hackerrank-solutions/master/algorithms/warmup/save-the-prisoner.c
https://raw.githubusercontent.com/RodneyShag/HackerRank_solutions/master/General%20Programming/Basic%20Programming/Save%20the%20Prisoner!/Solution.java
https://raw.githubusercontent.com/gabrielgiordan/hackerrank/master/algorithms/implementation/save-the-prisoner.js
https://raw.githubusercontent.com/PaulNoth/hackerrank/master/practice/algorithms/implementation/save_the_prisoner/save_the_prisoner.rb
https://raw.githubusercontent.com/PaulNoth/hackerrank/master/practice/algorithms/implementation/save_the_prisoner/SaveThePrisoner.scala
https://raw.githubusercontent.com/witekbobrowski/HackerRank/master/Algorithms/Implementation/save-the-prisoner.swift
