https://raw.githubusercontent.com/ChrisPritchard/My-Exercism-Solutions/master/csharp/meetup/Meetup.cs
https://raw.githubusercontent.com/brianvanburken/exercism/master/elixir/meetup/meetup.exs
https://raw.githubusercontent.com/ChrisPritchard/My-Exercism-Solutions/master/fsharp/meetup/Meetup.fs
https://raw.githubusercontent.com/joaofnds/exercism/main/common-lisp/meetup/meetup.lisp
https://raw.githubusercontent.com/paulfioravanti/exercism/master/ruby/meetup/meetup.rb
https://raw.githubusercontent.com/MartinRosenberg/ScalaExercises/master/src/main/scala/com/martinbrosenberg/exercises/exercism/side/meetup/Meetup.scala
