https://medium.com/bugdecoder/google-xss-game-walkthrough-70d801dd922
https://www.lsablog.com/networksec/penetration/google-xss-game-solutionlevel-1-6/
http://blog.dornea.nu/2014/06/02/googles-xss-game-solutions/
https://www.youtube.com/watch?v=OOLz5kgKwmg
https://raw.githubusercontent.com/NotSurprised/XSSgame-Writeup/master/XSSGame%20Level%203.md
https://tuonilabs.wordpress.com/2016/12/27/google-xss-game/
https://gist.githubusercontent.com/Arinerron/19d75c81bcff5622bf6d4f2ff8e3829d/raw/46e67a9e69fa9b8f4684dda034f7c67098369c08/xss-game-solutions.txt
https://h4ck3rprotocol.wordpress.com/2015/06/11/answers-for-xss-game/
https://petircysec.com/google-xss-game-level-1-6/
https://devprogrammings.blogspot.com/2019/10/google-xss-game-area-solutions-of-all.html
https://raw.githubusercontent.com/sourabhv/xss-game-appspot/master/README.md
https://raw.githubusercontent.com/wywise/XSS-game/master/README.md
https://gist.githubusercontent.com/JannisKirschner/947b6d48058e2e2be17ec87436974b14/raw/ff586df0cdd13b59986e93df91d135287b334d83/google_xss_game-solutions.txt
https://raw.githubusercontent.com/arsho/xss_game/master/readme.md
https://gist.githubusercontent.com/adriaandens/722383ba4c717baf8007/raw/c8e0e9f59353c671b82c450f66929907cbd82b62/xss-game.md
https://gist.githubusercontent.com/antoinebrl/f7b4d7a1b4465a739d8b/raw/95c09f726c494d57df88d86883890334820e1bd3/GoogleXSSChallenge-Solutions.md
https://raw.githubusercontent.com/delda/XSS-Game-Google/master/README.md
https://medium.com/@sagarvd01/learning-xss-with-googles-xss-game-f44ff8ee3d8b
https://news.ycombinator.com/item?id=13021869
https://medium.com/@.Qubit/google-xss-game-walkthrough-3eaf04dc89a3
https://xss-game-solved.blogspot.com/
https://offsec-sureshatt.blogspot.com/2017/04/google-xss-game-solving-level-3.html
https://cyberlabonline.wordpress.com/tag/xss-game-by-google-solutions/
