https://blog.csdn.net/x728999452/article/details/52205510
https://chybeta.github.io/2017/08/23/Sqli-Labs-Less13-14-writeup/
https://www.cnblogs.com/lcamry/p/5763064.html
https://revoextremer.wixsite.com/revo/single-post/2015/06/26/-Solution-SQLi-Labs-Challenge-58-Double-Query-GET-
https://raw.githubusercontent.com/gr4vit0n/sqli-labs-solution/master/less14.py
https://www.hotbak.net/key/sqlilabsless11less14Xi4or0ujiCSDN%E5%8D%9A%E5%AE%A2.html
https://www.vvzixun.com/index.php/code/4330d699019154c65efbc68f750a335b
https://baynk.blog.csdn.net/article/details/88045603
https://www.0akarma.com/sqli-labs.html
https://specters.top/2019/01/29/sqli-labs%E9%9D%B6%E5%9C%BA%E7%BB%83%E4%B9%A0/
http://www.it165.net/database/html/201605/15655.html
https://www.fujieace.com/penetration-test/sqlilabs-1-22.html
https://blog.csdn.net/qq_21500173/article/details/51920968#less-14-double-injection-double-quotes-string
