https://forum.90sec.com/t/topic/29
https://skysec.top/2018/03/15/solveme-peng-kr-web/
https://blog.szfszf.top/tech/solve-me-writeup/
https://code1018.tistory.com/121
https://rootjonghyun.tistory.com/m/91
https://www.programmersought.com/article/76173894024/
