https://raw.githubusercontent.com/ailyanlu1/Codeforces-3/master/B-set/27B.Tournament.cpp
https://raw.githubusercontent.com/nomeaning777/codeforces/master/127B.rb
https://raw.githubusercontent.com/akgarhwal/Sports-Programming/master/Code-Forces/27B%20-%20Tournament__OK.txt
