https://raw.githubusercontent.com/B-Con/crypto-algorithms/master/md5.c
https://raw.githubusercontent.com/hlilje/sha-256/master/sha256.cpp
https://raw.githubusercontent.com/MerlotCode/CSharpAbbey/master/ArrayCounters/ArrayCounters.cs
https://raw.githubusercontent.com/pastelito02/Challenges-sol/master/Programming/Codeabbey/153/go_coder.go
https://raw.githubusercontent.com/ozan/solutions/master/4clojure/077-anagrams.hs
https://gist.githubusercontent.com/avilches/750151/raw/4734ffd504bc263f74c6154b2586a1dc268e4697/Sha.java
https://raw.githubusercontent.com/emn178/js-sha256/master/src/sha256.js
https://raw.githubusercontent.com/lt/php-cryptopals/master/Cryptopals/Set2/Challenge10/Solution10.php
https://raw.githubusercontent.com/manuhortet/CodewarsKatasPY3/caca3a2019be560045ec5d55961bdf9104a8910e/5%20kyu/ASCII%20hex%20converter.py
https://raw.githubusercontent.com/technion/matasano_challenge/master/set7/chal50/chal50.rb
