https://raw.githubusercontent.com/Cheshulko/Algorithms/master/Leetcode/Permutations.cpp
https://raw.githubusercontent.com/qqnc/leetcode-1/master/algorithms/permutations.rb
https://raw.githubusercontent.com/aylei/leetcode-rust/master/src/solution/s0046_permutations.rs
https://raw.githubusercontent.com/diwu/LeetCode-Solutions-in-Swift/master/Solutions/Solutions/Medium/Medium_046_Permutations.swift
