https://computersecuritystudent.com/SECURITY_TOOLS/DVWA/DVWAv107/lesson3/index.html
http://www.fuzzysecurity.com/tutorials/4.html
https://github.com/sheimo/DVWA-Answers#command-execution
https://www.webguvenligi.org/dergi/DamnVulnerableWebApp-Aralik2009-RyanDewhurst.pdf
https://www.homelab.it/index.php/2016/01/07/dvwa-command-injection-soluzione-completa/
https://redinfocol.org/dvwa-conociendo-y-explotando-diferentes-vulnerabilidades-level-low/
https://www.youtube.com/watch?v=wS2IIk_v9pk&t=0s&list=PLYG-FZ4DA0VpYLEoDWou8pu3xEyI5N-N2&index=3
https://www.youtube.com/watch?v=0ln7nsCQlaI
https://www.youtube.com/watch?v=ngYKuoJmAL4
https://www.youtube.com/watch?v=kHsEhUGpfa4
https://www.youtube.com/watch?v=iu3nbkATU9k&list=PLZUQcQP4Xtlp64Q6tzw8GdLsOweBsKDSs&index=3
https://chris-young.net/2018/03/28/dvwa-command-injection/
https://www.youtube.com/watch?v=AoMtDmYVGmQ
https://www.youtube.com/watch?v=2MHabXaRHL8
https://www.youtube.com/watch?v=W_IOens9uYA
https://www.youtube.com/watch?v=t2L3zrK9dgs
https://www.youtube.com/watch?v=PTPtl1vPFMg
https://www.youtube.com/watch?v=qF_Fvq4449I
https://www.youtube.com/watch?v=tQ4GTXlUi0c
https://www.youtube.com/watch?v=yTWAf_CtbGk
https://www.youtube.com/watch?v=NxSNTT627TQ
https://www.youtube.com/watch?v=s0kA71jbW6I
