https://0x00sec.org/t/metasploitable-1-walkthrough/3964
https://www.youtube.com/watch?v=zzXKifu0LQk
https://www.smeegesec.com/2012/06/backtrack-and-metasploitable-2-brute.html
https://www.hackingarticles.in/comprehensive-guide-on-metasploitable-2/
https://metaspolitable2.wordpress.com/2017/10/06/first-blog-post/
https://kush.com.fj/blog/posts/2018-07-27-metasploitable2-walkthrough/
https://www.youtube.com/watch?v=EsyhUBcKsGY
https://charlesreid1.com/wiki/Metasploitable/SSH/Brute_Force
https://www.youtube.com/watch?v=NdMI-o1E2Gs
https://www.tutorialspoint.com/metasploit/metasploit_brute_force_attacks.htm
http://www.techtrick.in/description/3517-hacking-brute-force-telnet-login-metasploit
https://www.hackingarticles.in/password-crackingtelnet/
https://null-byte.wonderhowto.com/how-to/brute-force-ftp-credentials-get-server-access-0208763/
https://morrisettsecurity.com/2020/05/30/red-team-showcase/
https://null-byte.wonderhowto.com/how-to/gain-ssh-access-servers-by-brute-forcing-credentials-0194263/
https://www.hackingtutorials.org/metasploit-tutorials/metasploitable-2-enumeration/
