https://github.com/babbadeckl/HackTheBox-Writeups/tree/master/Academy
https://github.com/Purp1eW0lf/HackTheBoxWriteups/blob/master/Retired%20Machines/Academy.pdf
https://github.com/Hackplayers/hackthebox-writeups/blob/master/machines/Academy/academy-HTB-WU-noraj.pdf
