https://github.com/njk464/pwnable.kr/blob/master/fd.sol
https://github.com/smholsen/pwnable.kr/blob/master/1-fd/readme.md
https://gist.github.com/ihciah/0ca68da3e32e38818bb9#1-fd
https://www.youtube.com/watch?v=QjYSaRKew64
https://www.youtube.com/watch?v=Nmoi9UoiuBM
https://www.youtube.com/watch?v=971eZhMHQQw
https://www.abatchy.com/2017/09/pwnable-kr-fd
https://jaimelightfoot.com/blog/pwnable-kr-fd-walkthrough/
https://raw.githubusercontent.com/smholsen/pwnable.kr/master/1-fd/readme.md
https://0xrick.github.io/pwn/fd/
https://dev.to/aibhstin/write-up-pwnable-kr-fd-2613
https://blog.fabrykowski.pl/pwnable-fd-en.html
https://hackmd.io/@duckie/S1Pkv-qXv
https://www.rootnetsec.com/pwnable.kr-fd/
https://github.com/victor-li/pwnable.kr-write-ups/blob/master/mistake.md
https://n7sec.com/pwnable.kr/2018/10/08/pwnable-challenge-fd.html
