https://snowscan.io/htb-writeup-blunder/#
https://hackso.me/blunder-htb-walkthrough/
https://iammainul.medium.com/hackthebox-blunder-walkthrough-720114990283
https://www.secjuice.com/htb-blunder-walkthrough/
https://0xw0lf.github.io/hackthebox/2020/10/17/HTB-Blunder/
https://resources.infosecinstitute.com/topic/hack-the-box-htb-walkthrough-blunder/
https://raw.githubusercontent.com/diego95root/HackTheBox/master/Blunder/README.md
https://github.com/MrTiz/HackTheBox-Writeups/blob/master/Machines/Blunder/MrTiz_Blunder_italian.pdf
https://github.com/Hackplayers/hackthebox-writeups/blob/master/machines/Blunder/IceL0rd-Blunder.pdf
https://github.com/Hackplayers/hackthebox-writeups/blob/master/machines/Blunder/blunder-HTB-WU-noraj.pdf
https://github.com/Hackplayers/hackthebox-writeups/blob/master/machines/Blunder/kaosam-Blunder.pdf
https://fwhibbit.es/htb-writeup-blunder
https://github.com/Purp1eW0lf/HackTheBoxWriteups/blob/master/Retired%20Machines/Blunder.pdf
