https://eveaboutcom.tistory.com/33
https://jumpjetinc.blogspot.com/2019/10/picoctf-2019-open-to-admins-walkthrough.html
https://owlsuly.blogspot.com/2019/10/open-to-admins-picoctf-2019.html
https://raw.githubusercontent.com/0e85dc6eaf/CTF-Writeups/master/PicoCTF%202019/Web%20Exploitation/Open-to-admins/README.md
https://raw.githubusercontent.com/Dvd848/CTFs/master/2019_picoCTF/Open-to-admins.md
https://www.youtube.com/watch?v=6pQhrlo5Xbc
https://www.youtube.com/watch?v=gp8-RMeHH5o
https://www.youtube.com/watch?v=xT6EP3iEjSQ
