https://www.youtube.com/watch?v=o4-eYudGNl0
https://github.com/cure53/XSSChallengeWiki/wiki/prompt.ml#level-1
https://www.youtube.com/watch?v=8j2TsUI0YuE
https://medium.com/@app.sec1900/solutions-for-first-5-promt-ml-challenges-19a05502c6f
https://blog.0daylabs.com/2016/06/18/prompt-ml-XSS-challenge-writeup/
https://www.youtube.com/watch?v=lk9w22NqLyY
https://www.youtube.com/watch?v=Cwv6m0mCyDs
