https://raw.githubusercontent.com/mmetalmaster/hackthebox/master/stego/digital-cube/README.md
https://www.youtube.com/watch?v=FFVkUGItDMg
https://in4blu3.wordpress.com/2019/05/15/htbstego-da-vinci/
https://raw.githubusercontent.com/jmlgomez73/Stego-Challenges-HackTheBox-Write-Ups/main/Digital%20Cube/README.md
https://github.com/carlospolop/hackthebox-machines-challenges-SirBroccoli/blob/master/challenges/stego/SirBroccoli-Digital%20Cube.pdf
