https://techvomit.net/railsgoat-notes/
https://appsecco.com/books/owasp-railsgoat/command-injection.html
http://vapid.dhs.org/blog/03-19-2015/
https://packetstormsecurity.com/files/146600/ClipBucket-SQL-Injection-Command-Injection-File-Upload.html
https://outpost24.com/blog/from-local-file-inclusion-to-remote-code-execution-part-2
https://rorsecurity.info/portfolio/command-injection-in-rails
https://github.com/OWASP/railsgoat/wiki/A1-Command-Injection#command-injection---solution
https://medium.com/@u0x/marshall-unserialization-exploit-for-ruby-on-rails-5-1-4-979475cfdba0
https://github.com/OWASP/railsgoat/wiki/A1-Command-Injection
