18
30939269335276755752599
70542276912119908563683
30542990501070864738245
30180029436013545779689
90668339652399947892785
90377870022727936643879
10554112870693480545161
90723707961999868564015
60998917056592654430161
80716885318830256678447
20778701379976184522749
50330570412810184028541
70891076823639578113327
70344452305513385069485
10782355894393623320513
40615055636846885143201
10132869121360915556129
30718898702116166536387
