https://raw.githubusercontent.com/historicalsource/leisuresuitlarry/master/RM6.CG
https://gist.githubusercontent.com/birdsman/5156419/raw/084abe20a85ce4a672cb23a787de038cdfba25cc/%25206D%2520-%2520Lizards%2520and%2520Basements%25202%2520.cpp
https://raw.githubusercontent.com/0JAdams/JavaCodeForcesSolutions/master/6D/Main.java
