https://raw.githubusercontent.com/p1o2p3u1/WeChall/master/Training/PHP_LFI.md
https://raw.githubusercontent.com/BirkhoffLee/wechall/master/exploit/Training%20PHP%20LFI/README.md
https://raw.githubusercontent.com/stefanoschrs/wechall/master/Exploit/Exploit%20-%20PHP%20-%20Register%20Globals
https://raw.githubusercontent.com/lc4t/OtherFiles/master/md/WeChall.md
