https://raw.githubusercontent.com/Dalimil/ProjectEuler/master/Project_Euler_Solutions/Problem_%2308_Largest_product_in_a_series.cpp
https://raw.githubusercontent.com/PaulNoth/hackerrank/master/contest/project_euler%2B/008_largest_product_in_a_series/LargestProduct.java
https://raw.githubusercontent.com/raghav97/Hackerrank-Solutions/master/project_euler_008.rb
