https://raw.githubusercontent.com/hangim/ACM/master/Codeforces/12B_Correct%20Solution/12B.cc
https://raw.githubusercontent.com/marioyc/Online-Judge-Solutions/master/Codeforces/12B.cpp
https://raw.githubusercontent.com/nomeaning777/codeforces/master/12B.rb
