https://raw.githubusercontent.com/zimpha/competitive-programming/master/project-euler/volume01/26.cc
https://raw.githubusercontent.com/mishadoff/project-euler/master/src/project_euler/problem026.clj
https://raw.githubusercontent.com/DestructHub/ProjectEuler/master/Problem026/C%2B%2B/solution_1.cpp
https://raw.githubusercontent.com/nayuki/Project-Euler-solutions/master/haskell/p026.hs
https://raw.githubusercontent.com/nayuki/Project-Euler-solutions/master/java/p026.java
https://raw.githubusercontent.com/kdungs/euler/master/026/euler_26.py
https://raw.githubusercontent.com/sile/euler.rs/master/euler_01/src/problem026.rs
