https://medium.com/challenges-htb/como-resolver-took-the-byte-htb-8c26d75df503
https://www.youtube.com/watch?v=noihyNGzlO4
https://www.youtube.com/watch?v=6hBU1inu3aA
https://www.youtube.com/watch?v=Kj9vJbWU8tA
https://www.thedigitalforensics.com/blog/hack-the-box-took-the-byte
https://byte-mind.net/hackthebox-forensic-challenge-took-the-byte/
https://www.petermstewart.net/hack-the-box-took-the-byte-forensics-challenge/
https://securitybyexpert.com/took-the-byte-forensics-challenges-hackthebox/
https://enaljammaz.blogspot.com/
https://www.vanderziel.org/2019/07/30/hackthebox-took-the-byte/
https://www.youtube.com/watch?v=63FoGnkTkE0
