https://chybeta.github.io/2017/08/23/Sqli-Labs-Less15-16-writeup/
https://github.com/WangYihang/sqli-labs/blob/master/writeup/Lesson-16.md
http://dummy2dummies.blogspot.com/2012/09/sqli-labs-series-part-16-sql-injection.html
https://flag0.com/2019/10/05/sqli-lib/
https://blog.csdn.net/Fly_hps/article/details/80279794
https://blog.csdn.net/Fly_hps/article/details/80279757
https://www.cnblogs.com/lcamry/p/5763050.html
https://www.itdaan.com/tw/9cf8fd880172889c85fd5ffc5f83de03
https://www.sketchplane.top/2019/10/08/SQLI%E5%AD%A6%E4%B9%A0%E8%AE%B0%E5%BD%95/
https://damit5.com/2018/05/11/%E9%80%9A%E8%BF%87-sqli-labs-%E5%AD%A6%E4%B9%A0SQL%E6%B3%A8%E5%85%A5/
http://www.luyixian.cn/news_show_25233.aspx
