https://raw.githubusercontent.com/rdtsc/codeeval-solutions/master/src/easy/matrix-rotation/solutions/c/solution.c
https://raw.githubusercontent.com/rdtsc/codeeval-solutions/master/src/easy/matrix-rotation/solutions/c%2B%2B/solution.cpp
https://raw.githubusercontent.com/joshimoo/Challenges/master/CodeEval/Easy/MatrixRotation/MatrixRotation.cs
https://raw.githubusercontent.com/fabriziocucci/CodeEval/master/easy/matrix-rotation/java/src/main/java/Main.java
https://raw.githubusercontent.com/rdtsc/codeeval-solutions/master/src/easy/matrix-rotation/solutions/javascript/solution.js
https://raw.githubusercontent.com/rdtsc/codeeval-solutions/master/src/easy/matrix-rotation/solutions/php/solution.php
https://raw.githubusercontent.com/mpillar/codeeval/master/0-easy/matrix-rotation/main.py
