https://raw.githubusercontent.com/zhoukq/leetcode/master/Partition%20List.cpp
https://raw.githubusercontent.com/codeyu/LeetCode/master/Algorithms/PartitionList.cs
https://raw.githubusercontent.com/wumansgy/LeetCode-in-Go/master/Algorithms/0086.partition-list/partition-list.go
https://raw.githubusercontent.com/ericpony/leetcode/master/Partition%20List.java
https://raw.githubusercontent.com/zhufuge/leetcode-js/master/problems/0086-partition-list.js
https://raw.githubusercontent.com/topwu/leetkotlin/master/src/main/kotlin/leetcode/PartitionList.kt
https://raw.githubusercontent.com/HLNN/leetcode/master/src/0086-partition-list/partition-list.py
https://raw.githubusercontent.com/harrifeng/leetcode-2/master/algorithms/partition_list.rb
https://raw.githubusercontent.com/soapyigu/LeetCode-Swift/master/LinkedList/PartitionList.swift
