37 23
1111111111111111111011111011111110101
0000001010101000100010000010100000101
1010111010101011101011101110111111111
1010100000001010101000100010001000001
1111101010101010111010111011101011111
0000101010100010001010100010101000001
1111101110111110111011111110101110111
0000001000001000001010001000101010000
1110111111101011101011101011101011101
1000100000101010001000101000000000001
1011111011101110111011101011111010111
1010000000101010001010000010101010001
1011101111101010111011111110101010111
1010000000101010001000000000101010100
1110101011111011101011101110101111111
1010101000100000001010001010000000001
1011111011111010101110101010111111111
0010000010001010101000101000101000101
1011111010101011101111101011101011101
1010000010101010100010101010001010001
1111111011101110111010111110111011101
1000001000100010101000101000100000101
1110111110101110101110101110111110101
