https://raw.githubusercontent.com/fuwutu/CodeForces/master/9A%20-%20Die%20Roll.cpp
https://raw.githubusercontent.com/Chris-Perkins/CodeForces-Solutions/master/Programs/9A%20-%20Die%20Roll/9a.py
https://raw.githubusercontent.com/nomeaning777/codeforces/master/9A.rb
https://raw.githubusercontent.com/Waqar-107/Codeforces/master/A-set/1093A.Dice%20Rolling
