https://raw.githubusercontent.com/Metalnem/cryptopals-go/master/challenge50.go
https://raw.githubusercontent.com/ilchen/cryptopals/master/src/main/java/com/cryptopals/Set7.java
https://raw.githubusercontent.com/Metalnem/cryptopals-go/master/challenge50.js
https://raw.githubusercontent.com/lt/php-cryptopals/master/Cryptopals/Set7/Challenge50/Solution50.php
https://raw.githubusercontent.com/akalin/cryptopals-python3/master/challenge50.py
https://raw.githubusercontent.com/technion/matasano_challenge/master/set7/chal50/chal50.rb
