https://scrapbox.io/kayuminbou/alert_1337_to_win_level_3
https://diego.com.es/ataques-xss-cross-site-scripting-en-php
https://www.cnblogs.com/hack404/p/10387854.html
https://blog.csdn.net/weixin_30897079/article/details/97314476
