https://raw.githubusercontent.com/rdtsc/codeeval-solutions/master/src/easy/self-describing-numbers/solutions/c/solution.c
https://raw.githubusercontent.com/rdtsc/codeeval-solutions/master/src/easy/self-describing-numbers/solutions/c%2B%2B/solution.cpp
https://raw.githubusercontent.com/koshkarov/solutions-for-codeeval-tasks/master/SelfDescribingNumbers.cs
https://gist.githubusercontent.com/yuheiomori/7366361/raw/4136c8ef7502e3e7e54dde92d6e4e1ba9ef2b819/main.go
https://raw.githubusercontent.com/edeng/CodeEval/master/Easy/SelfDescribingNumbers.java
https://raw.githubusercontent.com/pascal-bourut/codeeval-challenges/master/easy/40%20-%20Self%20Describing%20Numbers/40.js
https://raw.githubusercontent.com/pascal-bourut/codeeval-challenges/master/easy/40%20-%20Self%20Describing%20Numbers/40.php
https://raw.githubusercontent.com/leaen/Codeeval-solutions/master/self-describing-numbers.py
https://gitlab.com/agaskell/codeeval/-/raw/master/40/40.rb
https://raw.githubusercontent.com/jawshooah/codeeval/master/easy/self-describing-numbers/SelfDescribingNumbers.scala
