https://raw.githubusercontent.com/mpillar/codeeval/master/1-moderate/endianness/main.cpp
https://raw.githubusercontent.com/mpillar/codeeval/master/1-moderate/endianness/Endianness.java
https://raw.githubusercontent.com/StevenDunn/CodeEval/master/Endianness/py2/endian.py
