https://raw.githubusercontent.com/realsamizain/Assembly-Find-max-and-Min-number-from-Array/master/60202075.asm
https://raw.githubusercontent.com/lllllll-llll-llllll/codeabbey_autoit/master/04.au3
https://gist.githubusercontent.com/jamerfort/4164638/raw/af5f56c329210b82c03c67073a7b6cd9d8ae8641/min.awk
https://raw.githubusercontent.com/phuclevinh2000/CodeAbbey/master/Minimum%20of%20Two.c
https://gist.githubusercontent.com/fasiha/fe48122fff3efa7f41c06968f11c9e64/raw/0eb99471b89efa0f169b65f57ca1e92f8d33ba16/example.clj
https://raw.githubusercontent.com/spokenlore/CodeAbbey/master/Beginner/4.%20minOfTwo/minOfTwo.cpp
https://raw.githubusercontent.com/Tempurturtul/CodeAbbey/master/C%23/MinOfTwo.cs
https://raw.githubusercontent.com/pastelito02/Challenges-sol/master/Programming/Codeabbey/004/yozhikv10.d
https://gist.githubusercontent.com/hhimanshu/311232844dc3a4c764e3/raw/7af75a6db26625f14f8603746e8ad1c5a0439aa8/recursive.erl
https://raw.githubusercontent.com/scivision/fortran2018-examples/main/array/rot90.f90
https://raw.githubusercontent.com/skilled19/sols/master/siloimwald-04-min-of-two.fs
https://raw.githubusercontent.com/vinitkantrod/go-codeabbey/master/04_min_of_two/main.go
https://raw.githubusercontent.com/pastelito02/Challenges-sol/master/Programming/Codeabbey/004/allthetime.hs
https://raw.githubusercontent.com/skial/min-max/master/src/be/Constant.hx
https://raw.githubusercontent.com/echubaty/Hack-a-Sketch/master/HackASketch/HackASketch.ino
https://raw.githubusercontent.com/bkawan/codeabbey_python/master/problem-4.ipynb
https://raw.githubusercontent.com/meganroche/CodeAbbeySolutions/master/Java/MinimumTwo.java
https://raw.githubusercontent.com/pastelito02/Challenges-sol/master/Programming/Codeabbey/004/synesius.jl
https://raw.githubusercontent.com/jsenne/Code-Abbey-Solutions/master/004_MinimumOfTwo.js
https://raw.githubusercontent.com/peiandsky/codeabbeyByKotlin/master/src/problems01_10/Problem04_MinimumofTwo.kt
https://raw.githubusercontent.com/chriswood/codeabbey/master/ca4.lisp
https://raw.githubusercontent.com/pastelito02/Challenges-sol/master/Programming/Codeabbey/004/pach092.lua
https://raw.githubusercontent.com/pastelito02/Challenges-sol/master/Programming/Codeabbey/004/stefan.schmiedl.ml
https://raw.githubusercontent.com/sergey144010/php-code-abbey/master/CodeAbbey/4-MinimumOfTwo.php
https://raw.githubusercontent.com/MadcapJake/codeabbey-problems/master/perl6/min-of-two/min-of-two.pl
https://raw.githubusercontent.com/exercism/pony/main/exercises/practice/hello-world/example.pony
https://raw.githubusercontent.com/marclerodrigues/ruby_exercises/master/min_of_two.rb
https://raw.githubusercontent.com/red/red/master/tests/align-test.red
https://gitlab.com/CodeArtisan/codeabbey/raw/master/problem_4/solution.rkt
https://raw.githubusercontent.com/YetAnotherMinion/YAMScratch/master/CodeAbbey/rust-sol/src/4.rs
https://raw.githubusercontent.com/mmcdon20/code_abbey/master/src/main/scala/Abbey004.scala
https://raw.githubusercontent.com/JosefZIla/bash2048/master/bash2048.sh
https://raw.githubusercontent.com/devMEremenko/Coding-Challenges/master/Swift/Algorithms/BFS%2BDFS/BFS%2BTree.swift
https://raw.githubusercontent.com/mike-works/typescript-fundamentals/master/challenges/address-book/test/address-book.test.ts
https://raw.githubusercontent.com/vlang/v/master/examples/2048/2048.v
https://raw.githubusercontent.com/wyvernlang/wyvern/master/examples/introductory/algebra.wyv
https://raw.githubusercontent.com/emojicode/emojicode/master/s/%F0%9F%8D%A1.%F0%9F%8D%87
