https://raw.githubusercontent.com/MaskRay/HackerRank/master/red-john-is-back.cc
https://raw.githubusercontent.com/BlakeBrown/HackerRank-Solutions/master/Algorithms/Dynamic%20Programming/Red%20John%20is%20Back.cpp
https://raw.githubusercontent.com/sherifkandeel/hackerrank/master/Algorithms/Dynamic_Programming/Medium/red_john_is_back.py
