https://raw.githubusercontent.com/shortthirdman/code-eval-challenges/master/easy/calculate_distance.bash
https://raw.githubusercontent.com/rdtsc/codeeval-solutions/master/src/easy/calculate-distance/solutions/c/solution.c
https://raw.githubusercontent.com/rdtsc/codeeval-solutions/master/src/easy/calculate-distance/solutions/c%2B%2B/solution.cpp
https://raw.githubusercontent.com/AvetisG/CodeEval/master/01%20-%20Easy/C%23/FindAWriter/FindAWriterSolution.cs
https://gitlab.com/agaskell/codeeval/-/raw/master/99/99.go
https://raw.githubusercontent.com/jonyamo/CodeEval/master/haskell/src/CalculateDistance.hs
https://raw.githubusercontent.com/Aadeshp/Codeeval-Solutions/29af977f30e6c5e5823e1e34ecd6de3c77506682/Easy/Calculate_Distance.java
https://raw.githubusercontent.com/pascal-bourut/codeeval-challenges/master/easy/99%20-%20Calculate%20distance/99.js
https://raw.githubusercontent.com/shortthirdman/code-eval-challenges/master/easy/calculate_distance.lua
https://raw.githubusercontent.com/pascal-bourut/codeeval-challenges/master/easy/99%20-%20Calculate%20distance/99.php
https://raw.githubusercontent.com/shortthirdman/code-eval-challenges/master/easy/calculate_distance.pl
https://raw.githubusercontent.com/rdtsc/codeeval-solutions/master/src/easy/calculate-distance/solutions/python/solution.py
https://raw.githubusercontent.com/shortthirdman/code-eval-challenges/master/easy/calculate_distance.r
https://gitlab.com/agaskell/codeeval/-/raw/master/99/99.rb
https://raw.githubusercontent.com/shortthirdman/code-eval-challenges/master/easy/calculate_distance.scala
https://raw.githubusercontent.com/shortthirdman/code-eval-challenges/master/easy/calculate_distance.scmgl
