https://github.com/Offliners/CTFlearn-writeup/blob/master/FORENSICS/WOW%20So%20Meta/README.md
https://raw.githubusercontent.com/rishitsaiya/CTFlearn-Writeups/master/Forensics/WOW....%20So%20Meta/README.md
https://raw.githubusercontent.com/EladBeber/CTFlearn-Writeups/master/Forensics/Easy/WOW....%20SO%20META/README.md
