https://raw.githubusercontent.com/AvetisG/CodeEval/master/01%20-%20Easy/C%23/WorkingExperience/WorkingExperienceSolution.cs
https://raw.githubusercontent.com/mneudert/codeeval/master/easy/working-experience/js.js
https://raw.githubusercontent.com/pascal-bourut/codeeval-challenges/master/easy/139%20-%20Working%20experience/139.php
https://raw.githubusercontent.com/mpillar/codeeval/master/0-easy/working-experience/main.py
https://raw.githubusercontent.com/unrealities/code-eval/master/easy/139_WorkingExperience/ruby/lib/working_experience.rb
