https://gist.githubusercontent.com/yuheiomori/11316963/raw/7635c22d51796639818607f65e79c55bba513ff2/prime_palindrome.c
https://raw.githubusercontent.com/rdtsc/codeeval-solutions/master/src/easy/prime-palindrome/solutions/c%2B%2B/solution.cpp
https://gist.githubusercontent.com/fuzeman/5711942/raw/593eebafb8dce5463815509a839728f810571e0c/primepalindrome.cs
https://gitlab.com/banjocat/codeeval_solutions/-/raw/master/3/main.go
https://raw.githubusercontent.com/mpillar/codeeval/master/0-easy/prime-palindrome/PrimePalindrome.java
https://raw.githubusercontent.com/rdtsc/codeeval-solutions/master/src/easy/prime-palindrome/solutions/javascript/solution.js
https://raw.githubusercontent.com/AnEmortalKid/codeeval-lua/master/src/main/lua/com/anemortalkid/codeeval/lua/easy/primepalindrome/prime_palindrome_main.lua
https://raw.githubusercontent.com/rdtsc/codeeval-solutions/master/src/easy/prime-palindrome/solutions/php/solution.php
https://raw.githubusercontent.com/rdtsc/codeeval-solutions/master/src/easy/prime-palindrome/solutions/python/solution.py
https://gitlab.com/agaskell/codeeval/-/raw/master/3/3.rb
https://raw.githubusercontent.com/gabeio/codeeval-rust/master/prime-palindrome/pp.rs
