https://www.youtube.com/watch?v=nTlIKTRzl54
https://www.youtube.com/watch?v=IMfLkRH4YlM
https://alexandervoidstar.wordpress.com/2015/07/05/hackthis-main-level-6/
https://obilan.be/hackthis-solution-main-level-6/
