https://raw.githubusercontent.com/stbrumme/euler/master/euler-0075.cpp
https://raw.githubusercontent.com/nayuki/Project-Euler-solutions/master/java/p075.java
https://raw.githubusercontent.com/sile/euler.rs/master/euler_02/src/problem075.rs
