https://raw.githubusercontent.com/dburl/Codeforces/master/48/B/main.cpp
https://raw.githubusercontent.com/Waqar-107/Codeforces/master/B-set/48B.Land%20Lot.py
https://raw.githubusercontent.com/nomeaning777/codeforces/master/48B.rb
