https://www.doyler.net/security-not-included/knock-knock-1-1-walkthrough
http://fourfourfourfour.co/2014/10/26/knock-knock-whos-there/
https://blog.knapsy.com/blog/2014/10/16/knock-knock-vm-walkthrough/
https://barrebas.github.io/blog/2014/10/16/rop-rop-for-knock-knock/
https://leonjza.github.io/blog/2014/10/14/knock-knock-whos-there-solving-knock-knock/
https://barrebas.github.io/blog/2014/10/14/knock-knock-knocking-on-roots-door/
