https://raw.githubusercontent.com/BlakeBrown/HackerRank-Solutions/master/Algorithms/Graph%20Theory/Dijkstra's%20SSSP%20-%20Shortest%20Reach%202.cpp
https://raw.githubusercontent.com/alexprut/HackerRank/master/Algorithms/Graph%20Theory/Dijkstra%3A%20Shortest%20Reach%202/Solution.java
https://raw.githubusercontent.com/petrkohut/hackerrank-javascript/master/algorithms/graph-theory/dijkstra-shortest-reach-2.js
