https://raw.githubusercontent.com/hangim/ACM/master/Codeforces/13A_Numbers/13A.cc
https://raw.githubusercontent.com/svanegas/programming_solutions/master/Codeforces/13A%20-%20Numbers/13A.cpp
https://raw.githubusercontent.com/o-panda-o/MySolutions/master/Number%20Theory/Code_13A_Numbers.java
https://raw.githubusercontent.com/girijamanoj/Pr0b13m_S01v1n9/master/Codeforces/A/13A.py
