https://raw.githubusercontent.com/NoSoul/CodeForces/master/108A.c
https://raw.githubusercontent.com/fuwutu/CodeForces/master/108A%20-%20Palindromic%20Times.cpp
https://raw.githubusercontent.com/anilvedala/codeforces/master/108A.java
https://raw.githubusercontent.com/changyuheng/codeforces-solutions/master/108a.py
