https://medium.com/@D00MFist/vulnhub-bsides-vancouver-2018-workshop-76b5db318eff
https://www.youtube.com/watch?v=SerBliNAh1k
https://www.youtube.com/watch?v=1nL19pnTVZM
https://www.youtube.com/watch?v=G34AG6E_waA
https://www.youtube.com/watch?v=8rB00zwrgqk
