https://raw.githubusercontent.com/leeychee/hackerrank/master/practice/algorithms/implementation/minimum_distances/main.go
https://raw.githubusercontent.com/charles-wangkai/hackerrank/master/minimum-distances/Solution.java
https://raw.githubusercontent.com/gabrielgiordan/hackerrank/master/algorithms/implementation/minimum-distances.js
https://raw.githubusercontent.com/danhenriquesc/hackerrank/master/algorithms/implementation/minimum_distances.php
https://raw.githubusercontent.com/witekbobrowski/HackerRank/master/Algorithms/Implementation/minimum-distances.swift
