https://github.com/james9909/PracticeCTF/blob/master/WeChall/Get-Sourced/Solution.txt
https://raw.githubusercontent.com/james9909/PracticeCTF/master/WeChall/Get-Sourced/Solution.txt
https://raw.githubusercontent.com/lc4t/OtherFiles/master/md/WeChall.md
http://byd.dropsec.xyz/2016/03/04/WeChall_writeup/#Training：Get-Sourced
https://medium.com/secttp/wechall-training-get-sourced-training-5adfcffc7e52
