https://raw.githubusercontent.com/NoSoul/CodeForces/master/103A.c
https://raw.githubusercontent.com/DionysiosB/CodeForces/master/100-199/103A-TestingPantsForSadness.cpp
https://raw.githubusercontent.com/kopok2/CodeforcesSolutionsPython/master/src/103A/cdf_103A.py
https://raw.githubusercontent.com/nomeaning777/codeforces/master/103A.rb
