https://rundata.wordpress.com/2013/03/21/overthewire-bandit-wargame-solutions-1-24/
https://www.yalpski.net/bandit-wargame/bandit-walkthrough-level-10
https://alexandervoidstar.wordpress.com/2016/02/07/overthewire-bandit-level-10/
https://raw.githubusercontent.com/Cathon/mySolutions/master/overthewire/Bandit/Level_10.md
https://medium.com/@Kan1shka9/overthewire-wargames-bandit-walkthrough-df2b86826c67
https://github.com/milescrabill/overthewire-solutions/blob/master/Bandit.md#level-10
https://www.youtube.com/watch?v=3sNYqB31N0A
https://www.youtube.com/watch?v=34_DDIAkxdY
https://www.youtube.com/watch?v=NReJMvYLWQI
https://raw.githubusercontent.com/Lorenyx/OverTheWire-Solutions/master/bandit/level_10.md
