https://sevenlayers.com/index.php/377-vulnhub-colddbox-easy-walkthrough
https://www.hacknos.com/c0lddbox-vulnhub-walkthrough/
https://www.youtube.com/watch?reload=9&v=vK2aqs3dQKA
https://www.infosecarticles.com/colddbox-easy-vulnhub-walkthrough/
