https://raw.githubusercontent.com/mementum/codeeval/master/03-hard/0086-poker-hands/0086-poker-hands.cpp
https://raw.githubusercontent.com/pascal-bourut/codeeval-challenges/master/hard/86%20-%20Poker%20hands/86.js
https://raw.githubusercontent.com/pascal-bourut/codeeval-challenges/master/hard/86%20-%20Poker%20hands/86.php
https://raw.githubusercontent.com/mpillar/codeeval/master/2-hard/poker-hands/main.py
https://raw.githubusercontent.com/antarr/CodeEval-Solutions/master/hard/poker.rb
