https://raw.githubusercontent.com/giladbu/Levenshtein-Distance/master/levenshtein_distance.java
https://raw.githubusercontent.com/pascal-bourut/codeeval-challenges/master/hard/58%20-%20Levenshtein%20Distance/58.js
https://raw.githubusercontent.com/pascal-bourut/codeeval-challenges/master/hard/58%20-%20Levenshtein%20Distance/58.php
https://raw.githubusercontent.com/giladbu/Levenshtein-Distance/master/faster_levenshtein_distance.rb
https://raw.githubusercontent.com/rickychang/code-eval-scala/master/levenshtein-distance/src/main/scala/Main.scala
