https://pentester.land/challenge/2018/07/10/owasp-broken-web-apps-owasp-bricks-challenge-walkthrough.html#login-2
https://sechow.com/bricks/docs/login-2.html
https://www.youtube.com/watch?v=nZYejElQxhk
https://www.youtube.com/watch?v=7TkRBREYn6Y
https://www.youtube.com/watch?v=gOR4Wv9dZ10
https://www.youtube.com/watch?v=UvgmaiT8n9E
https://www.youtube.com/watch?v=61hs5qe3-wc
https://www.youtube.com/watch?v=tsDClYorsXI
https://www.note4tech.com/post/sql-injection-tutorial-login-bypass
https://www.youtube.com/watch?v=E5LLdCg7_wc&ab_channel=%2Fdev%2Fnull
https://www.youtube.com/watch?v=TSqXkkOt6oM&ab_channel=TutorialsPoint%28India%29Ltd.
https://portswigger.net/support/using-sql-injection-to-bypass-authentication
http://www.securityidiots.com/Web-Pentest/SQL-Injection/bypass-login-using-sql-injection.html
https://medium.com/@sachithsujeewa/lets-learn-sql-injection-and-bypass-login-80fe7dcc41d0
https://antrax-labs.org/sqli-login-bypass/
https://security.stackexchange.com/questions/183607/simple-sql-injection-to-bypass-login-in-mariadb/183639
https://www.geeksforgeeks.org/authentication-bypass-using-sql-injection-on-login-page/
