https://raw.githubusercontent.com/Cheshulko/Algorithms/master/Leetcode/RotateImage.cpp
https://raw.githubusercontent.com/zjbztianya/LeetCode/master/Algorithms/0048.rotate-image/rotate-image.go
https://raw.githubusercontent.com/agermain/Leetcode/master/solutions/048-rotate-image/rotate-image.java
https://raw.githubusercontent.com/yulongwang12/LeetCode/master/Python/rotate-image.py
https://raw.githubusercontent.com/aylei/leetcode-rust/master/src/solution/s0048_rotate_image.rs
https://raw.githubusercontent.com/diwu/LeetCode-Solutions-in-Swift/master/Solutions/Solutions/Medium/Medium_048_Rotate_Image.swift
