https://raw.githubusercontent.com/lllllll-llll-llllll/codeabbey_autoit/master/55.au3
https://gist.githubusercontent.com/lvidakovic/5859203/raw/0ae94b7787e655673723626885e1f300d16c3c7c/bf.c
https://raw.githubusercontent.com/pastelito02/Challenges-sol/master/Programming/Codeabbey/055/aplavrov.cc
https://raw.githubusercontent.com/gravoo/codeabbey/master/Matching%20Words%20.cpp
https://raw.githubusercontent.com/acoustep/fuzzy_match.cr/master/src/fuzzy_match.cr
https://raw.githubusercontent.com/AleksandrSD/CodeAbbeyProblems/master/Problem55/Program.cs
https://raw.githubusercontent.com/pastelito02/Challenges-sol/master/Programming/Codeabbey/055/Ratzenfutz.d
https://raw.githubusercontent.com/inaka/erlang_guidelines/master/src/pattern_matching.erl
https://raw.githubusercontent.com/sage-git/regex-fortran/master/regex.f90
https://gist.githubusercontent.com/pragdave/68f56f8d9e36605ce44a7b0e1cb22203/raw/d28bdca228d6959d3f825b98193dd9fec09ad5ba/anagram.fs
https://raw.githubusercontent.com/pastelito02/Challenges-sol/master/Programming/Codeabbey/055/istudent.go
https://raw.githubusercontent.com/pastelito02/Challenges-sol/master/Programming/Codeabbey/055/wargarbl.hs
https://raw.githubusercontent.com/KlaudioVito/CodeAbbey/master/MatchingWords.java
https://raw.githubusercontent.com/martincruzot/er-generator/gh-pages/js/app.js
https://raw.githubusercontent.com/Kurinnyi/Kotlin-Pattern-Matching/master/src/main/kotlin/ua/kurinnyi/kotlin/patternmatching/PatternMatching.kt
https://raw.githubusercontent.com/pastelito02/Challenges-sol/master/Programming/Codeabbey/055/gerhardt_funk.lisp
https://raw.githubusercontent.com/pastelito02/Challenges-sol/master/Programming/Codeabbey/055/memstick.lua
https://raw.githubusercontent.com/bemoregt/octaveHistogramMatching/master/histogramMatching.m
https://raw.githubusercontent.com/ocaml/ocaml-re/master/lib/category.ml
https://raw.githubusercontent.com/pastelito02/Challenges-sol/master/Programming/Codeabbey/055/pchelkin.php
https://raw.githubusercontent.com/pastelito02/Challenges-sol/master/Programming/Codeabbey/055/pearl_barley.pl
https://raw.githubusercontent.com/ValeWasTaken/CodeAbbey_Solutions/master/Python/id055-Matching_Words.py
https://raw.githubusercontent.com/pastelito02/Challenges-sol/master/Programming/Codeabbey/055/OneohThreeE.rb
https://raw.githubusercontent.com/compenguy/ngrammatic/master/src/lib.rs
https://raw.githubusercontent.com/mmcdon20/code_abbey/master/src/main/scala/Abbey055.scala
https://raw.githubusercontent.com/gvergnaud/ts-pattern/master/src/index.ts
https://raw.githubusercontent.com/pastelito02/Challenges-sol/master/Programming/Codeabbey/055/Guy-Gervais.vb
