https://raw.githubusercontent.com/gavin--/hackerrank/master/Utopian%20Tree/Utopian%20Tree.cpp
https://raw.githubusercontent.com/mattspaulding/hacker-rank/master/HackerRank/Algorithms/Warmup/UtopianTree.cs
https://raw.githubusercontent.com/RodneyShag/HackerRank_solutions/master/General%20Programming/Basic%20Programming/Utopian%20Tree/Solution.java
https://raw.githubusercontent.com/RyanFehr/HackerRank/master/Algorithms/Implementation/Utopian%20Tree/Solution.js
https://raw.githubusercontent.com/danhenriquesc/hackerrank/master/algorithms/implementation/utopian_tree.php
https://raw.githubusercontent.com/Shwaubh/HackerrankSolutions/master/easy/implementation/utopian%20tree.py
https://raw.githubusercontent.com/raghav97/Hackerrank-Solutions/master/utopian_tree.rb
https://raw.githubusercontent.com/rofrol/rust-hackerrank/master/src/bin/utopian-tree.rs
https://raw.githubusercontent.com/witekbobrowski/HackerRank/master/Algorithms/Implementation/utopian-tree.swift
