https://www.welivesecurity.com/la-es/2015/01/12/como-funciona-vulnerabilidad-local-file-inclusion/
https://www.youtube.com/watch?v=kcojXEwolIs
https://www.youtube.com/watch?v=s3XQ1n5kdeQ
https://outpost24.com/blog/from-local-file-inclusion-to-remote-code-execution-part-2
https://www.youtube.com/watch?v=DuHJ6t7qUtA
https://www.youtube.com/watch?v=oU9pN-1LhMQ
https://medium.com/@Aptive/local-file-inclusion-lfi-web-application-penetration-testing-cc9dc8dd3601
https://www.youtube.com/watch?v=cEqhlaCpzYA
https://www.youtube.com/watch?v=bBgdHS7i-dc
