https://raw.githubusercontent.com/mkzpd/leetcode-solution/60c9b218683bcdee86477a910c58ec702185c726/need-to-do/c------download-problem--of--leetcode/472.concatenated-words.c
https://raw.githubusercontent.com/jus2havfun/competitive-programming/c4f0a4a05c4baa5514f2b79a08f191f3e6b7ede2/src/c%2B%2B/leetcode/algorithms/concatenatedWords/concatenatedWords.cc
https://raw.githubusercontent.com/kamyu104/LeetCode-Solutions/master/C%2B%2B/concatenated-words.cpp
https://raw.githubusercontent.com/BigEggStudy/LeetCode-CS/3e8fd6e9797dea3d85c42a8fef8491e2fa117edb/LeetCode/0451-0500/0472-ConcatenatedWords.cs
https://raw.githubusercontent.com/cicidi/leetcode-WIP/f2137a57fc11b26441f642511139110cbb120951/leetcode_question/golang/tbd/472.concatenated-words.go
https://raw.githubusercontent.com/klyashko/algorithm-playground/cef6917464ce5487d086b7c497814ca36642554f/src/test/groovy/com/algorithm/playground/leetcode/problems/lc400/lc470/lc472/ConcatenatedWordsSpec.groovy
https://raw.githubusercontent.com/chengqhuster/xishuashua/5ec4b57488777aaf267fe45850313bf8b63fd976/src/main/LeetCode/java/ConcatenatedWords.java
https://raw.githubusercontent.com/JuliaCN/LeetCode.jl/37fdccdabb57cca30a648479f9011f4d7caac870/src/unresolved/472.concatenated-words.jl
https://raw.githubusercontent.com/loverxp/LeetCode/3ecb5733c7831f73aba0c92c6ee186df8a9ffd09/JavaScript/src/Solved/ConcatenatedWords.js
https://raw.githubusercontent.com/overfullstack/ds-algo/bcac825b2b309b6d341f2e9ddb55fc7df2e2b366/src/test/kotlin/leetcode/dp/ConcatenatedWordsTest.kt
https://raw.githubusercontent.com/JulyKikuAkita/PythonPrac/0ba027d9b8bc7c80bc89ce2da3543ce7a49a403c/cs15211/ConcatenatedWords.py
https://raw.githubusercontent.com/MrMiaoMiao/yeet-the-leet/563d779467ef5a7cc85cbe954eeaf3c1f5463313/algorithms/Hard/472.concatenated-words.rb
https://raw.githubusercontent.com/stackcats/leetcode/c2ee1b98edddcaeb010f3a5549577d5bcac78ddf/algorithms/concatenated_words.rs
https://raw.githubusercontent.com/antonio081014/LeetCode-CodeBase/478bc8f81fe337e8ea3c34e0503a5e00220acacd/Swift/concatenated-words.swift
https://raw.githubusercontent.com/crazywiden/Leetcode_daily_submit/01f855810acf7310901e48ea30ce3d34ca2c705b/20e/472%20Concatenated%20Words
https://raw.githubusercontent.com/halfMonkey/LeetCode-Note/7c47851ffbbb6464cb9532939ff0f167fd982ded/1-4-2021/472.%20Concatenated%20Words
https://raw.githubusercontent.com/janyturry/leetcode/1af25afe23695ce426f886a237012e3fa80625be/472.%20Concatenated%20Words
https://raw.githubusercontent.com/linyu203/problem-solved/f83e2c82060d34de987835719525a54237219619/Leetcode/Premium/555.Split%20Concatenated%20Strings
