https://kupdf.net/download/demotestfirenet-security-report-86_5b0466cde2b6f5b31f0e6896_pdf
https://by-clips.com/video/UE2HQwQpEq8/insecure-direct-object-reference-vulnerability.html
https://www.youtube.com/watch?v=y5K92M4711E
https://www.youtube.com/watch?v=0q0CZTliQ7A
https://www.youtube.com/watch?v=zBQqJfLNm2I
