https://raw.githubusercontent.com/c650/hackerrank-solutions/master/Algorithms/Implementation/counting-valleys.cpp
https://raw.githubusercontent.com/RyanFehr/HackerRank/master/Algorithms/Implementation/Counting%20Valleys/Solution.cs
https://raw.githubusercontent.com/rishabh1403/hackerrank-golang-solutions/master/practice/algorithms/implementation/counting-valleys.go
https://raw.githubusercontent.com/RyanFehr/HackerRank/master/Algorithms/Implementation/Counting%20Valleys/Solution.java
https://raw.githubusercontent.com/RyanFehr/HackerRank/master/Algorithms/Implementation/Counting%20Valleys/Solution.js
https://raw.githubusercontent.com/Aroniez/hackerrank-kotlin-solutions/master/src/interview_preparation_kit/warmup_challenges/CountingValleys.kt
https://raw.githubusercontent.com/mesripour/hacker-rank/master/Algorithms/CountingValleys.php
https://raw.githubusercontent.com/danhenriquesc/hackerrank/master/algorithms/implementation/counting_valleys.py
https://raw.githubusercontent.com/raghav97/Hackerrank-Solutions/master/counting_valleys.rb
https://raw.githubusercontent.com/witekbobrowski/HackerRank/master/Algorithms/Implementation/counting-valleys.swift
