https://raw.githubusercontent.com/stbrumme/euler/master/euler-0146.cpp
https://raw.githubusercontent.com/nayuki/Project-Euler-solutions/master/java/p146.java
https://raw.githubusercontent.com/nayuki/Project-Euler-solutions/master/python/p146.py
