https://raw.githubusercontent.com/linuxp3nguin/microcorruption-1/master/CTF/MO
http://tlk.tuxfamily.org/doku.php?id=writeup:microcorruption:montevideo
https://www.youtube.com/watch?v=yYzo4FwHY6w
https://github.com/ciz/microcorruption#montevideo
