https://www.sevenlayers.com/index.php/222-vulnhub-the-library-1-walkthrough
https://medium.com/@liddell.erik/hacking-the-library1-1a1712016a12
https://bugsnifferblogs.blogspot.com/2019/08/the-library-1-vulnhub-walkthrough.html
https://laptrinhx.com/library-vulnhub-walkthrough-2298110034/
https://www.cnblogs.com/hack404/p/11282825.html
