https://raw.githubusercontent.com/sahaavi/HackerRank/master/Algorithms/Strings/Super%20Reduced%20String/Solution.cs
https://raw.githubusercontent.com/leeychee/hackerrank/master/practice/algorithms/strings/super_reduced_string/main.go
https://raw.githubusercontent.com/charles-wangkai/hackerrank/master/reduced-string/Solution.java
https://raw.githubusercontent.com/danhenriquesc/hackerrank/master/algorithms/strings/super_reduced_string.php
https://raw.githubusercontent.com/raghav97/Hackerrank-Solutions/master/super_reduces_string.rb
https://raw.githubusercontent.com/witekbobrowski/HackerRank/master/Algorithms/Strings/super-reduced-string.swift
