https://raw.githubusercontent.com/SnoozeZ/LeetCode/master/C%2B%2B/49%20Group%20Anagrams.cpp
https://raw.githubusercontent.com/XizheSun0914/LeetCode-2/master/Algorithms/GroupAnagrams.cs
https://raw.githubusercontent.com/zjbztianya/LeetCode/master/Algorithms/0049.group-anagrams/group-anagrams.go
https://raw.githubusercontent.com/cherryljr/LeetCode/master/Group%20Anagrams.java
https://raw.githubusercontent.com/everthis/leetcode-js/master/49-group-anagrams.js
https://raw.githubusercontent.com/topwu/leetkotlin/master/src/main/kotlin/leetcode/GroupAnagrams.kt
https://raw.githubusercontent.com/aylei/leetcode-rust/master/src/solution/s0049_group_anagrams.rs
https://raw.githubusercontent.com/dylansun/leetcode-cn-scala/master/sol-module/src/No49.scala
https://raw.githubusercontent.com/soapyigu/LeetCode-Swift/master/String/GroupAnagrams.swift
