https://www.youtube.com/watch?v=y5seLzrFS2o
https://www.youtube.com/watch?v=_ShrVauPSLA
https://www.youtube.com/watch?v=CWxKU57Rj3U
https://www.youtube.com/watch?v=WQUiub2hc0c
https://www.youtube.com/watch?v=5frFKG2ZwUM
https://www.youtube.com/watch?v=3B8QhyrEXlU
