https://raw.githubusercontent.com/NoSoul/CodeForces/master/31A.c
https://raw.githubusercontent.com/AkashChandrakar/codeforces-solutions/master/c%2B%2B/31-A-15501509.cpp
https://raw.githubusercontent.com/nomeaning777/codeforces/master/131A.rb
