https://raw.githubusercontent.com/vli02/leetcode/master/14.%20Longest%20Common%20Prefix.c
https://raw.githubusercontent.com/MaskRay/LeetCode/master/longest-common-prefix.cc
https://raw.githubusercontent.com/songqiang/leetcode/master/Longest-Common-Prefix.cpp
https://raw.githubusercontent.com/kflili/LeetcodeCShaprDotNetCore/master/top-interview-questions/14.%20Longest%20Common%20Prefix.cs
https://raw.githubusercontent.com/wumansgy/LeetCode-in-Go/master/Algorithms/0014.longest-common-prefix/longest-common-prefix.go
https://raw.githubusercontent.com/leonlyu1996/leetcode-everyday/master/014-longest-common-prefix/longest-common-prefix.java
https://raw.githubusercontent.com/everthis/leetcode-js/master/14-longest-common-prefix.js
https://raw.githubusercontent.com/sshpark/LeetCode-Kotlin/master/easy/14.longest-common-prefix.kt
https://raw.githubusercontent.com/harrifeng/leetcode-2/master/algorithms/longest_common_prefix.rb
https://raw.githubusercontent.com/dylansun/leetcode-cn-scala/master/sol-module/src/No14.scala
https://raw.githubusercontent.com/soapyigu/LeetCode-Swift/master/String/LongestCommonPrefix.swift
