https://raw.githubusercontent.com/TheCK/codeChallenges/master/codeEval/src/main/java/org/ck/codeEval/medium/chainInspection/Main.java
https://raw.githubusercontent.com/pascal-bourut/codeeval-challenges/master/moderate/119%20-%20Chain%20Inspection/119.js
https://raw.githubusercontent.com/pascal-bourut/codeeval-challenges/master/moderate/119%20-%20Chain%20Inspection/119.php
https://raw.githubusercontent.com/mpillar/codeeval/master/1-moderate/chain-inspection/main.py
https://gitlab.com/agaskell/codeeval/-/raw/master/119/119.rb
