https://raw.githubusercontent.com/ysmolsky/cryptopals-matasano-solutions/master/30/main.go
https://raw.githubusercontent.com/ilchen/cryptopals/master/src/main/java/com/cryptopals/Set4.java
https://raw.githubusercontent.com/lt/php-cryptopals/master/Cryptopals/Set4/Challenge30/Solution30.php
https://raw.githubusercontent.com/akalin/cryptopals-python3/master/challenge30.py
https://raw.githubusercontent.com/technion/matasano_challenge/master/set4/chal30/chal30.rb
https://raw.githubusercontent.com/Daeinar/cryptopals/master/src/c30.rs
