http://location-href.com/xvwa-walkthrough/
https://www.crazydanishhacker.com/server-side-request-forgery-ssrf-web-application-security-series-1/
https://medium.com/@Naxhawk001/ssrf-sever-side-request-forgery-3a6f15042ba4
