https://www.youtube.com/watch?v=WFFQw01EYHM
https://www.youtube.com/watch?v=SJgYdTckMBY
https://www.youtube.com/watch?v=9I5fLjbArf4
https://www.youtube.com/watch?v=ciNHn38EyRc
https://www.youtube.com/watch?v=iWq9i9nvomE
https://www.youtube.com/watch?v=lJ5Z_OabZ_8
https://raw.githubusercontent.com/SpiderLabs/MCIR/master/sqlol/challenges/tutorial1.txt
https://www.cyberpratibha.com/blog/the-magical-code-injection-rainbow-mcir-in-metasploitable2/
https://vimeo.com/79821960
https://vimeo.com/90822990
