https://www.youtube.com/watch?v=7ifJOon5-G8
https://0xsaiyajin.github.io/writeup/2018/09/25/hackthebox-olympus-writeup-eng.html
https://www.secjuice.com/hackthebox-olympus-writeup/
https://fasetto.github.io/hack-the-box-olympus/
https://epi052.gitlab.io/notes-to-self/blog/2018-09-19-hack-the-box-olympus/
https://medium.com/ctf-writeups/olympus-write-up-htb-29a9202c85fb
https://www.youtube.com/watch?v=-dLoJrz2xQk
https://codemonkeyism.co.uk/htb-olympus/
https://www.hackingarticles.in/hack-the-box-olympus-walkthrough/
https://0xdf.gitlab.io/2018/09/22/htb-olympus.html
https://github.com/Hackplayers/hackthebox-writeups/blob/master/machines/Olympus/fiti-olympus.pdf
https://fwhibbit.es/htb-write-up-olympus-por-1r0dm48o
https://medium.com/ctf-writeups/olympus-write-up-htb-29a9202c85fb?source=---------7-----------------------
