https://raw.githubusercontent.com/c650/hackerrank-solutions/master/Algorithms/Implementation/cats-and-a-mouse.cpp
https://raw.githubusercontent.com/sahaavi/HackerRank/master/Algorithms/Implementation/Cats%20and%20a%20Mouse/Solution.cs
https://raw.githubusercontent.com/rshaghoulian/HackerRank_solutions/master/General%20Programming/Basic%20Programming/Cats%20and%20a%20Mouse/Solution.java
https://raw.githubusercontent.com/PaulNoth/hackerrank/master/practice/algorithms/implementation/cats_and_a_mouse/CatsAndMouse.js
https://raw.githubusercontent.com/danhenriquesc/hackerrank/master/algorithms/implementation/cats_and_a_mouse.py
https://raw.githubusercontent.com/raghav97/Hackerrank-Solutions/master/cats_and_a_mouse.rb
https://raw.githubusercontent.com/PaulNoth/hackerrank/master/practice/algorithms/implementation/cats_and_a_mouse/CatsAndMouse.scala
https://raw.githubusercontent.com/witekbobrowski/HackerRank/master/Algorithms/Implementation/cats-and-mouse.swift
