https://raw.githubusercontent.com/rdtsc/codeeval-solutions/master/src/hard/lakes-not-cakes/solutions/c/solution.c
https://raw.githubusercontent.com/mementum/codeeval/master/03-hard/0213-lakes-not-cakes/0213-lakes-not-cakes.cpp
https://raw.githubusercontent.com/mementum/codeeval/master/03-hard/0213-lakes-not-cakes/0213-lakes-not-cakes.py
