https://gitlab.com/funnisquares/Codewars/-/raw/master/cpp/decoding_morse_1.cpp
https://raw.githubusercontent.com/lulul-li/Decode-the-Morse-code/master/Decode-the-Morse-code/Decode-the-Morse-code/MorseCodeDecoder.cs
https://raw.githubusercontent.com/nibbles-on-bits/codewars-decode-the-morse-code-advanced/master/main.go
https://raw.githubusercontent.com/xehpuk/codewars/master/decode-the-morse-code-advanced/java/1/MorseCodeDecoder.java
https://raw.githubusercontent.com/chinesedfan/codewars-solutions/master/decode-the-morse-code-for-real.js
https://raw.githubusercontent.com/kurtportelli/decode-the-morse-code-advanced/master/decode-the-morse-code-advanced.py
