https://raw.githubusercontent.com/derekhh/HackerRank/master/Algorithms/greedy/chief-hopper.cpp
https://raw.githubusercontent.com/RyanFehr/HackerRank/master/Algorithms/Greedy/Chief%20Hopper/Solution.java
https://raw.githubusercontent.com/vivienzou1/HackerRank-3/master/solution/practice/algorithms/greedy/chief-hopper/solution.py
