https://www.youtube.com/watch?v=_csbKuOlmdE
https://www.youtube.com/watch?v=K05mJazHhF4
https://video.hacking.reviews/2018/01/hackthebox-charon.html
https://forum.hackthebox.eu/discussion/122/charon-10-10-10-31
https://www.justinoblak.com/2017/11/17/hack-the-box-charon.html
https://video.hacking.reviews/2018/01/hackthebox-charon_12.html
https://www.peerlyst.com/posts/how-to-hackthebox-charon-machine-writeup-spirited-wolf
