https://www.youtube.com/watch?v=rHwJYD_yTlM
https://www.youtube.com/watch?v=oQOpyA72OT0&t=43s
https://www.youtube.com/watch?v=opj5Vt90MNs
https://www.youtube.com/watch?v=ZmqBjm3w1oc
https://www.youtube.com/watch?v=SREX-mru3ow
https://www.youtube.com/watch?v=Cxc13E8wruA
https://www.youtube.com/watch?v=PB7hWlqTSqs&t=6s
https://www.youtube.com/watch?v=IiCvD3Ho9Eo
https://www.youtube.com/watch?v=NLzOoSxSSyE
https://www.youtube.com/watch?v=5ivHSXsndTw
https://studysecurity-world.tistory.com/77?category=806005
https://www.youtube.com/watch?v=ObyBQ_jzqB4
https://stupidsecurity.tistory.com/34
