https://ksdpmx.bitbucket.io/2020/08/15/cybersploit-2-511/
https://www.guldilo.de/cybersploit-2-vulnhub/
https://www.doyler.net/security-not-included/vulnhub-cybersploit-2-walkthrough
https://www.lukawarren.com/blog/posts/cybersploit-2/
