http://www.xssed.com/mirror/66118/
https://gist.githubusercontent.com/mort666/19d3dc1051a71c2c86885e1607d69442/raw/1763060c820d576ca5f22109da8cadc7293a2e74/secure-coding%2520workshop.md
https://danielmiessler.com/projects/webappsec_testing_resources/
