https://raw.githubusercontent.com/kamyu104/LeetCode-Solutions/master/C%2B%2B/complement-of-base-10-integer.cpp
https://raw.githubusercontent.com/cherryljr/LeetCode/master/Complement%20of%20Base%2010%20Integer.java
https://raw.githubusercontent.com/algorhythms/LeetCode/master/1009%20Complement%20of%20Base%2010%20Integer.py
