https://raw.githubusercontent.com/Transfusion/hackerrank-solutions/master/Insertion%20Sort%20-%20Part%202/insertionsort2.c
https://raw.githubusercontent.com/BlakeBrown/HackerRank-Solutions/master/Algorithms/Sorting/Insertion%20Sort%20-%20Part%202.cpp
https://raw.githubusercontent.com/charles-wangkai/hackerrank/master/insertionsort2/Solution.java
https://raw.githubusercontent.com/ynyeh0221/HackerRank/master/Insertion%20Sort%20-%20Part%202.py
https://raw.githubusercontent.com/witekbobrowski/HackerRank/master/Algorithms/Sorting/insertion-sort-part-2.swift
