https://www.yalpski.net/bandit-wargame/bandit-walkthrough-level-14
https://alexandervoidstar.wordpress.com/2016/02/21/overthewire-bandit-level-14/
https://raw.githubusercontent.com/luceatnobis/challenges/master/overthewire.org/bandit/14/key.ssh
https://raw.githubusercontent.com/Cathon/mySolutions/master/overthewire/Bandit/Level_14.md
https://medium.com/@Kan1shka9/overthewire-wargames-bandit-walkthrough-df2b86826c67
https://github.com/milescrabill/overthewire-solutions/blob/master/Bandit.md
https://jhalon.github.io/over-the-wire-bandit2/
https://www.youtube.com/watch?v=aB1mYfZquSY
https://github.com/Lorenyx/OverTheWire-Solutions/blob/master/bandit/level_14.md
