https://fwhibbit.es/htb-writeup-openadmin
https://github.com/Hackplayers/hackthebox-writeups/blob/master/machines/OpenAdmin/FlatMarsSociet-hackthebox-openadmin.pdf
https://github.com/Hackplayers/hackthebox-writeups/blob/master/machines/OpenAdmin/kaosam-OpenAdmin.pdf
https://github.com/Hackplayers/hackthebox-writeups/blob/master/machines/OpenAdmin/openadmin-HTB-WU-noraj.pdf
