https://www.youtube.com/watch?v=npVd2g2VcY0
https://www.youtube.com/watch?v=e32WzC4j7ck
https://wooly6bear.files.wordpress.com/2016/01/bwapp-tutorial.pdf
https://net123.tistory.com/504
https://www.cctalk.com/v/15561843145911?sid=1542646969779265
https://www.dideo.ir/v/yt/e32WzC4j7ck/%EC%9B%B9%ED%95%B4%ED%82%B9-63.-a5-bwapp-security-misconfiguration
https://www.jianshu.com/p/495d2ea4cef1
