https://raw.githubusercontent.com/fuwutu/CodeForces/master/29A%20-%20Spit%20Problem.cpp
https://raw.githubusercontent.com/nomeaning777/codeforces/master/29A.rb
https://raw.githubusercontent.com/mahmooooud/Proplems/master/29A%20-%20Spit%20Problem
