https://raw.githubusercontent.com/diguage/leetcode/e72299539a319c94b435ff26cf077371a353b00c/docs/0044-wildcard-matching.adoc
https://raw.githubusercontent.com/mkzpd/leetcode-solution/60c9b218683bcdee86477a910c58ec702185c726/need-to-do/c------download-problem--of--leetcode/44.wildcard-matching.c
https://raw.githubusercontent.com/TerenceWangh/leetcode/a6287d3928fb7114c39a430d149879ca8fa71020/test/main/0044_WildcardMatch.cc
https://raw.githubusercontent.com/egg0315/LeetCode/e4361f897ea8694d2e60953a6cb3a9dca54edb65/1-99/44.wildcard-matching-dp.cpp
https://raw.githubusercontent.com/thomshib/LeetCode/a59b4d5c02c6c856e62d53e36e504da08e5c1ccd/LeetCode/BackTracking/WildcardMatching.cs
https://raw.githubusercontent.com/qtvspa/Leet/19f14db92b1e07b2396b16c9bbc2a98a00603dcf/src/2020-07/wildcard_matching.go
https://raw.githubusercontent.com/klyashko/algorithm-playground/cef6917464ce5487d086b7c497814ca36642554f/src/test/groovy/com/algorithm/playground/leetcode/problems/lc0/lc40/lc44/WildcardMatchingSpec.groovy
https://raw.githubusercontent.com/A53320872/LeetCode_problems/b562ca874ce5b150516ca902533da98fbfca8bec/dynammic%20programing/44.%20Wildcard%20Matching.ipynb
https://raw.githubusercontent.com/ChadDaBin/leetcode-java/85631d4e6279a4131747ae4119ac7cadef905753/app/src/main/java/com/chad/leetcode/hard/WildcardMatching.java
https://raw.githubusercontent.com/JuliaCN/LeetCode.jl/37fdccdabb57cca30a648479f9011f4d7caac870/src/unresolved/44.wildcard-matching.jl
https://raw.githubusercontent.com/sindresorhus/matcher/master/index.js
https://raw.githubusercontent.com/HakuLess/LeetCode/eaafadb7c2962149d26600704e6980f953069505/src/leetcode/normal/44.%20Wildcard%20Matching.kt
https://raw.githubusercontent.com/miyliyevr/leetcode-php/31ecd291096d9a31e957aa5c08c8896c8833c287/Not%20solved%20[Hard]%2044.%20Wildcard%20Matching.php
https://raw.githubusercontent.com/baloooo/coding_practice/57212d700dfba0db4925d9d4896f7f0b9635a5b5/wildcard_matching.py
https://raw.githubusercontent.com/frankieliu/problems/911c6622448a4be041834bcab25051dd0f9209b2/leetcode/python/44/44.wildcard-matching.pye
https://raw.githubusercontent.com/MrMiaoMiao/yeet-the-leet/563d779467ef5a7cc85cbe954eeaf3c1f5463313/algorithms/Hard/44.wildcard-matching.rb
https://raw.githubusercontent.com/aylei/leetcode-rust/master/src/solution/s0044_wildcard_matching.rs
https://raw.githubusercontent.com/peter14f/pelican-blog/23115ceb6f818dd36b145a499cb9da3d98b28d3e/content/2015_10_01_044_wildcard_matching.rst
https://raw.githubusercontent.com/Leibnizhu/LeetcodeScala/502248c7a185d3946b5dde211237d6d2cd9489ea/src/main/scala/leetcode/hard/backtracking/WildcardMatching.scala
https://raw.githubusercontent.com/diwu/LeetCode-Solutions-in-Swift/master/Solutions/Solutions/Hard/Hard_044_Wildcard_Matching.swift
https://raw.githubusercontent.com/bave8672/leetcode/b6dc76b6ea3996a2368cb69ccf821fd710b12f57/src/wildcard-matching/wildcard-matching.ts
https://raw.githubusercontent.com/yjlo123/yjlo-script/5602f0efdd96cabd437fac8fd4f90a6617fc28c8/example/LeetCode/LeetCode_044_wildcard_matching.yjlo
https://raw.githubusercontent.com/4321eh/leetcode-1/f0ad01174223bca199ea9eea3b4d9f82e9f08482/44:Wildcard%20Matching
https://raw.githubusercontent.com/alexzhongyiz/LC/a63045c3f8c23b5fe1e43143f2bb467efecc3197/044*wildcard%20matching
https://raw.githubusercontent.com/czbead/Practice/598517c10f82fbe19acd41fdfea1995e7ea229fc/H44.%20Wildcard%20Matching
https://raw.githubusercontent.com/halfMonkey/LeetCode-Note/d2aa09dfc015687befd2b026a3013b1f1d76571c/1-2-2021/44.%20Wildcard%20Matching
https://raw.githubusercontent.com/hanyedeleng/leetcode_java/1fc5eb823e547c8074fdfa09f4bf052c2458ebae/44%20%20Wildcard%20Matching
https://raw.githubusercontent.com/jainMudit21/Coding-Problems-Practice/5354fa90daca91b5a2fe0b9957b31e9946b863ee/44.%20Wildcard%20Matching
https://raw.githubusercontent.com/jainanupam/GitToPost/9c875d4e3dd1bb36037b191b807e16b87e6b6ac0/posts/Java/WildcardMatching
https://raw.githubusercontent.com/shivamnegi1705/Competitive-Programming/e5d2dd5346d6ec67942b55452f4ce1bef1327bdb/Dynamic%20Programming/Leetcode/44.%20Wildcard%20Matching
https://raw.githubusercontent.com/try1995/-/28f49bb13cbb1983e595f8f7bfc197721b49e434/json/leetcode-44.%20Wildcard%20Matching%20-%20%E4%B8%AA%E4%BA%BA%E6%96%87%E7%AB%A0
