https://www.youtube.com/watch?v=rs75y2qPonc
https://fasetto.github.io/hack-the-box-canape/
https://ironhackers.es/en/writeups/writeup-canape-hackthebox-2/
https://medium.com/ctf-writeups/canape-write-up-htb-exploiting-cpickle-bad-pip-permissions-d04f101e0228
https://epi052.gitlab.io/notes-to-self/blog/2018-09-13-hack-the-box-canape/
https://zineausa.com/blog/2018/10/hackthebox-canape-writeup/
https://www.secjuice.com/ctf-walkthrough-canape-hackthebox/
https://www.youtube.com/watch?v=eUnzNT5T8_Q
https://www.hackingarticles.in/hack-the-box-challenge-canape-walkthrough/
https://spz.io/2018/09/16/canape-box-writeup-walkthrough-htb-hackthebox/
https://www.absolomb.com/2018-09-15-HackTheBox-Canape/
https://blog.csdn.net/qq_34801745/article/details/106624119?utm_medium=distribute.pc_relevant.none-task-blog-baidujs-5
https://github.com/Hackplayers/hackthebox-writeups/blob/master/machines/Canape/fiti-canape.pdf
https://medium.com/ctf-writeups/canape-write-up-htb-exploiting-cpickle-bad-pip-permissions-d04f101e0228?source=---------8-----------------------
