https://medium.com/@vaishali98/funbox-vulnhub-walkthrough-18b44e4520da
https://tiagotavares.io/2020/08/funbox-1-vulnhub/
https://www.youtube.com/watch?v=FqLCn40MtB8
https://www.youtube.com/watch?v=CgD5kbilvzQ
https://www.hacknos.com/funbox-4-vulnhub-walkthrough/
https://medium.com/@rene_88135/funbox-ctf-vulnhub-walkthrough-33a0a135f77b
https://www.youtube.com/watch?v=CJh6xrUNNQs
https://www.bootlesshacker.com/funbox-ctf-walkthrough/
https://www.hacknos.com/funbox-easy-vulnhub-walkthrough/
