https://cryptocult.wordpress.com/cyber-challenges/enigma-group-solutions/javascript-exploits/
https://www.youtube.com/watch?v=74b4uv51HMk
https://raw.githubusercontent.com/jeffnuss/enigma-group/master/SQL4.txt
