https://raw.githubusercontent.com/mkzpd/leetcode-solution/60c9b218683bcdee86477a910c58ec702185c726/need-to-do/c------download-problem--of--leetcode/56.merge-intervals.c
https://raw.githubusercontent.com/TerenceWangh/leetcode/a6287d3928fb7114c39a430d149879ca8fa71020/test/main/0056_MergeIntervals.cc
https://raw.githubusercontent.com/shuaishuaima/Leetcode/c257b23294efcd8618ea44f673265320940109e4/56_Merge%20Intervals.cp
https://raw.githubusercontent.com/Cheshulko/Algorithms/master/Leetcode/MergeIntervals.cpp
https://raw.githubusercontent.com/bodlaranjithkumar/DataStructures/a4e42c99955a25b7b21fdce4991ac11b6a88df42/C%23/Leetcode/Intervals/MergeIntervals.cs
https://raw.githubusercontent.com/joelrorseth/Leetcode-Solutions/0c40af7348f5a64dbcbcc790a4c42a3a5e58a69a/merge_intervals.cxx
https://raw.githubusercontent.com/jerry-chao/leetcode/f51ed72b777dd635183b4dfa157e2dd1108a71bb/leetcode/56.merge-intervals.go
https://raw.githubusercontent.com/klyashko/algorithm-playground/cef6917464ce5487d086b7c497814ca36642554f/src/test/groovy/com/algorithm/playground/leetcode/problems/lc0/lc50/lc56/MergeIntervalsSpec.groovy
https://raw.githubusercontent.com/1028866041/Leetcode/0a7425fff524fdbc66b9faef4af58afa7e0dd59d/src/leetcode/editor/cn/P56MergeIntervals.java
https://raw.githubusercontent.com/JuliaCN/LeetCode.jl/37fdccdabb57cca30a648479f9011f4d7caac870/src/unresolved/56.merge-intervals.jl
https://raw.githubusercontent.com/DeveloperXMA/leetcode_platcon/e5f7e37e934ce1d2424fcf96c3f48b8c7c176542/src/56.merge-intervals.js
https://raw.githubusercontent.com/nidhi-desai/LeetCode_Solutions/9ebf07d97583994836b6df7ee3c733740ae16fbc/mergeIntervals.m
https://raw.githubusercontent.com/Suhailkhn/Leetcode/57f939fdbacd6d320c8e5f55ad93625b012cb229/Medium/MergeIntervals/MergeIntervals.mk
https://raw.githubusercontent.com/andyyang777/PY_LC/c4e6568a891a4a491f840f36bb59d1ec1fc67a89/56_MergeIntervals.py
https://raw.githubusercontent.com/frankieliu/problems/911c6622448a4be041834bcab25051dd0f9209b2/leetcode/python/56/56.merge-intervals.pye
https://raw.githubusercontent.com/Gerula/interviews/dccbb6a134819286ef2b0077fc5b2179e0c91c29/LeetCode/remote/merge_intervals.rb
https://raw.githubusercontent.com/aylei/leetcode-rust/master/src/solution/s0056_merge_intervals.rs
https://raw.githubusercontent.com/peter14f/pelican-blog/23115ceb6f818dd36b145a499cb9da3d98b28d3e/content/2015_10_25_056-merge_intervals.rst
https://raw.githubusercontent.com/paulxi/LeetCodeScala/55df004ae00c98251f981d5b9395876def311683/src/test/scala/algorithm/medium/MergeIntervalsSpec.scala
https://raw.githubusercontent.com/nullfy/code_analyse/35183dc51c39b7b2f5089bc2b8cf6e55f6c4a657/algorithms/algorithms/Hard/Hard_056_Merge_Intervals.swift
https://raw.githubusercontent.com/sprinters/My-Problem-Solvings/48ff4acd5596fa38023ddcd237ed69616f4d45e9/out/production/My-Problem-Solvings/main/leetcode/MergeIntervals.task
https://raw.githubusercontent.com/imjoshellis/algos/c2478e5c4d75a3fb390c341f9fde67898059d7f4/solved/typescript/mergeIntervals/mergeIntervals.test.ts
https://raw.githubusercontent.com/yjlo123/yjlo-script/5602f0efdd96cabd437fac8fd4f90a6617fc28c8/example/LeetCode/LeetCode_056_merge_intervals.yjlo
https://raw.githubusercontent.com/0r20/tg_mpei_course/67c1a415b3539aa535a31944c04716c32180319d/Merge%20Intervals
https://raw.githubusercontent.com/21david/LeetCode-weekly-problems/215cdbc46c4d4463a0ed4e813c76cca720c7d9f4/Week3/Merge%20Intervals
https://raw.githubusercontent.com/4321eh/leetcode-1/f0ad01174223bca199ea9eea3b4d9f82e9f08482/56:Merge%20Intervals
https://raw.githubusercontent.com/KnowledgeCenterYoutube/LeetCode/b411f468f1c1dcbcc43f626d440c82bee84fe4b8/56_Merge_Intervals
https://raw.githubusercontent.com/MAZHARMIK/Interview_DS_Algo/5b40f5e5b51e097609125b0ba5e4bceed5d0b67f/Arrays/Intervals_Based_Qn/Merge%20Intervals
https://raw.githubusercontent.com/Neha-alt/DSA-Coding-Questions/938d20992af8706dfbc77f7cbdc49f7ae5208e84/Arrays/17.Merge%20Intervals
https://raw.githubusercontent.com/Sun-source-code/leetcode/7d5effcf0d4517b2a739169f45f526cd7be2ee6d/56.%20Merge%20Intervals
https://raw.githubusercontent.com/Trudinger/LeetCode/859c62d2d6554deacfeba30715f306d0b80988db/0056.%20Merge%20Intervals
https://raw.githubusercontent.com/alexzhongyiz/LC/b82ebae602a147ad63d015ef9b17dcdde6b24cc6/056%20merge%20intervals
https://raw.githubusercontent.com/czbead/Practice/598517c10f82fbe19acd41fdfea1995e7ea229fc/M56.%20Merge%20Intervals
https://raw.githubusercontent.com/girok21/ds450/60ffeda02d9d395e1c10f11e1aa07357653e8c46/array/merge%20intervals
https://raw.githubusercontent.com/halfMonkey/LeetCode-Note/e78f5ff186f2457ef2209d2bc93487d27643d3c3/12-26-2020/56.%20Merge%20Intervals
https://raw.githubusercontent.com/jainanupam/GitToPost/9c875d4e3dd1bb36037b191b807e16b87e6b6ac0/posts/Java/posted/MergeIntervals
https://raw.githubusercontent.com/janyturry/leetcode/ebb131d82f5e2d39e190d4066f5b32a3115e71bb/(FB)*56.%20Merge%20Intervals
https://raw.githubusercontent.com/vishalthirwani23/Codes/d0e6cc6693823131bcb63bb2be961413c4583610/Array/Merge%20Intervals
