https://raw.githubusercontent.com/BirkhoffLee/wechall/master/exploit/PHP%200819/README.md
http://rk700.github.io/2014/05/26/php-0819/
https://github.com/rk700/rk700.github.io/blob/master/_posts/2014-05-26-php-0819.md
http://byd.dropsec.xyz/2016/07/23/Webchall-CTF-writeup2/
