https://raw.githubusercontent.com/stefanos1316/Rosetta_Code_Research_MSR/master/Scripts/Task/binary-search/acl2/binary-search.acl2
https://raw.githubusercontent.com/stefanos1316/Rosetta_Code_Research_MSR/master/Scripts/Task/binary-search/ada/binary-search-1.ada
https://raw.githubusercontent.com/stefanos1316/Rosetta_Code_Research_MSR/master/Scripts/Task/binary-search/autohotkey/binary-search.ahk
https://raw.githubusercontent.com/stefanos1316/Rosetta_Code_Research_MSR/master/Scripts/Task/binary-search/algol-68/binary-search.alg
https://raw.githubusercontent.com/FrancisLawlor/BinarySearch_MIPS32/master/BinarySearch.asm
https://raw.githubusercontent.com/stefanos1316/Rosetta_Code_Research_MSR/master/Scripts/Task/binary-search/awk/binary-search-1.awk
https://raw.githubusercontent.com/stefanos1316/Rosetta_Code_Research_MSR/master/Scripts/Task/binary-search/axe/binary-search.axe
https://raw.githubusercontent.com/stefanos1316/Rosetta_Code_Research_MSR/master/Scripts/Task/binary-search/basic/binary-search-1.basic
https://raw.githubusercontent.com/stefanos1316/Rosetta_Code_Research_MSR/master/Scripts/Task/binary-search/bbc-basic/binary-search.bbc
https://raw.githubusercontent.com/stefanos1316/Rosetta_Code_Research_MSR/master/Scripts/Task/binary-search/brat/binary-search.brat
https://raw.githubusercontent.com/stefanos1316/Rosetta_Code_Research_MSR/master/Scripts/Task/binary-search/chapel/binary-search.chapel
https://raw.githubusercontent.com/stefanos1316/Rosetta_Code_Research_MSR/master/Scripts/Task/binary-search/cobol/binary-search.cobol
https://raw.githubusercontent.com/stefanos1316/Rosetta_Code_Research_MSR/master/Scripts/Task/binary-search/coffeescript/binary-search-1.coffee
https://raw.githubusercontent.com/gravoo/codeabbey/master/Binary%20Search.cpp
https://raw.githubusercontent.com/Alekseyya/Codeabbey/master/Task_34/Program.cs
https://raw.githubusercontent.com/stefanos1316/Rosetta_Code_Research_MSR/master/Scripts/Task/binary-search/d/binary-search.d
https://gist.githubusercontent.com/Andruj/cf40fc7634ee1ed4be1a509631b1b579/raw/ff6670d2a32c8ea298456a136fbac15030f26536/binary_search.dart
https://raw.githubusercontent.com/stefanos1316/Rosetta_Code_Research_MSR/master/Scripts/Task/binary-search/e/binary-search.e
https://raw.githubusercontent.com/stefanos1316/Rosetta_Code_Research_MSR/master/Scripts/Task/binary-search/elixir/binary-search.elixir
https://raw.githubusercontent.com/knutin/tree_range/master/src/tree_range.erl
https://raw.githubusercontent.com/wyager/ManyBSTs/master/Contributed/bst.ex
https://raw.githubusercontent.com/stefanos1316/Rosetta_Code_Research_MSR/master/Scripts/Task/binary-search/fortran/binary-search-1.f
https://raw.githubusercontent.com/stefanos1316/Rosetta_Code_Research_MSR/master/Scripts/Task/binary-search/factor/binary-search.factor
https://raw.githubusercontent.com/stefanos1316/Rosetta_Code_Research_MSR/master/Scripts/Task/binary-search/fbsl/binary-search-1.fbsl
https://raw.githubusercontent.com/pastelito02/Challenges-sol/master/Programming/Codeabbey/034/siloimwald.fs
https://raw.githubusercontent.com/stefanos1316/Rosetta_Code_Research_MSR/master/Scripts/Task/binary-search/forth/binary-search.fth
https://raw.githubusercontent.com/stefanos1316/Rosetta_Code_Research_MSR/master/Scripts/Task/binary-search/futhark/binary-search.futhark
https://raw.githubusercontent.com/stefanos1316/Rosetta_Code_Research_MSR/master/Scripts/Task/binary-search/gap/binary-search.gap
https://gist.githubusercontent.com/aaronjwood/05267d0baaaf7bef803d/raw/abbf785d2e3367493b62c3b29b6da55baabceaa0/bst.go
https://raw.githubusercontent.com/stefanos1316/Rosetta_Code_Research_MSR/master/Scripts/Task/binary-search/groovy/binary-search-1.groovy
https://raw.githubusercontent.com/stefanos1316/Rosetta_Code_Research_MSR/master/Scripts/Task/binary-search/hicest/binary-search-1.hicest
https://raw.githubusercontent.com/pastelito02/Challenges-sol/master/Programming/Codeabbey/034/ecadena.hs
https://raw.githubusercontent.com/stefanos1316/Rosetta_Code_Research_MSR/master/Scripts/Task/binary-search/icon/binary-search-1.icon
https://raw.githubusercontent.com/stefanos1316/Rosetta_Code_Research_MSR/master/Scripts/Task/binary-search/j/binary-search-1.j
https://raw.githubusercontent.com/igor-kutepov/codeabbey/master/src/main/java/com/kutepov/samples/codeabbey/BinarySearch.java
https://raw.githubusercontent.com/pastelito02/Challenges-sol/master/Programming/Codeabbey/034/tomasloksa.jl
https://raw.githubusercontent.com/stefanos1316/Rosetta_Code_Research_MSR/master/Scripts/Task/binary-search/jq/binary-search-1.jq
https://raw.githubusercontent.com/pastelito02/Challenges-sol/master/Programming/Codeabbey/034/NevaDA.js
https://raw.githubusercontent.com/stefanos1316/Rosetta_Code_Research_MSR/master/Scripts/Task/binary-search/julia/binary-search-1.julia
https://raw.githubusercontent.com/stefanos1316/Rosetta_Code_Research_MSR/master/Scripts/Task/binary-search/k/binary-search.k
https://raw.githubusercontent.com/bmaslakov/kotlin-algorithm-club/master/src/main/io/uuddlrlrba/ktalgs/search/BinarySearch.kt
https://raw.githubusercontent.com/stefanos1316/Rosetta_Code_Research_MSR/master/Scripts/Task/binary-search/picolisp/binary-search-1.l
https://raw.githubusercontent.com/stefanos1316/Rosetta_Code_Research_MSR/master/Scripts/Task/binary-search/liberty-basic/binary-search.liberty
https://raw.githubusercontent.com/stefanos1316/Rosetta_Code_Research_MSR/master/Scripts/Task/binary-search/common-lisp/binary-search-1.lisp
https://raw.githubusercontent.com/stefanos1316/Rosetta_Code_Research_MSR/master/Scripts/Task/binary-search/logo/binary-search.logo
https://raw.githubusercontent.com/pastelito02/Challenges-sol/master/Programming/Codeabbey/034/atercattus.lua
https://raw.githubusercontent.com/stefanos1316/Rosetta_Code_Research_MSR/master/Scripts/Task/binary-search/matlab/binary-search-1.m
https://raw.githubusercontent.com/stefanos1316/Rosetta_Code_Research_MSR/master/Scripts/Task/binary-search/m4/binary-search.m4
https://raw.githubusercontent.com/stefanos1316/Rosetta_Code_Research_MSR/master/Scripts/Task/binary-search/maple/binary-search-1.maple
https://raw.githubusercontent.com/stefanos1316/Rosetta_Code_Research_MSR/master/Scripts/Task/binary-search/mathematica/binary-search-1.math
https://raw.githubusercontent.com/stefanos1316/Rosetta_Code_Research_MSR/master/Scripts/Task/binary-search/maxscript/binary-search-1.max
https://raw.githubusercontent.com/stefanos1316/Rosetta_Code_Research_MSR/master/Scripts/Task/binary-search/maxima/binary-search.maxima
https://raw.githubusercontent.com/pastelito02/Challenges-sol/master/Programming/Codeabbey/034/stefan.schmiedl.ml
https://raw.githubusercontent.com/stefanos1316/Rosetta_Code_Research_MSR/master/Scripts/Task/binary-search/nim/binary-search-1.nim
https://raw.githubusercontent.com/stefanos1316/Rosetta_Code_Research_MSR/master/Scripts/Task/binary-search/niue/binary-search.niue
https://raw.githubusercontent.com/stefanos1316/Rosetta_Code_Research_MSR/master/Scripts/Task/binary-search/objeck/binary-search.objeck
https://raw.githubusercontent.com/stefanos1316/Rosetta_Code_Research_MSR/master/Scripts/Task/binary-search/ocaml/binary-search.ocaml
https://raw.githubusercontent.com/stefanos1316/Rosetta_Code_Research_MSR/master/Scripts/Task/binary-search/octave/binary-search-1.octave
https://raw.githubusercontent.com/stefanos1316/Rosetta_Code_Research_MSR/master/Scripts/Task/binary-search/oz/binary-search-1.oz
https://raw.githubusercontent.com/stefanos1316/Rosetta_Code_Research_MSR/master/Scripts/Task/binary-search/pari-gp/binary-search.pari
https://raw.githubusercontent.com/AdminSibylla/LazarusBinarySearch/master/unit1.pas
https://raw.githubusercontent.com/stefanos1316/Rosetta_Code_Research_MSR/master/Scripts/Task/binary-search/pascal/binary-search-1.pascal
https://raw.githubusercontent.com/APCSLowell/BinarySearch/master/BinarySearch.pde
https://raw.githubusercontent.com/stefanos1316/Rosetta_Code_Research_MSR/master/Scripts/Task/binary-search/phix/binary-search-1.phix
https://raw.githubusercontent.com/pastelito02/Challenges-sol/master/Programming/Codeabbey/034/KomorowskiDev.php
https://raw.githubusercontent.com/pastelito02/Challenges-sol/master/Programming/Codeabbey/034/pearl_barley.pl
https://raw.githubusercontent.com/stefanos1316/Rosetta_Code_Research_MSR/master/Scripts/Task/binary-search/perl-6/binary-search-1.pl6
https://raw.githubusercontent.com/stefanos1316/Rosetta_Code_Research_MSR/master/Scripts/Task/binary-search/pl-i/binary-search.pli
https://raw.githubusercontent.com/stefanos1316/Rosetta_Code_Research_MSR/master/Scripts/Task/binary-search/pop11/binary-search-1.pop11
https://raw.githubusercontent.com/stefanos1316/Rosetta_Code_Research_MSR/master/Scripts/Task/binary-search/prolog/binary-search.pro
https://raw.githubusercontent.com/vinitkantrod/codeabbey-Solutions-in-Python/master/34_rotate_string.py
https://raw.githubusercontent.com/stefanos1316/Rosetta_Code_Research_MSR/master/Scripts/Task/binary-search/r/binary-search-1.r
https://raw.githubusercontent.com/pastelito02/Challenges-sol/master/Programming/Codeabbey/034/zabodailo.rb
https://raw.githubusercontent.com/stefanos1316/Rosetta_Code_Research_MSR/master/Scripts/Task/binary-search/rexx/binary-search-1.rexx
https://raw.githubusercontent.com/stefanos1316/Rosetta_Code_Research_MSR/master/Scripts/Task/binary-search/ring/binary-search.ring
https://raw.githubusercontent.com/stefanos1316/Rosetta_Code_Research_MSR/master/Scripts/Task/binary-search/racket/binary-search.rkt
https://raw.githubusercontent.com/pastelito02/Challenges-sol/master/Programming/Codeabbey/034/iksfclolr.rs
https://raw.githubusercontent.com/stefanos1316/Rosetta_Code_Research_MSR/master/Scripts/Task/binary-search/run-basic/binary-search.run
https://raw.githubusercontent.com/stefanos1316/Rosetta_Code_Research_MSR/master/Scripts/Task/binary-search/rust/binary-search.rust
https://gist.githubusercontent.com/nsfyn55/3426918/raw/20b9de6ab6307c0208606fce6c46f8a608efffaf/bin-search.scala
https://raw.githubusercontent.com/stefanos1316/Rosetta_Code_Research_MSR/master/Scripts/Task/binary-search/seed7/binary-search-1.seed7
https://raw.githubusercontent.com/stefanos1316/Rosetta_Code_Research_MSR/master/Scripts/Task/binary-search/unix-shell/binary-search-1.sh
https://raw.githubusercontent.com/stefanos1316/Rosetta_Code_Research_MSR/master/Scripts/Task/binary-search/sidef/binary-search-1.sidef
https://raw.githubusercontent.com/rob-Hitchens/OrderStatisticsTree/master/contracts/HitchensOrderStatisticsTree.sol
https://raw.githubusercontent.com/stefanos1316/Rosetta_Code_Research_MSR/master/Scripts/Task/binary-search/spark/binary-search-1.spark
https://raw.githubusercontent.com/stefanos1316/Rosetta_Code_Research_MSR/master/Scripts/Task/binary-search/scheme/binary-search.ss
https://raw.githubusercontent.com/joinpursuit/Pursuit-Core-iOS-Binary-Search-Lab/master/BinarySearchProblems/BinarySearchProblemsTests/BinarySearchProblemsTests.swift
https://raw.githubusercontent.com/stefanos1316/Rosetta_Code_Research_MSR/master/Scripts/Task/binary-search/tcl/binary-search-1.tcl
https://raw.githubusercontent.com/F1LT3R/binary-search-in-typescript/master/binary-search.ts
https://raw.githubusercontent.com/stefanos1316/Rosetta_Code_Research_MSR/master/Scripts/Task/binary-search/vbscript/binary-search.vb
https://raw.githubusercontent.com/stefanos1316/Rosetta_Code_Research_MSR/master/Scripts/Task/binary-search/vba/binary-search-1.vba
https://raw.githubusercontent.com/dahu/bisectly/master/plugin/bisectly.vim
https://raw.githubusercontent.com/JesseClarkND/codeabbey_in_C-NET/master/Binary%20Search
https://raw.githubusercontent.com/stefanos1316/Rosetta_Code_Research_MSR/master/Scripts/Task/binary-search/euphoria/binary-search-1.euphoria
https://raw.githubusercontent.com/stefanos1316/Rosetta_Code_Research_MSR/master/Scripts/Task/binary-search/purebasic/binary-search.purebasic
https://raw.githubusercontent.com/stefanos1316/Rosetta_Code_Research_MSR/master/Scripts/Task/binary-search/sequencel/binary-search.sequencel
https://raw.githubusercontent.com/stefanos1316/Rosetta_Code_Research_MSR/master/Scripts/Task/binary-search/ti-83-basic/binary-search.ti-83
https://raw.githubusercontent.com/stefanos1316/Rosetta_Code_Research_MSR/master/Scripts/Task/binary-search/unixpipes/binary-search.unixpipes
