https://raw.githubusercontent.com/stbrumme/euler/master/euler-0051.cpp
https://raw.githubusercontent.com/iandioch/solutions/master/project_euler/051/solution.go
https://raw.githubusercontent.com/nayuki/Project-Euler-solutions/master/java/p051.java
https://raw.githubusercontent.com/kdungs/euler/master/051/euler_51.py
https://raw.githubusercontent.com/sile/euler.rs/master/euler_02/src/problem051.rs
