https://raw.githubusercontent.com/Cathon/mySolutions/master/overthewire/Bandit/Level_18.md
https://medium.com/@Kan1shka9/overthewire-wargames-bandit-walkthrough-df2b86826c67
https://github.com/milescrabill/overthewire-solutions/blob/master/Bandit.md
https://jhalon.github.io/over-the-wire-bandit2/
https://www.youtube.com/watch?v=RK8dljkbpbM
https://raw.githubusercontent.com/Lorenyx/OverTheWire-Solutions/master/bandit/level_18.md
https://www.youtube.com/watch?v=v8v2GSEkgug
