https://raw.githubusercontent.com/stbrumme/euler/master/euler-0218.cpp
https://raw.githubusercontent.com/nayuki/Project-Euler-solutions/master/haskell/p218.hs
https://raw.githubusercontent.com/nayuki/Project-Euler-solutions/master/java/p218.java
https://raw.githubusercontent.com/nayuki/Project-Euler-solutions/master/python/p218.py
