12
Lednec - Mausse
Goldheath - Mikliday
Mausse - Pikpak
Carnival - Goldheath
Honepy - Carnival
Honepy - Bawnty
Mikliday - Lacry
Mikliday - Mausse
Lacry - Lednec
Sugger - Pikpak
Pikpak - Goldheath
Bawnty - Lacry
11
Bawnty - Carnival
Pikpak - Lacry
Bawnty - Mikliday
Bawnty - Sugger
Pikpak - Bawnty
Mausse - Goldheath
Honepy - Lacry
Honepy - Mikliday
Sugger - Mausse
Pikpak - Mikliday
Sugger - Goldheath
