https://raw.githubusercontent.com/YetAnotherMinion/YAMScratch/master/CodeAbbey/cpp-sol/src/65.cpp
https://raw.githubusercontent.com/igor-kutepov/codeabbey/master/src/main/java/com/kutepov/samples/codeabbey/TransitiveClosureOnCandyStates.java
https://raw.githubusercontent.com/djs1193/codeabbey/master/q65.py
