https://chousensha.github.io/blog/2016/06/12/pentest-lab-drunk-admin-web-hacking-challenge/
https://hacktips.it/drunk-admin-web-challenge/
https://blog.pentests.pl/pentest-lab-drunk-admin-web-hacking/
https://www.it-connect.fr/ctf-drunk-admin-hacking-challenge-solutions-et-explications/
https://www.youtube.com/watch?v=RijAqWlKFIA
https://ghostinthelab.wordpress.com/2012/06/17/remote-exploit-for-drunk-admin-web-hacking-challenge/
https://bechtsoudis.com/data/challenges/ispoglou_drunk_admin_solution.txt
https://www.youtube.com/watch?v=8ok7GJH1E3w
https://hackingandsecurity.blogspot.com/2017/01/drunk-admin-web-hacking-challenge-1.html
