https://github.com/akanshgulati/XSS-Challenges#level-4-context-matters
https://www.youtube.com/watch?v=MYh4cpQWEnk&list=PLcR1uQ0r650kxwhuVc8_QE0WDwU03iqvq&index=4
https://www.youtube.com/watch?v=reKGxs6LFcA
http://blog.dornea.nu/2014/06/02/googles-xss-game-solutions/#309531bbe9a9d3228cd0687ec6e66bed
https://gist.github.com/pbssubhash/2f99644a4f24e8fe6b3e
https://gist.github.com/djadmin/737a77b87d0bad8a9c79
https://gist.github.com/adriaandens/722383ba4c717baf8007#level-4-context-matters
https://gist.github.com/antoinebrl/f7b4d7a1b4465a739d8b#level-4-context-matters
https://gist.github.com/JannisKirschner/947b6d48058e2e2be17ec87436974b14#file-google_xss_game-solutions-txt-L34
https://gist.github.com/Arinerron/19d75c81bcff5622bf6d4f2ff8e3829d#file-xss-game-solutions-txt-L12
https://www.doyler.net/security-not-included/google-xss-game
http://www.behindthefirewalls.com/2014/06/xss-game-by-google-exercises-4-5-and-6.html
https://h4ck3rprotocol.wordpress.com/2015/06/11/answers-for-xss-game/
http://xss-game-solved.blogspot.com/2014/06/solution-of-xss-game-level-4-context_25.html
http://offsec-sureshatt.blogspot.com/2017/04/google-xss-game-solving-level-4.html
https://github.com/arsho/xss_game#level-4-context-matters
https://getlink.pro/v/MYh4cpQWEnk
https://jeonyoungsin.tistory.com/476?category=815285
https://raw.githubusercontent.com/wywise/XSS-game/master/README.md
https://medium.com/bugdecoder/google-xss-game-walkthrough-70d801dd922
