https://www.freebuf.com/sectool/126707.html
https://cloud.tencent.com/developer/article/1043013
http://www.ifuun.com/a20172211194643/
https://www.itdaan.com/tw/9e6b1eb9b0e5
http://tiechemo.com/zx/2538.html
