https://raw.githubusercontent.com/yahwes/project-euler/master/R-Files-0001-0100/pe0012.R
https://raw.githubusercontent.com/kdungs/euler/master/012/euler_12.c
https://raw.githubusercontent.com/zimpha/competitive-programming/master/project-euler/volume01/12.cc
https://raw.githubusercontent.com/danielfm/euler-clojure/master/euler/problem_12.clj
https://raw.githubusercontent.com/EaterOA/Euler/master/1-25/euler012.cpp
https://raw.githubusercontent.com/Dukotech/Project-Euler-Solutions/master/dotnet/src/Problem12.cs
https://raw.githubusercontent.com/DestructHub/ProjectEuler/master/Problem012/Elixir/solution_1.exs
https://raw.githubusercontent.com/jmoiron/euler.go/master/012.go
https://raw.githubusercontent.com/DestructHub/ProjectEuler/master/Problem012/Haskell/solution_1.hs
https://raw.githubusercontent.com/nayuki/Project-Euler-solutions/master/java/p012.java
https://raw.githubusercontent.com/johnmyleswhite/projecteuler.jl/master/012.jl
https://raw.githubusercontent.com/lilyball/projecteuler-ocaml/master/prob12.ml
https://raw.githubusercontent.com/fedeisas/project-euler/master/12/problem-12.php
https://raw.githubusercontent.com/jpillora/euler-in-perl/master/012.pl
https://raw.githubusercontent.com/DestructHub/ProjectEuler/master/Problem012/Python/solution_1.py
https://raw.githubusercontent.com/zsiciarz/euler.rs/master/src/solutions/problem12.rs
https://raw.githubusercontent.com/samskivert/euler-scala/master/Euler012.scala
https://raw.githubusercontent.com/nayuki/Project-Euler-solutions/master/mathematica/p012.mathematica
