https://github.com/Hackplayers/hackthebox-writeups/blob/master/machines/Doctor/Doctor-Writeup-Qarnix.pdf
https://github.com/Hackplayers/hackthebox-writeups/blob/master/machines/Doctor/doctor-HTB-WU-noraj.pdf
https://github.com/Hackplayers/hackthebox-writeups/blob/master/machines/Doctor/kaosam-Doctor.pdf
https://github.com/Purp1eW0lf/HackTheBoxWriteups/blob/master/Retired%20Machines/Doctor.pdf
