http://location-href.com/xvwa-walkthrough/
https://www.youtube.com/watch?v=Zp6iERzxof4
https://www.youtube.com/watch?v=RNWnGRbknsM
https://www.youtube.com/watch?v=Q7mm1WZB69Q
http://naitikhaiking.blogspot.com/2018/08/chapter-2-xvwa-sql-injection-error-based.html
https://securitycode.tistory.com/68
https://www.youtube.com/watch?v=5ulehtDTuvE
