https://raw.githubusercontent.com/pascal-bourut/codeeval-challenges/master/hard/108%20-%20Computer%20Terminal/108.js
https://raw.githubusercontent.com/pascal-bourut/codeeval-challenges/master/hard/108%20-%20Computer%20Terminal/108.php
https://raw.githubusercontent.com/mpillar/codeeval/master/2-hard/computer-terminal/main.py
