https://raw.githubusercontent.com/haoel/leetcode/master/algorithms/cpp/twoSum/twoSum.II.cpp
https://raw.githubusercontent.com/kamyu104/LeetCode-Solutions/master/Golang/two-sum.go
https://gist.githubusercontent.com/ngloom/4674468/raw/20271e79522c5352d9b9eb12b0d448d874f0dbb7/TwoSum.java
https://gist.githubusercontent.com/MohammedBakr44/74c95042ab3b63cc3517a846d9e91ec0/raw/c76602ccde456da40d1127986543b7302891506a/Leetcode%2520two%2520sum%2520solution.js
https://raw.githubusercontent.com/diwu/LeetCode-Solutions-in-Swift/master/Solutions/Solutions_ObjC/Medium/ObjC_Medium_001_Two_Sum.m
https://raw.githubusercontent.com/liuhongjiang/leetcode-solutions-python/master/1-two-sum-v-sorted.py
https://raw.githubusercontent.com/aylei/leetcode-rust/master/src/solution/s0001_two_sum.rs
https://raw.githubusercontent.com/diwu/LeetCode-Solutions-in-Swift/master/Solutions/Solutions/Medium/Medium_001_Two_Sum.swift
