https://raw.githubusercontent.com/codejoydo/codeforces/master/116a.c
https://raw.githubusercontent.com/nikzsaz/Codeforces-solution/master/116A-Tram.cpp
https://raw.githubusercontent.com/yeicol/CodeForces/master/CF116ATram.java
https://raw.githubusercontent.com/changyuheng/codeforces-solutions/master/116a.py
