https://github.com/Macmod/pwnable-writeups/blob/master/toddlers/shellshock.md
https://github.com/victor-li/pwnable.kr-write-ups/blob/master/shellshock.md
https://gist.github.com/ihciah/0ca68da3e32e38818bb9#10-shellshock
https://jeonyoungsin.tistory.com/919?category=878012
