https://alexandervoidstar.wordpress.com/2015/07/18/hackthis-main-level-9/
https://www.youtube.com/watch?v=EJeFyaiL3OI
https://www.youtube.com/watch?v=OT4LqYLOfsY
https://www.youtube.com/watch?v=s1Lms04t9so
