https://raw.githubusercontent.com/Samleo8/CoderByte/master/Easy/LetterChanges.c
https://raw.githubusercontent.com/Nigelmnz/CoderbyteSolutions/master/04-LetterChanges/4.hs
https://raw.githubusercontent.com/ZLester/Coderbyte-Solutions/master/Easy/04%20-%20Letter%20Changes.js
https://raw.githubusercontent.com/copacubanana/phpCoderbyteEasy/master/04letterchanges.php
https://raw.githubusercontent.com/juyongsim/coderbyte/master/LetterChanges.rb
