https://www.youtube.com/watch?v=NjlKVh2I8As
https://www.youtube.com/watch?v=SbEcMYtIU5g
https://www.youtube.com/watch?v=_phjBlw0cLo
https://www.youtube.com/watch?time_continue=1&v=aFYUPEUgteQ
https://www.youtube.com/watch?v=eybWPFAY2X8
https://www.youtube.com/watch?v=jQHJpEz7yFU
http://10degres.net/dvwa-insecure-captcha/
https://es.slideshare.net/AliTamoor1/7-dvwainsecure-captcha
https://unacademy.com/lesson/insecure-captcha-attack-in-dvwa-in-hindi/IENPBT2E
https://foxgrin.github.io/posts/51335/
https://raw.githubusercontent.com/keewenaw/dvwa-guide-2019/master/low/Challenge%2006%3A%20Insecure%20CAPTCHA.md
https://medium.com/@rafaelrenovaci/dvwa-solution-insecure-captcha-3d796a75eb18
