https://www.youtube.com/watch?v=yV1iQEpdB9A
https://www.youtube.com/watch?v=jtxY7z7RIZ8
https://www.youtube.com/watch?v=4SDy1WkGL-A
https://www.aldeid.com/wiki/Hackthissite/Realistic/Level13
https://www.youtube.com/watch?v=DxCE_L_kogw
