19
2049 22.8740 67.7275
776 37.7862 53.8574
2352 26.7969 51.3472
1303 25.4583 60.7388
800 32.1609 61.1863
721 30.9197 58.1975
1996 22.2853 62.9934
2492 23.5872 55.4026
3776 22.6208 68.2038
1930 30.6169 66.2617
1367 21.7965 51.7005
3640 22.9615 68.1933
600 32.9977 51.6913
2422 28.6564 62.0858
1333 24.3513 53.5059
593 32.3196 56.1882
2271 27.2693 55.3886
1381 25.8967 60.7398
2037 33.8692 65.2947
