https://www.aldeid.com/wiki/WackoPicko/Stored-XSS
https://www.youtube.com/watch?v=8euyZGBL3K0
https://www.youtube.com/watch?v=cEqhlaCpzYA
https://www.youtube.com/watch?v=bBgdHS7i-dc
https://www.youtube.com/watch?v=74IdGmx5oQ0
