https://raw.githubusercontent.com/HamidTheGeek/HackerRankSolutions/master/Solutions/SnakesandLaddersTheQuickestWayUp.cs
https://raw.githubusercontent.com/jtgi/acm-practice/master/hacker-rank/graphs/snakesladders/Solution.java
https://raw.githubusercontent.com/duaraghav8/Hackerrank-Problems/master/snakes_and_ladders.py
