https://raw.githubusercontent.com/geemaple/leetcode/master/leetcode/217.contains-duplicate.cpp
https://raw.githubusercontent.com/kflili/LeetcodeCShaprDotNetCore/master/top-interview-questions/217.%20Contains%20Duplicate.cs
https://raw.githubusercontent.com/wumansgy/LeetCode-in-Go/master/Algorithms/0217.contains-duplicate/contains-duplicate.go
https://raw.githubusercontent.com/Mylittleswift/Leetcode-Java/master/Contains%20Duplicate%20I.java
https://raw.githubusercontent.com/everthis/leetcode-js/master/217-contains-duplicate.js
https://raw.githubusercontent.com/topwu/leetkotlin/master/src/main/kotlin/leetcode/ContainsDuplicate.kt
https://raw.githubusercontent.com/andy6804tw/LeetCode/master/Algorithms/C/217-Contains-Duplicate.md
https://raw.githubusercontent.com/qqnc/leetcode-1/master/algorithms/contains_duplicate.rb
https://raw.githubusercontent.com/wty21cn/leetcode-swift/master/leetcode-swift/Easy/q217-contains-duplicate.swift
