https://raw.githubusercontent.com/haoel/leetcode/master/algorithms/cpp/findPeakElement/findPeakElement.cpp
https://raw.githubusercontent.com/haoel/leetcode/master/algorithms/java/src/findPeakElement/findPeakElement.java
https://raw.githubusercontent.com/sshpark/LeetCode-Kotlin/master/medium/162.find-peak-element.kt
