https://raw.githubusercontent.com/mitchellharvey/io.netgarage.org/master/level8/solution
https://github.com/randomcompanyname/ctf_writeup/blob/master/io.netgarage.org/level8.md
https://raw.githubusercontent.com/max-b/io-netgarage/master/basic/level8/level08.cpp
