https://github.com/skiptomyliu/solutions-bwapp#os-command-injection
https://wooly6bear.files.wordpress.com/2016/01/bwapp-tutorial.pdf
https://www.youtube.com/watch?v=8CRa29qN00A
https://www.youtube.com/watch?v=JsYfEmmiox8
https://www.youtube.com/watch?v=_r_Jkr_EU2A
https://www.youtube.com/watch?v=NRHG_WChdXw
https://www.youtube.com/watch?v=ZJSIaaSfbps
https://www.youtube.com/watch?v=heHlDq7eQW0
https://www.youtube.com/watch?v=dHiv5lm2dwA
http://penthusiasts.blogspot.com/2013/12/bwapp-command-injection.html
https://www.youtube.com/watch?v=jruo8Kcf6tk
https://www.youtube.com/watch?v=D_zDdfmLLUM
https://esgiblog.wordpress.com/2016/08/02/tutoriel-n8-os-command-injection-avec-bwapp/
https://github.com/AulaLinux/Ethical-Hacking/wiki/bWAPP#os-command-injection
https://whitehat.vn/threads/os-command-injection-voi-commix-va-netcat.9365/
https://www.hacking.reviews/2017/02/command-injection-to-meterpreter-using.html
http://thehackpot.blogspot.com/2014/05/blind-os-command-injection-attacks.html
https://teckk2.github.io/web-pentesting/2018/02/07/OS-Command-Injection.html
http://security-is-just-an-illusion.blogspot.com/2014/01/bwapp-command-injection.html
https://www.youtube.com/watch?v=JsYfEmmiox8&index=6&list=PLb5P0I7Dt6Rb4x-_7hNGc5qA5xUXbUUGD
https://www.youtube.com/watch?v=gyw_jQckUbc
https://www.youtube.com/watch?v=5-1QLbVa8YE
https://l1cafe.blog/2019/03/17/bwapp-writeup.html
https://blog.csdn.net/youshaoduo/article/details/81328032
https://securitycode.tistory.com/103
https://studysecurity-world.tistory.com/59
https://blog.51cto.com/dearch/1950456
https://www.freebuf.com/sectool/76885.html
https://www.programmersought.com/article/3226535154/
