https://raw.githubusercontent.com/diguage/leetcode/e72299539a319c94b435ff26cf077371a353b00c/docs/1138-alphabet-board-path.adoc
https://raw.githubusercontent.com/rongyi/leetcode/9d66feb7df3ad85db33c594841cc778b6ae4266f/cc/alphabet-board-path.cc
https://raw.githubusercontent.com/kamyu104/LeetCode-Solutions/master/C%2B%2B/alphabet-board-path.cpp
https://raw.githubusercontent.com/dftty/LeetCode/c352ab2db20788c2ed6f8d1bdab42919fbe94474/Assets/Second/AlphabetBoardPath.cs
https://raw.githubusercontent.com/cicidi/leetcode-WIP/f2137a57fc11b26441f642511139110cbb120951/leetcode_question/golang/tbd/1138.alphabet-board-path.go
https://raw.githubusercontent.com/RanhaoKang/leetcode/d401d8f6dfe318828f30902f21f5633a0b279765/solutions/1138_alphabet-board-path.ipynb
https://raw.githubusercontent.com/atulmgupta/leetcode-solutions/ba76c8028326aa4817ce24d9266c968159a80ea0/src/main/java/com/atul/leetcode/medium/AlphabetBoardPath.java
https://raw.githubusercontent.com/JuliaCN/LeetCode.jl/37fdccdabb57cca30a648479f9011f4d7caac870/src/unresolved/1138.alphabet-board-path.jl
https://raw.githubusercontent.com/dewfall123/Diary/8d276246829ac6a14ed62f64c94de15ca6882e82/leetcode/1138.alphabet-board-path.js
https://raw.githubusercontent.com/HakuLess/LeetCode/eaafadb7c2962149d26600704e6980f953069505/src/leetcode/contest/last/c147/1138.%20Alphabet%20Board%20Path.kt
https://raw.githubusercontent.com/liseyko/CtCI/c27f19fac14b4acef8c631ad5569e1a5c29e9e1f/leetcode/problems/1138.alphabet-board-path.py
https://raw.githubusercontent.com/MrMiaoMiao/yeet-the-leet/563d779467ef5a7cc85cbe954eeaf3c1f5463313/algorithms/Medium/1138.alphabet-board-path.rb
https://raw.githubusercontent.com/czbead/Practice/598517c10f82fbe19acd41fdfea1995e7ea229fc/M1138.%20Alphabet%20Board%20Path
https://raw.githubusercontent.com/zjayers/leetcode-scraper/50b1829db990be895c82494fd649a9e3ecc7c5ea/algorithms/alphabet-board-path
