https://raw.githubusercontent.com/keineahnung2345/leetcode-cpp-practices/master/100.%20Same%20Tree.cpp
https://raw.githubusercontent.com/kflili/LeetcodeCShaprDotNetCore/master/Algorithms%20Basics/Chapter%203.%20Binary%20Tree/100.%20Same%20Tree.cs
https://raw.githubusercontent.com/wumansgy/LeetCode-in-Go/master/Algorithms/0100.same-tree/same-tree.go
https://gist.githubusercontent.com/TinaWang113/26ef10639edbf3da11b1d8f694afd2e5/raw/32fa7a3ddcbd01c7b5db369e263a800a3dfdde53/LeetCode_100.java
https://raw.githubusercontent.com/everthis/leetcode-js/master/100-same-tree.js
https://raw.githubusercontent.com/topwu/leetkotlin/master/src/main/kotlin/leetcode/SameTree.kt
https://raw.githubusercontent.com/diwu/LeetCode-Solutions-in-Swift/4eba9e971aced2636dd80cd027ff5738a4d274fc/Solutions/Solutions_ObjC/Easy/ObjC_Easy_100_Same_Tree.m
https://raw.githubusercontent.com/wizcabbit/leetcode.python/master/100.Same.Tree.py
https://raw.githubusercontent.com/qqnc/leetcode-1/master/algorithms/same_tree.rb
https://raw.githubusercontent.com/aylei/leetcode-rust/master/src/solution/s0100_same_tree.rs
https://raw.githubusercontent.com/soapyigu/LeetCode-Swift/master/Tree/SameTree.swift
