https://raw.githubusercontent.com/zhangruiskyline/Algorithm-and-Data-Structure/master/leetcode/132-pattern.c
https://raw.githubusercontent.com/kamyu104/LeetCode-Solutions/master/C%2B%2B/132-pattern.cpp
https://raw.githubusercontent.com/charles-wangkai/leetcode/master/132-pattern/Solution.java
https://raw.githubusercontent.com/ShiqinHuo/LeetCode-Python/master/Python/132-pattern.py
