https://techvomit.net/railsgoat-notes/
https://www.tutorialspoint.com/security_testing/insecure_direct_object_reference
https://www.bugcrowd.com/blog/how-to-find-idor-insecure-direct-object-reference-vulnerabilities-for-large-bounty-rewards/
http://thethinkingtester.blogspot.com/2018/05/testing-for-idor-vulnerabilities.html
https://www.linuxsecrets.com/owasp-wiki/index.php/Ruby_on_Rails_Cheatsheet.html
https://www.hackingarticles.in/beginner-guide-insecure-direct-object-references/
https://github.com/OWASP/railsgoat/wiki/A2-Broken-Authentication-and-Session-Management
https://github.com/OWASP/railsgoat/wiki/R5-A2-Credential-Enumeration
https://github.com/OWASP/railsgoat/wiki/A2-Lack-of-Password-Complexity
https://github.com/OWASP/railsgoat/wiki/A2-Insecure-Compare-and-Timing-Attacks
https://github.com/OWASP/railsgoat/wiki/A2-Lack-of-HttpOnly-Flag
