https://bestestredteam.com/2018/07/07/juice-shop-walkthrough-2-star/
https://bkimminich.gitbooks.io/pwning-owasp-juice-shop/content/appendix/solutions.html
https://incognitjoe.github.io/hacking-the-juice-shop.html
https://www.youtube.com/watch?v=WWxqff4_AoY
https://github.com/apox64/OWASP-Juice-Shop-Write-Up/blob/master/juice-shop-writeup.md
https://raw.githubusercontent.com/apox64/OWASP-Juice-Shop-Write-Up/master/juice-shop-writeup.md
https://raw.githubusercontent.com/refabr1k/owasp-juiceshop-solutions/master/Level1/zero-stars.md
https://headfullofciphers.com/2020/06/18/websec-101-juiceshop-1star-challenges/
https://blog.yekki.co.uk/owasp-juice-shop-introtrivial/
