https://vinegrep.blogspot.com/2016/12/21ltr-scene-1-walkthrough.html
http://forelsec.blogspot.com/2013/01/solving-21ltr-scene-1.html
https://blog.g0tmi1k.com/2012/09/21ltr-scene-1/
https://www.youtube.com/watch?v=qE6ePZsN5V4
https://www.hackingarticles.in/hack-the-21ltr-scene-1-vm-boot-to-root/
https://binarycoders.dev/2018/01/21/walkthrough-21ltr-scene-1/
https://grumpy-sec.blogspot.com/2016/12/from-boot-to-root-21-ltr-scene1-hello.html
http://www.cyberry.co.uk/vulnhub/21ltr-scene-1/
https://www.abatchy.com/2017/03/21ltr-scene-1-walkthrough-vulnhub
http://www.creatigon.com/blog/21ltr-scene-1-walkthrough/
https://github.com/Pineapple66/21LTR-Scene-1/blob/master/README.md
https://developpaper.com/hack-the-21ltr-scene-1-vm-boot-to-root/
http://www.shangdixinxi.com/detail-1029691.html
https://www.youtube.com/watch?v=g5YiBdIPT9c
https://www.jianshu.com/p/df699335c92f
https://www.qedev.com/linux/286152.html
