https://raw.githubusercontent.com/mzfr/ctf-writeups/master/picoCTF-2018/Web_exploitation/The%20Vault/readme.md
https://raw.githubusercontent.com/PlatyPew/picoctf-2018-writeup/master/Web%20Exploitation/The%20Vault/README.md
https://raw.githubusercontent.com/zst123/picoctf-2018-writeups/master/Solved/The_Vault/README.md
https://raw.githubusercontent.com/rughciatuk/Pico2018/master/The-Vault_COMPLETE/flag.txt
https://raw.githubusercontent.com/0e85dc6eaf/CTF-Writeups/master/PicoCTF%202018/Web%20exploitation/Vault/README.md
