https://raw.githubusercontent.com/StevenDunn/CodeEval/master/SlangFlavor/c/sf.c
https://raw.githubusercontent.com/StevenDunn/CodeEval/master/SlangFlavor/cpp/sf.cpp
https://raw.githubusercontent.com/StevenDunn/CodeEval/master/SlangFlavor/c%23/SlangFlavor.cs
https://raw.githubusercontent.com/fabriziocucci/CodeEval/master/easy/slang-flavor/java/src/main/java/Main.java
https://raw.githubusercontent.com/rdtsc/codeeval-solutions/master/src/easy/slang-flavor/solutions/javascript/solution.js
https://raw.githubusercontent.com/mpillar/codeeval/master/0-easy/slang-flavor/main.py
