https://raw.githubusercontent.com/liuxing9848/leetcode-2/master/path-sum-ii_1_AC.cpp
https://raw.githubusercontent.com/zjbztianya/LeetCode/master/Algorithms/0113.path-sum-ii/path-sum-ii.go
https://raw.githubusercontent.com/maiquynhtruong/Leetcode/master/path-sum-ii.java
https://raw.githubusercontent.com/wizcabbit/leetcode.python/master/113.Path.Sum.II.py
