https://raw.githubusercontent.com/stbrumme/euler/master/euler-0139.cpp
https://raw.githubusercontent.com/nayuki/Project-Euler-solutions/master/java/p139.java
https://raw.githubusercontent.com/nayuki/Project-Euler-solutions/master/python/p139.py
