https://www.hackingarticles.in/hack-the-box-frolic-walkthrough/
https://www.youtube.com/watch?v=YhOeS6GjGWU
https://0xrick.github.io/hack-the-box/frolic/
https://ironhackers.es/writeups/writeup-frolic-hackthebox/
https://0x00sec.org/t/hackthebox-writeup-frolic/12478
https://snowscan.io/htb-writeup-frolic/
https://hackso.me/frolic-htb-walkthrough/
https://epi052.gitlab.io/notes-to-self/blog/2018-10-22-hack-the-box-frolic/
https://hipotermia.pw/htb/frolic
https://ironhackers.es/en/writeups/writeup-frolic-hackthebox/
https://0xdf.gitlab.io/2019/03/23/htb-frolic.html
https://www.hacktoday.io/t/hack-the-box-frolic-walkthrough/2520
https://underc0de.org/foro/hacking/t39208/
https://github.com/mzfr/HackTheBox-writeups/tree/master/Frolic
https://github.com/Hackplayers/hackthebox-writeups/blob/master/machines/Frolic/Mansoor-Frolic.pdf
https://github.com/Hackplayers/hackthebox-writeups/blob/master/machines/Frolic/amber-frolic.pdf
https://github.com/Hackplayers/hackthebox-writeups/blob/master/machines/Frolic/fiti-frolic.pdf
