https://raw.githubusercontent.com/nikzsaz/Codeforces-solution/master/127B-CanvasFrameImpoRevision.cpp
https://raw.githubusercontent.com/changyuheng/codeforces-solutions/master/127b.py
https://raw.githubusercontent.com/nomeaning777/codeforces/master/127B.rb
https://raw.githubusercontent.com/bound1ess/codeforces-problemset-2/master/127/b.test
