https://alexandervoidstar.wordpress.com/2015/06/13/hackthis-main-level-1/
https://www.youtube.com/watch?v=7IWrvp5E8v0
https://www.youtube.com/watch?v=-FUPDw9PsrE
https://obilan.be/hackthis-main-level-1/
https://github.com/james9909/PracticeCTF/blob/master/HackThis/Main-1/Solution.txt
https://www.youtube.com/watch?v=QCsm-nSC1Uk
https://www.youtube.com/watch?v=Kqnaf4cOw0A
https://www.youtube.com/watch?v=oJ6xPCo0kKo
https://www.youtube.com/watch?v=i9RSGNxz6-8
https://www.youtube.com/watch?v=lGzJt0lvB1E
https://www.youtube.com/watch?v=gdriuk4GYqs
https://www.youtube.com/watch?v=fM7Jl-w-4DU
https://www.youtube.com/watch?v=iQoYqOxVeUo
https://www.youtube.com/watch?v=jvvJjhxkbqA
https://www.youtube.com/watch?v=Z4fwkG0Juzw
https://www.youtube.com/watch?v=TEDjXIkzfeY
https://www.youtube.com/watch?v=KWVPr4eecJk
https://www.youtube.com/watch?v=VIs7Rw506Hk
https://www.youtube.com/watch?v=k8huTnmiluo
https://www.youtube.com/watch?v=t4gS1K9XdHg
https://www.youtube.com/watch?v=UZFQJR8OOUg
https://www.youtube.com/watch?v=G4oCNfNI41I
https://medium.com/@thereallulz/write-up-hackthis-main-basic-all-levels-by-thereallulz-4c5dac3b0545
