https://topic.alibabacloud.com/a/sqli-labs-less18-post-header-injection-uagent-field-error-based-error-based-user-agent-header-post-injection_8_8_30018415.html
https://raw.githubusercontent.com/gr4vit0n/sqli-labs-solution/master/less18.py
https://www.youtube.com/watch?v=5P-knuYoDdw
