https://gist.github.com/GSkouroupathis/6990813
https://securityshards.wordpress.com/2015/03/16/hackthissite-basic-challenges-1-5/
https://www.youtube.com/watch?v=t506xILCFIc
https://ehc.auburn.edu/hackthissite/basic
https://f3real.github.io/247ctf_1.html
https://hackmd.io/@Chivato/rkj-Y1GVI
https://lnlinh31.blogspot.com/2019/06/root-me-solution-file-upload-zip-web.html
https://sithlab.tistory.com/2827
https://medium.com/@thehackersmeetup/beginners-guide-to-capture-the-flag-ctf-71a1cbd9d27c
https://raw.githubusercontent.com/B00139327/cryptohack/master/Rsa%20starters/starter1/solution.py
