https://raw.githubusercontent.com/edward/exercism-c-isogram/master/src/isogram.c
https://raw.githubusercontent.com/joaofnds/exercism/master/clojure/isogram/src/isogram.clj
https://raw.githubusercontent.com/homembaixinho/exercism/master/cpp/isogram/isogram.cpp
https://raw.githubusercontent.com/ChrisPritchard/My-Exercism-Solutions/master/csharp/isogram/Isogram.cs
https://raw.githubusercontent.com/v-kolesnikov/exercism-elixir/master/lib/exercism/elixir/isogram/isogram.exs
https://raw.githubusercontent.com/ChrisPritchard/My-Exercism-Solutions/master/fsharp/isogram/Isogram.fs
https://raw.githubusercontent.com/ChrisPritchard/My-Exercism-Solutions/master/go/isogram/isogram.go
https://raw.githubusercontent.com/binupaul/exercism-java-solutions/master/java/isogram/src/main/java/IsogramChecker.java
https://raw.githubusercontent.com/paulfioravanti/exercism/master/javascript/isogram/isogram.js
https://raw.githubusercontent.com/varunu28/Exercism-Python/master/isogram/isogram_test.py
https://raw.githubusercontent.com/paulfioravanti/exercism/master/ruby/isogram/isogram.rb
https://raw.githubusercontent.com/blogscot/exercism-rust/master/isogram/src/lib.rs
https://raw.githubusercontent.com/paulfioravanti/exercism/master/typescript/isogram/isogram.ts
